{
  "attack": 1507,
  "attributeId": "FIRE",
  "cardCustomize": {
    "bonusCode1": "ATTACK",
    "bonusCode2": "DEFENSE",
    "bonusCode3": "HP",
    "bonusCode4": "ACCEL",
    "bonusCode5": "BLAST",
    "bonusCode6": "CHARGE",
    "bonusNum1": 60,
    "bonusNum2": 40,
    "bonusNum3": 50,
    "bonusNum4": 50,
    "bonusNum5": 50,
    "bonusNum6": 30,
    "cardId": 10033,
    "gift1": {
      "attributeId": "FIRE",
      "id": 113,
      "name": "フレイムオーブ＋＋",
      "price": 2000,
      "rank": 3,
      "rankGift": "RANK_3"
    },
    "gift2": {
      "attributeId": "FIRE",
      "id": 111,
      "name": "フレイムオーブ",
      "price": 500,
      "rank": 1,
      "rankGift": "RANK_1"
    },
    "gift3": {
      "attributeId": "FIRE",
      "id": 112,
      "name": "フレイムオーブ＋",
      "price": 1000,
      "rank": 2,
      "rankGift": "RANK_2"
    },
    "gift4": {
      "id": 551,
      "name": "レインボーオーブ",
      "price": 10000,
      "rank": 3,
      "rankGift": "RANK_3"
    },
    "gift5": {
      "id": 554,
      "name": "屋上のバルーン",
      "price": 5000,
      "rank": 3,
      "rankGift": "RANK_3"
    },
    "gift6": {
      "id": 301,
      "name": "燕尾の羽",
      "price": 1000,
      "rank": 1,
      "rankGift": "RANK_1"
    },
    "giftId1": 113,
    "giftId2": 111,
    "giftId3": 112,
    "giftId4": 551,
    "giftId5": 554,
    "giftId6": 301,
    "giftNum1": 4,
    "giftNum2": 9,
    "giftNum3": 7,
    "giftNum4": 2,
    "giftNum5": 3,
    "giftNum6": 8
  },
  "cardId": 10033,
  "cardMagia": {
    "art1": {
      "artId": 100300104,
      "effectValue": 3300,
      "growPoint": 100,
      "targetId": "ALL",
      "verbCode": "ATTACK"
    },
    "art2": {
      "artId": 330301803,
      "effectCode": "BLAST",
      "effectValue": 250,
      "enableTurn": 3,
      "growPoint": 25,
      "targetId": "ALL",
      "verbCode": "BUFF"
    },
    "artId1": 100300104,
    "artId2": 330301803,
    "groupId": 1014,
    "id": 10033,
    "name": "炎扇斬舞",
    "shortDescription": "敵全体にダメージ[Ⅳ] ＆ Blast ダメージUP(全/3T)"
  },
  "cardName": "由比 鶴乃",
  "cardSkill": {
    "art1": {
      "artId": 310401805,
      "effectCode": "BLAST",
      "effectValue": 600,
      "enableTurn": 1,
      "growPoint": 25,
      "targetId": "CONNECT",
      "verbCode": "BUFF"
    },
    "art2": {
      "artId": 310401105,
      "effectCode": "ATTACK",
      "effectValue": 300,
      "enableTurn": 1,
      "growPoint": 25,
      "targetId": "CONNECT",
      "verbCode": "BUFF"
    },
    "artId1": 310401805,
    "artId2": 310401105,
    "groupId": 1092,
    "id": 10033,
    "name": "出たとこ勝負で行こうよ！",
    "shortDescription": "Blast ダメージUP[Ⅴ] ＆ 攻撃力UP[Ⅴ]"
  },
  "charaNo": 1003,
  "commandType1": "MPUP",
  "commandType2": "MPUP",
  "commandType3": "RANGE_V",
  "commandType4": "RANGE_V",
  "commandType5": "CHARGE",
  "defense": 1116,
  "growthType": "ATTACK",
  "hp": 3463,
  "initialType": "MAGIA",
  "magiaCharaNo": 100300,
  "magiaId": 10033,
  "miniCharaNo": 100300,
  "rank": "RANK_3",
  "rateGainMpAtk": 1200,
  "rateGainMpDef": 1200,
  "skillId": 10033
}