{
  "attack": 1094,
  "attributeId": "DARK",
  "cardCustomize": {
    "bonusCode1": "ATTACK",
    "bonusCode2": "DEFENSE",
    "bonusCode3": "HP",
    "bonusCode4": "ACCEL",
    "bonusCode5": "BLAST",
    "bonusCode6": "CHARGE",
    "bonusNum1": 30,
    "bonusNum2": 30,
    "bonusNum3": 60,
    "bonusNum4": 40,
    "bonusNum5": 20,
    "bonusNum6": 40,
    "cardId": 30062,
    "gift1": {
      "attributeId": "DARK",
      "id": 151,
      "name": "ダークオーブ",
      "price": 500,
      "rank": 1,
      "rankGift": "RANK_1"
    },
    "gift2": {
      "attributeId": "DARK",
      "id": 152,
      "name": "ダークオーブ＋",
      "price": 1000,
      "rank": 2,
      "rankGift": "RANK_2"
    },
    "gift3": {
      "attributeId": "DARK",
      "id": 153,
      "name": "ダークオーブ＋＋",
      "price": 2000,
      "rank": 3,
      "rankGift": "RANK_3"
    },
    "gift4": {
      "id": 403,
      "name": "絵馬の水引",
      "price": 3000,
      "rank": 2,
      "rankGift": "RANK_2"
    },
    "gift5": {
      "id": 301,
      "name": "燕尾の羽",
      "price": 1000,
      "rank": 1,
      "rankGift": "RANK_1"
    },
    "gift6": {
      "id": 503,
      "name": "マチビト馬の車輪",
      "price": 5000,
      "rank": 3,
      "rankGift": "RANK_3"
    },
    "giftId1": 151,
    "giftId2": 152,
    "giftId3": 153,
    "giftId4": 403,
    "giftId5": 301,
    "giftId6": 503,
    "giftNum1": 6,
    "giftNum2": 4,
    "giftNum3": 2,
    "giftNum4": 3,
    "giftNum5": 5,
    "giftNum6": 1
  },
  "cardId": 30062,
  "cardMagia": {
    "art1": {
      "artId": 100300101,
      "effectValue": 3000,
      "growPoint": 100,
      "targetId": "ALL",
      "verbCode": "ATTACK"
    },
    "art2": {
      "artId": 430302202,
      "effectCode": "DAMAGE",
      "effectValue": 175,
      "enableTurn": 3,
      "growPoint": 25,
      "targetId": "ALL",
      "verbCode": "DEBUFF"
    },
    "artId1": 100300101,
    "artId2": 430302202,
    "groupId": 1014,
    "id": 30062,
    "name": "あーしのヤバめなハート",
    "shortDescription": "敵全体にダメージ[Ⅰ] ＆ 与えるダメージDOWN(敵全/3T)"
  },
  "cardName": "木崎 衣美里",
  "cardSkill": {
    "art1": {
      "artId": 310401304,
      "effectCode": "DAMAGE",
      "effectValue": 275,
      "enableTurn": 1,
      "growPoint": 25,
      "targetId": "CONNECT",
      "verbCode": "BUFF"
    },
    "art2": {
      "artId": 610411100,
      "effectCode": "BLINDNESS",
      "effectValue": 500,
      "enableTurn": 1,
      "growPoint": 0,
      "probability": 1000,
      "targetId": "CONNECT",
      "verbCode": "ENCHANT"
    },
    "artId1": 310401304,
    "artId2": 610411100,
    "groupId": 1087,
    "id": 30062,
    "name": "あーしとドキドキしよ！",
    "shortDescription": "与えるダメージUP[Ⅳ] ＆ 必ず幻惑"
  },
  "charaNo": 3006,
  "commandType1": "MPUP",
  "commandType2": "MPUP",
  "commandType3": "RANGE_H",
  "commandType4": "CHARGE",
  "commandType5": "CHARGE",
  "defense": 1047,
  "growthType": "ATTACK",
  "hp": 3812,
  "illustrator": "ニャン☆ぷぅ",
  "initialType": "SUPPORT",
  "magiaCharaNo": 300600,
  "magiaId": 30062,
  "miniCharaNo": 300600,
  "rank": "RANK_2",
  "rateGainMpAtk": 1200,
  "rateGainMpDef": 1000,
  "skillId": 30062
}