{
  "attack": 953,
  "attributeId": "FIRE",
  "cardCustomize": {
    "bonusCode1": "ATTACK",
    "bonusCode2": "DEFENSE",
    "bonusCode3": "HP",
    "bonusCode4": "ACCEL",
    "bonusCode5": "BLAST",
    "bonusCode6": "CHARGE",
    "bonusNum1": 30,
    "bonusNum2": 50,
    "bonusNum3": 40,
    "bonusNum4": 40,
    "bonusNum5": 20,
    "bonusNum6": 40,
    "cardId": 30092,
    "gift1": {
      "attributeId": "FIRE",
      "id": 111,
      "name": "フレイムオーブ",
      "price": 500,
      "rank": 1,
      "rankGift": "RANK_1"
    },
    "gift2": {
      "attributeId": "FIRE",
      "id": 113,
      "name": "フレイムオーブ＋＋",
      "price": 2000,
      "rank": 3,
      "rankGift": "RANK_3"
    },
    "gift3": {
      "attributeId": "FIRE",
      "id": 112,
      "name": "フレイムオーブ＋",
      "price": 1000,
      "rank": 2,
      "rankGift": "RANK_2"
    },
    "gift4": {
      "id": 402,
      "name": "南京錠の鎖",
      "price": 3000,
      "rank": 2,
      "rankGift": "RANK_2"
    },
    "gift5": {
      "id": 305,
      "name": "屋上の鍵",
      "price": 1000,
      "rank": 1,
      "rankGift": "RANK_1"
    },
    "gift6": {
      "id": 502,
      "name": "階段のモニュメント",
      "price": 5000,
      "rank": 3,
      "rankGift": "RANK_3"
    },
    "giftId1": 111,
    "giftId2": 113,
    "giftId3": 112,
    "giftId4": 402,
    "giftId5": 305,
    "giftId6": 502,
    "giftNum1": 6,
    "giftNum2": 2,
    "giftNum3": 4,
    "giftNum4": 3,
    "giftNum5": 5,
    "giftNum6": 1
  },
  "cardId": 30092,
  "cardMagia": {
    "art1": {
      "artId": 100500101,
      "effectValue": 4500,
      "growPoint": 100,
      "targetId": "VERTICAL",
      "verbCode": "ATTACK"
    },
    "art2": {
      "artId": 200300401,
      "effectCode": "HP",
      "effectValue": 150,
      "growPoint": 20,
      "targetId": "ALL",
      "verbCode": "HEAL"
    },
    "artId1": 100500101,
    "artId2": 200300401,
    "groupId": 1016,
    "id": 30092,
    "name": "激辛フルコース",
    "shortDescription": "縦方向にダメージ[Ⅰ] ＆ HP回復(全)"
  },
  "cardName": "胡桃 まなか",
  "cardSkill": {
    "art1": {
      "artId": 200400403,
      "effectCode": "HP",
      "effectValue": 350,
      "growPoint": 20,
      "targetId": "CONNECT",
      "verbCode": "HEAL"
    },
    "art2": {
      "artId": 310401103,
      "effectCode": "ATTACK",
      "effectValue": 250,
      "enableTurn": 1,
      "growPoint": 25,
      "targetId": "CONNECT",
      "verbCode": "BUFF"
    },
    "artId1": 200400403,
    "artId2": 310401103,
    "groupId": 1078,
    "id": 30092,
    "name": "まなかが味を引き出します！",
    "shortDescription": "HP回復[Ⅲ] ＆ 攻撃力UP[Ⅲ]"
  },
  "charaNo": 3009,
  "commandType1": "MPUP",
  "commandType2": "MPUP",
  "commandType3": "RANGE_V",
  "commandType4": "CHARGE",
  "commandType5": "CHARGE",
  "defense": 1240,
  "growthType": "BALANCE",
  "hp": 3303,
  "illustrator": "くらは",
  "initialType": "HEAL",
  "magiaCharaNo": 300900,
  "magiaId": 30092,
  "miniCharaNo": 300900,
  "rank": "RANK_2",
  "rateGainMpAtk": 1000,
  "rateGainMpDef": 1200,
  "skillId": 30092
}