{
  "attack": 2408,
  "attributeId": "WATER",
  "cardCustomize": {
    "bonusCode1": "ATTACK",
    "bonusCode2": "DEFENSE",
    "bonusCode3": "HP",
    "bonusCode4": "ACCEL",
    "bonusCode5": "BLAST",
    "bonusCode6": "CHARGE",
    "bonusNum1": 90,
    "bonusNum2": 50,
    "bonusNum3": 60,
    "bonusNum4": 90,
    "bonusNum5": 50,
    "bonusNum6": 50,
    "cardId": 10095,
    "gift1": {
      "id": 551,
      "name": "レインボーオーブ",
      "price": 10000,
      "rank": 3,
      "rankGift": "RANK_3"
    },
    "gift2": {
      "attributeId": "WATER",
      "id": 122,
      "name": "アクアオーブ＋",
      "price": 1000,
      "rank": 2,
      "rankGift": "RANK_2"
    },
    "gift3": {
      "attributeId": "WATER",
      "id": 123,
      "name": "アクアオーブ＋＋",
      "price": 2000,
      "rank": 3,
      "rankGift": "RANK_3"
    },
    "gift4": {
      "id": 554,
      "name": "屋上のバルーン",
      "price": 5000,
      "rank": 3,
      "rankGift": "RANK_3"
    },
    "gift5": {
      "id": 502,
      "name": "階段のモニュメント",
      "price": 5000,
      "rank": 3,
      "rankGift": "RANK_3"
    },
    "gift6": {
      "id": 402,
      "name": "南京錠の鎖",
      "price": 3000,
      "rank": 2,
      "rankGift": "RANK_2"
    },
    "giftId1": 551,
    "giftId2": 122,
    "giftId3": 123,
    "giftId4": 554,
    "giftId5": 502,
    "giftId6": 402,
    "giftNum1": 3,
    "giftNum2": 15,
    "giftNum3": 10,
    "giftNum4": 8,
    "giftNum5": 10,
    "giftNum6": 15
  },
  "cardId": 10095,
  "cardMagia": {
    "art1": {
      "artId": 100000107,
      "effectValue": 7200,
      "growPoint": 100,
      "targetId": "TARGET",
      "verbCode": "ATTACK"
    },
    "art2": {
      "artId": 200200507,
      "effectCode": "MP",
      "effectValue": 350,
      "growPoint": 10,
      "targetId": "SELF",
      "verbCode": "HEAL"
    },
    "art3": {
      "artId": 330201607,
      "effectCode": "ACCEL",
      "effectValue": 250,
      "enableTurn": 3,
      "growPoint": 25,
      "targetId": "SELF",
      "verbCode": "BUFF"
    },
    "artId1": 100000107,
    "artId2": 200200507,
    "artId3": 330201607,
    "groupId": 1012,
    "id": 10095,
    "name": "インフィニットポセイドン",
    "shortDescription": "敵単体にダメージ[Ⅶ] ＆ MP回復(自) ＆ Accele MPUP(自/3T)"
  },
  "cardName": "水波 レナ",
  "cardSkill": {
    "art1": {
      "artId": 310401109,
      "effectCode": "ATTACK",
      "effectValue": 400,
      "enableTurn": 1,
      "growPoint": 25,
      "targetId": "CONNECT",
      "verbCode": "BUFF"
    },
    "art2": {
      "artId": 310401609,
      "effectCode": "ACCEL",
      "effectValue": 500,
      "enableTurn": 1,
      "growPoint": 25,
      "targetId": "CONNECT",
      "verbCode": "BUFF"
    },
    "art3": {
      "artId": 610406309,
      "effectCode": "CRITICAL",
      "effectValue": 2000,
      "enableTurn": 1,
      "growPoint": 0,
      "probability": 700,
      "targetId": "CONNECT",
      "verbCode": "CONDITION_GOOD"
    },
    "artId1": 310401109,
    "artId2": 310401609,
    "artId3": 610406309,
    "groupId": 1085,
    "id": 10095,
    "name": "仕方ないから手伝ってあげる",
    "shortDescription": "攻撃力UP[Ⅸ] ＆ Accele MPUP[Ⅸ] ＆ 確率でクリティカル[Ⅸ]"
  },
  "charaNo": 1009,
  "commandType1": "MPUP",
  "commandType2": "MPUP",
  "commandType3": "MPUP",
  "commandType4": "RANGE_V",
  "commandType5": "CHARGE",
  "defense": 1828,
  "doppelCardMagia": {
    "art1": {
      "artId": 190100981,
      "effectValue": 16720,
      "growPoint": 220,
      "targetId": "TARGET",
      "verbCode": "ATTACK"
    },
    "art2": {
      "artId": 200200509,
      "effectCode": "MP",
      "effectValue": 400,
      "growPoint": 10,
      "targetId": "SELF",
      "verbCode": "HEAL"
    },
    "art3": {
      "artId": 330201609,
      "effectCode": "ACCEL",
      "effectValue": 300,
      "enableTurn": 3,
      "growPoint": 25,
      "targetId": "SELF",
      "verbCode": "BUFF"
    },
    "artId1": 190100981,
    "artId2": 200200509,
    "artId3": 330201609,
    "groupId": 1012,
    "id": 10098,
    "name": "変身のドッペル",
    "shortDescription": "敵単体にダメージ[Ⅸ] ＆ MP回復(自) ＆ Accele MPUP(自/3T)"
  },
  "doppelMagiaId": 10098,
  "growthType": "ATKDEF",
  "hp": 5578,
  "initialType": "ATTACK",
  "magiaCharaNo": 100900,
  "magiaId": 10095,
  "miniCharaNo": 100900,
  "rank": "RANK_5",
  "rateGainMpAtk": 1000,
  "rateGainMpDef": 800,
  "skillId": 10095
}