{
  "attack": 1214,
  "attributeId": "LIGHT",
  "cardCustomize": {
    "bonusCode1": "ATTACK",
    "bonusCode2": "DEFENSE",
    "bonusCode3": "HP",
    "bonusCode4": "ACCEL",
    "bonusCode5": "BLAST",
    "bonusCode6": "CHARGE",
    "bonusNum1": 30,
    "bonusNum2": 70,
    "bonusNum3": 50,
    "bonusNum4": 50,
    "bonusNum5": 50,
    "bonusNum6": 30,
    "cardId": 30043,
    "gift1": {
      "attributeId": "LIGHT",
      "id": 141,
      "name": "ライトオーブ",
      "price": 500,
      "rank": 1,
      "rankGift": "RANK_1"
    },
    "gift2": {
      "attributeId": "LIGHT",
      "id": 143,
      "name": "ライトオーブ＋＋",
      "price": 2000,
      "rank": 3,
      "rankGift": "RANK_3"
    },
    "gift3": {
      "attributeId": "LIGHT",
      "id": 142,
      "name": "ライトオーブ＋",
      "price": 1000,
      "rank": 2,
      "rankGift": "RANK_2"
    },
    "gift4": {
      "id": 551,
      "name": "レインボーオーブ",
      "price": 10000,
      "rank": 3,
      "rankGift": "RANK_3"
    },
    "gift5": {
      "id": 553,
      "name": "羊の角",
      "price": 5000,
      "rank": 3,
      "rankGift": "RANK_3"
    },
    "gift6": {
      "id": 305,
      "name": "屋上の鍵",
      "price": 1000,
      "rank": 1,
      "rankGift": "RANK_1"
    },
    "giftId1": 141,
    "giftId2": 143,
    "giftId3": 142,
    "giftId4": 551,
    "giftId5": 553,
    "giftId6": 305,
    "giftNum1": 9,
    "giftNum2": 4,
    "giftNum3": 7,
    "giftNum4": 2,
    "giftNum5": 3,
    "giftNum6": 8
  },
  "cardId": 30043,
  "cardMagia": {
    "art1": {
      "artId": 100300103,
      "effectValue": 3200,
      "growPoint": 100,
      "targetId": "ALL",
      "verbCode": "ATTACK"
    },
    "art2": {
      "artId": 610207600,
      "effectCode": "PROVOKE",
      "enableTurn": 1,
      "growPoint": 0,
      "probability": 1000,
      "targetId": "SELF",
      "verbCode": "CONDITION_GOOD"
    },
    "art3": {
      "artId": 310201204,
      "effectCode": "DEFENSE",
      "effectValue": 300,
      "enableTurn": 1,
      "growPoint": 25,
      "targetId": "SELF",
      "verbCode": "BUFF"
    },
    "artId1": 100300103,
    "artId2": 610207600,
    "artId3": 310201204,
    "groupId": 1014,
    "id": 30043,
    "name": "ナイトリゾルブ",
    "shortDescription": "敵全体にダメージ[Ⅲ] ＆ 必ず挑発(自/1T) ＆ 防御力UP(自/1T)"
  },
  "cardName": "美凪 ささら",
  "cardSkill": {
    "art1": {
      "artId": 310401205,
      "effectCode": "DEFENSE",
      "effectValue": 750,
      "enableTurn": 1,
      "growPoint": 25,
      "targetId": "CONNECT",
      "verbCode": "BUFF"
    },
    "art2": {
      "artId": 610406205,
      "effectCode": "DAMAGE_DOWN",
      "effectValue": 500,
      "enableTurn": 1,
      "growPoint": 25,
      "probability": 1000,
      "targetId": "CONNECT",
      "verbCode": "CONDITION_GOOD"
    },
    "artId1": 310401205,
    "artId2": 610406205,
    "groupId": 1086,
    "id": 30043,
    "name": "私があなたを守るから！",
    "shortDescription": "防御力UP[Ⅴ] ＆ ダメージカット状態[Ⅴ]"
  },
  "charaNo": 3004,
  "commandType1": "MPUP",
  "commandType2": "MPUP",
  "commandType3": "RANGE_V",
  "commandType4": "RANGE_H",
  "commandType5": "CHARGE",
  "defense": 1556,
  "growthType": "ATKDEF",
  "hp": 4762,
  "illustrator": "戸流ケイ",
  "initialType": "DEFENSE",
  "magiaCharaNo": 300400,
  "magiaId": 30043,
  "miniCharaNo": 300400,
  "rank": "RANK_3",
  "rateGainMpAtk": 800,
  "rateGainMpDef": 1000,
  "skillId": 30043
}