{
  "attack": 1557,
  "attributeId": "LIGHT",
  "cardCustomize": {
    "bonusCode1": "ATTACK",
    "bonusCode2": "DEFENSE",
    "bonusCode3": "HP",
    "bonusCode4": "ACCEL",
    "bonusCode5": "BLAST",
    "bonusCode6": "CHARGE",
    "bonusNum1": 60,
    "bonusNum2": 40,
    "bonusNum3": 50,
    "bonusNum4": 50,
    "bonusNum5": 30,
    "bonusNum6": 50,
    "cardId": 40013,
    "gift1": {
      "attributeId": "LIGHT",
      "id": 143,
      "name": "ライトオーブ＋＋",
      "price": 2000,
      "rank": 3,
      "rankGift": "RANK_3"
    },
    "gift2": {
      "attributeId": "LIGHT",
      "id": 141,
      "name": "ライトオーブ",
      "price": 500,
      "rank": 1,
      "rankGift": "RANK_1"
    },
    "gift3": {
      "attributeId": "LIGHT",
      "id": 142,
      "name": "ライトオーブ＋",
      "price": 1000,
      "rank": 2,
      "rankGift": "RANK_2"
    },
    "gift4": {
      "id": 554,
      "name": "屋上のバルーン",
      "price": 5000,
      "rank": 3,
      "rankGift": "RANK_3"
    },
    "gift5": {
      "id": 301,
      "name": "燕尾の羽",
      "price": 1000,
      "rank": 1,
      "rankGift": "RANK_1"
    },
    "gift6": {
      "id": 551,
      "name": "レインボーオーブ",
      "price": 10000,
      "rank": 3,
      "rankGift": "RANK_3"
    },
    "giftId1": 143,
    "giftId2": 141,
    "giftId3": 142,
    "giftId4": 554,
    "giftId5": 301,
    "giftId6": 551,
    "giftNum1": 4,
    "giftNum2": 9,
    "giftNum3": 7,
    "giftNum4": 3,
    "giftNum5": 8,
    "giftNum6": 2
  },
  "cardId": 40013,
  "cardMagia": {
    "art1": {
      "artId": 100300104,
      "effectValue": 3300,
      "growPoint": 100,
      "targetId": "ALL",
      "verbCode": "ATTACK"
    },
    "artId1": 100300104,
    "groupId": 1014,
    "id": 40013,
    "name": "オラクルレイ",
    "shortDescription": "敵全体にダメージ[Ⅳ]"
  },
  "cardName": "美国 織莉子",
  "cardSkill": {
    "art1": {
      "artId": 310401105,
      "effectCode": "ATTACK",
      "effectValue": 300,
      "enableTurn": 1,
      "growPoint": 25,
      "targetId": "CONNECT",
      "verbCode": "BUFF"
    },
    "art2": {
      "artId": 310401605,
      "effectCode": "ACCEL",
      "effectValue": 300,
      "enableTurn": 1,
      "growPoint": 25,
      "targetId": "CONNECT",
      "verbCode": "BUFF"
    },
    "artId1": 310401105,
    "artId2": 310401605,
    "groupId": 1085,
    "id": 40013,
    "name": "私の力が必要ですか？",
    "shortDescription": "攻撃力UP[Ⅴ] ＆ Accele MPUP[Ⅴ]"
  },
  "charaNo": 4001,
  "commandType1": "MPUP",
  "commandType2": "MPUP",
  "commandType3": "RANGE_H",
  "commandType4": "CHARGE",
  "commandType5": "CHARGE",
  "defense": 1190,
  "growthType": "BALANCE",
  "hp": 3691,
  "illustrator": "ムラ黒江",
  "initialType": "MAGIA",
  "magiaCharaNo": 400100,
  "magiaId": 40013,
  "miniCharaNo": 400100,
  "rank": "RANK_3",
  "rateGainMpAtk": 1200,
  "rateGainMpDef": 1200,
  "skillId": 40013
}