{
  "attack": 1813,
  "attributeId": "FIRE",
  "cardCustomize": {
    "bonusCode1": "ATTACK",
    "bonusCode2": "DEFENSE",
    "bonusCode3": "HP",
    "bonusCode4": "ACCEL",
    "bonusCode5": "BLAST",
    "bonusCode6": "CHARGE",
    "bonusNum1": 60,
    "bonusNum2": 60,
    "bonusNum3": 60,
    "bonusNum4": 60,
    "bonusNum5": 60,
    "bonusNum6": 40,
    "cardId": 30234,
    "gift1": {
      "id": 551,
      "name": "レインボーオーブ",
      "price": 10000,
      "rank": 3,
      "rankGift": "RANK_3"
    },
    "gift2": {
      "attributeId": "FIRE",
      "id": 113,
      "name": "フレイムオーブ＋＋",
      "price": 2000,
      "rank": 3,
      "rankGift": "RANK_3"
    },
    "gift3": {
      "attributeId": "FIRE",
      "id": 112,
      "name": "フレイムオーブ＋",
      "price": 1000,
      "rank": 2,
      "rankGift": "RANK_2"
    },
    "gift4": {
      "id": 504,
      "name": "リュトンのリボン",
      "price": 5000,
      "rank": 3,
      "rankGift": "RANK_3"
    },
    "gift5": {
      "id": 404,
      "name": "オウルのバケツ",
      "price": 3000,
      "rank": 2,
      "rankGift": "RANK_2"
    },
    "gift6": {
      "id": 306,
      "name": "振子のネジ",
      "price": 1000,
      "rank": 1,
      "rankGift": "RANK_1"
    },
    "giftId1": 551,
    "giftId2": 113,
    "giftId3": 112,
    "giftId4": 504,
    "giftId5": 404,
    "giftId6": 306,
    "giftNum1": 3,
    "giftNum2": 6,
    "giftNum3": 12,
    "giftNum4": 6,
    "giftNum5": 8,
    "giftNum6": 12
  },
  "cardId": 30234,
  "cardMagia": {
    "art1": {
      "artId": 100300104,
      "effectValue": 3300,
      "growPoint": 100,
      "targetId": "ALL",
      "verbCode": "ATTACK"
    },
    "art2": {
      "artId": 330301805,
      "effectCode": "BLAST",
      "effectValue": 350,
      "enableTurn": 3,
      "growPoint": 25,
      "targetId": "ALL",
      "verbCode": "BUFF"
    },
    "art3": {
      "artId": 630308100,
      "effectCode": "AVOID",
      "enableTurn": 3,
      "growPoint": 0,
      "probability": 1000,
      "targetId": "ALL",
      "verbCode": "IGNORE"
    },
    "artId1": 100300104,
    "artId2": 330301805,
    "artId3": 630308100,
    "groupId": 1014,
    "id": 30234,
    "name": "絶対ロックオン",
    "shortDescription": "敵全体にダメージ[Ⅳ] ＆ BlastダメージUP(全/3T) ＆ 回避無効(全/3T)"
  },
  "cardName": "江利 あいみ",
  "cardSkill": {
    "art1": {
      "artId": 610408100,
      "effectCode": "AVOID",
      "enableTurn": 1,
      "growPoint": 0,
      "probability": 1000,
      "targetId": "CONNECT",
      "verbCode": "IGNORE"
    },
    "art2": {
      "artId": 310401808,
      "effectCode": "BLAST",
      "effectValue": 750,
      "enableTurn": 1,
      "growPoint": 25,
      "targetId": "CONNECT",
      "verbCode": "BUFF"
    },
    "artId1": 610408100,
    "artId2": 310401808,
    "groupId": 1134,
    "id": 30234,
    "name": "恋する力！みせてあげる！",
    "shortDescription": "回避無効＆ BlastダメージUP[Ⅷ]"
  },
  "charaNo": 3023,
  "commandType1": "MPUP",
  "commandType2": "MPUP",
  "commandType3": "RANGE_V",
  "commandType4": "RANGE_H",
  "commandType5": "CHARGE",
  "defense": 1831,
  "growthType": "BALANCE",
  "hp": 5652,
  "illustrator": "かんざきひろ",
  "initialType": "BALANCE",
  "magiaCharaNo": 302300,
  "magiaId": 30234,
  "miniCharaNo": 302300,
  "rank": "RANK_4",
  "rateGainMpAtk": 900,
  "rateGainMpDef": 900,
  "skillId": 30234
}