{
  "attack": 1287,
  "attributeId": "DARK",
  "cardCustomize": {
    "bonusCode1": "ATTACK",
    "bonusCode2": "DEFENSE",
    "bonusCode3": "HP",
    "bonusCode4": "ACCEL",
    "bonusCode5": "BLAST",
    "bonusCode6": "CHARGE",
    "bonusNum1": 60,
    "bonusNum2": 20,
    "bonusNum3": 30,
    "bonusNum4": 40,
    "bonusNum5": 20,
    "bonusNum6": 40,
    "cardId": 30012,
    "gift1": {
      "attributeId": "DARK",
      "id": 153,
      "name": "ダークオーブ＋＋",
      "price": 2000,
      "rank": 3,
      "rankGift": "RANK_3"
    },
    "gift2": {
      "attributeId": "DARK",
      "id": 151,
      "name": "ダークオーブ",
      "price": 500,
      "rank": 1,
      "rankGift": "RANK_1"
    },
    "gift3": {
      "attributeId": "DARK",
      "id": 152,
      "name": "ダークオーブ＋",
      "price": 1000,
      "rank": 2,
      "rankGift": "RANK_2"
    },
    "gift4": {
      "id": 402,
      "name": "南京錠の鎖",
      "price": 3000,
      "rank": 2,
      "rankGift": "RANK_2"
    },
    "gift5": {
      "id": 302,
      "name": "鏡の招待状",
      "price": 1000,
      "rank": 1,
      "rankGift": "RANK_1"
    },
    "gift6": {
      "id": 502,
      "name": "階段のモニュメント",
      "price": 5000,
      "rank": 3,
      "rankGift": "RANK_3"
    },
    "giftId1": 153,
    "giftId2": 151,
    "giftId3": 152,
    "giftId4": 402,
    "giftId5": 302,
    "giftId6": 502,
    "giftNum1": 2,
    "giftNum2": 6,
    "giftNum3": 4,
    "giftNum4": 3,
    "giftNum5": 5,
    "giftNum6": 1
  },
  "cardId": 30012,
  "cardMagia": {
    "art1": {
      "artId": 100000101,
      "effectValue": 6000,
      "growPoint": 100,
      "targetId": "TARGET",
      "verbCode": "ATTACK"
    },
    "art2": {
      "artId": 510004000,
      "effectCode": "CHARM",
      "enableTurn": 1,
      "growPoint": 0,
      "probability": 1000,
      "targetId": "TARGET",
      "verbCode": "CONDITION_BAD"
    },
    "artId1": 100000101,
    "artId2": 510004000,
    "groupId": 1012,
    "id": 30012,
    "name": "ヤヨイコレクション",
    "shortDescription": "敵単体にダメージ[Ⅰ] ＆ 必ず魅了(敵単/1T)"
  },
  "cardName": "矢宵 かのこ",
  "cardSkill": {
    "art1": {
      "artId": 310401303,
      "effectCode": "DAMAGE",
      "effectValue": 250,
      "enableTurn": 1,
      "growPoint": 25,
      "targetId": "CONNECT",
      "verbCode": "BUFF"
    },
    "art2": {
      "artId": 610409500,
      "effectCode": "CHARM",
      "enableTurn": 1,
      "growPoint": 0,
      "probability": 1000,
      "targetId": "CONNECT",
      "verbCode": "ENCHANT"
    },
    "artId1": 310401303,
    "artId2": 610409500,
    "groupId": 1087,
    "id": 30012,
    "name": "私たちのコラボデザイン！",
    "shortDescription": "与えるダメージUP[Ⅲ] ＆ 必ず魅了"
  },
  "charaNo": 3001,
  "commandType1": "MPUP",
  "commandType2": "MPUP",
  "commandType3": "RANGE_H",
  "commandType4": "CHARGE",
  "commandType5": "CHARGE",
  "defense": 1029,
  "growthType": "DEFENSE",
  "hp": 3085,
  "illustrator": "ぷにゃん",
  "initialType": "ATTACK",
  "magiaCharaNo": 300100,
  "magiaId": 30012,
  "miniCharaNo": 300100,
  "rank": "RANK_2",
  "rateGainMpAtk": 1000,
  "rateGainMpDef": 800,
  "skillId": 30012
}