{
  "attack": 1305,
  "attributeId": "DARK",
  "cardCustomize": {
    "bonusCode1": "ATTACK",
    "bonusCode2": "DEFENSE",
    "bonusCode3": "HP",
    "bonusCode4": "ACCEL",
    "bonusCode5": "BLAST",
    "bonusCode6": "CHARGE",
    "bonusNum1": 60,
    "bonusNum2": 20,
    "bonusNum3": 30,
    "bonusNum4": 20,
    "bonusNum5": 40,
    "bonusNum6": 40,
    "cardId": 10052,
    "gift1": {
      "attributeId": "DARK",
      "id": 153,
      "name": "ダークオーブ＋＋",
      "price": 2000,
      "rank": 3,
      "rankGift": "RANK_3"
    },
    "gift2": {
      "attributeId": "DARK",
      "id": 151,
      "name": "ダークオーブ",
      "price": 500,
      "rank": 1,
      "rankGift": "RANK_1"
    },
    "gift3": {
      "attributeId": "DARK",
      "id": 152,
      "name": "ダークオーブ＋",
      "price": 1000,
      "rank": 2,
      "rankGift": "RANK_2"
    },
    "gift4": {
      "id": 302,
      "name": "鏡の招待状",
      "price": 1000,
      "rank": 1,
      "rankGift": "RANK_1"
    },
    "gift5": {
      "id": 403,
      "name": "絵馬の水引",
      "price": 3000,
      "rank": 2,
      "rankGift": "RANK_2"
    },
    "gift6": {
      "id": 502,
      "name": "階段のモニュメント",
      "price": 5000,
      "rank": 3,
      "rankGift": "RANK_3"
    },
    "giftId1": 153,
    "giftId2": 151,
    "giftId3": 152,
    "giftId4": 302,
    "giftId5": 403,
    "giftId6": 502,
    "giftNum1": 2,
    "giftNum2": 6,
    "giftNum3": 4,
    "giftNum4": 5,
    "giftNum5": 3,
    "giftNum6": 1
  },
  "cardId": 10052,
  "cardMagia": {
    "art1": {
      "artId": 100000101,
      "effectValue": 6000,
      "growPoint": 100,
      "targetId": "TARGET",
      "verbCode": "ATTACK"
    },
    "art2": {
      "artId": 430002101,
      "effectCode": "DEFENSE",
      "effectValue": 50,
      "enableTurn": 3,
      "growPoint": 25,
      "targetId": "TARGET",
      "verbCode": "DEBUFF"
    },
    "artId1": 100000101,
    "artId2": 430002101,
    "groupId": 1012,
    "id": 10052,
    "name": "ウルトラグレートビッグハンマー",
    "shortDescription": "敵単体にダメージ[Ⅰ]&防御力DOWN(敵単/3T)"
  },
  "cardName": "深月 フェリシア",
  "cardSkill": {
    "art1": {
      "artId": 310401303,
      "effectCode": "DAMAGE",
      "effectValue": 250,
      "enableTurn": 1,
      "growPoint": 25,
      "targetId": "CONNECT",
      "verbCode": "BUFF"
    },
    "art2": {
      "artId": 610408200,
      "effectCode": "COUNTER",
      "enableTurn": 1,
      "growPoint": 0,
      "probability": 1000,
      "targetId": "CONNECT",
      "verbCode": "IGNORE"
    },
    "artId1": 310401303,
    "artId2": 610408200,
    "groupId": 1087,
    "id": 10052,
    "name": "ガツンと任せとけって！",
    "shortDescription": "ダメージUP[Ⅲ] & カウンター無効"
  },
  "charaNo": 1005,
  "commandType1": "MPUP",
  "commandType2": "RANGE_V",
  "commandType3": "RANGE_H",
  "commandType4": "CHARGE",
  "commandType5": "CHARGE",
  "defense": 994,
  "growthType": "ATKHP",
  "hp": 3140,
  "illustrator": "蒼樹うめ",
  "initialType": "ATTACK",
  "magiaCharaNo": 100500,
  "magiaId": 10052,
  "miniCharaNo": 100500,
  "rank": "RANK_2",
  "rateGainMpAtk": 1000,
  "rateGainMpDef": 800,
  "skillId": 10052
}