{
  "attackType": 3,
  "attributeId": "TIMBER",
  "charaMessageList": [
    {
      "charaNo": 3003,
      "message": "くふふ…！い～いネタを思いついた！",
      "messageId": 6
    },
    {
      "charaNo": 3003,
      "message": "こら！やめろ！見下ろすな！",
      "messageId": 7
    },
    {
      "charaNo": 3003,
      "message": "ヨウ化カリウム…これこそがマジックの種だ",
      "messageId": 8
    },
    {
      "charaNo": 3003,
      "message": "リア充が何だ！エタノールで爆発しやがれ！",
      "messageId": 9
    },
    {
      "charaNo": 3003,
      "message": "仮にもアタシは先輩だぞ！",
      "messageId": 10
    },
    {
      "charaNo": 3003,
      "message": "必ず無事に、この結界から連れ帰ってやる",
      "messageId": 11
    },
    {
      "charaNo": 3003,
      "message": "エキサイティングなショーの幕開けだ！",
      "messageId": 12
    },
    {
      "charaNo": 3003,
      "message": "うむ、満足だ！",
      "messageId": 43
    },
    {
      "charaNo": 3003,
      "message": "仮説が証明されたな！",
      "messageId": 44
    },
    {
      "charaNo": 3003,
      "message": "いいレポートが書けそうだ！",
      "messageId": 45
    },
    {
      "charaNo": 3003,
      "message": "実験大成功だ！",
      "messageId": 46
    }
  ],
  "defaultCard": {
    "attack": 1076,
    "attributeId": "TIMBER",
    "cardCustomize": {
      "bonusCode1": "ATTACK",
      "bonusCode2": "DEFENSE",
      "bonusCode3": "HP",
      "bonusCode4": "ACCEL",
      "bonusCode5": "BLAST",
      "bonusCode6": "CHARGE",
      "bonusNum1": 30,
      "bonusNum2": 30,
      "bonusNum3": 60,
      "bonusNum4": 20,
      "bonusNum5": 40,
      "bonusNum6": 40,
      "cardId": 30032,
      "gift1": {
        "attributeId": "TIMBER",
        "id": 131,
        "name": "フォレストオーブ",
        "price": 500,
        "rank": 1,
        "rankGift": "RANK_1"
      },
      "gift2": {
        "attributeId": "TIMBER",
        "id": 132,
        "name": "フォレストオーブ＋",
        "price": 1000,
        "rank": 2,
        "rankGift": "RANK_2"
      },
      "gift3": {
        "attributeId": "TIMBER",
        "id": 133,
        "name": "フォレストオーブ＋＋",
        "price": 2000,
        "rank": 3,
        "rankGift": "RANK_3"
      },
      "gift4": {
        "id": 301,
        "name": "燕尾の羽",
        "price": 1000,
        "rank": 1,
        "rankGift": "RANK_1"
      },
      "gift5": {
        "id": 402,
        "name": "南京錠の鎖",
        "price": 3000,
        "rank": 2,
        "rankGift": "RANK_2"
      },
      "gift6": {
        "id": 502,
        "name": "階段のモニュメント",
        "price": 5000,
        "rank": 3,
        "rankGift": "RANK_3"
      },
      "giftId1": 131,
      "giftId2": 132,
      "giftId3": 133,
      "giftId4": 301,
      "giftId5": 402,
      "giftId6": 502,
      "giftNum1": 6,
      "giftNum2": 4,
      "giftNum3": 2,
      "giftNum4": 5,
      "giftNum5": 3,
      "giftNum6": 1
    },
    "cardId": 30032,
    "cardMagia": {
      "art1": {
        "artId": 100300101,
        "effectValue": 3000,
        "growPoint": 100,
        "targetId": "ALL",
        "verbCode": "ATTACK"
      },
      "art2": {
        "artId": 530304502,
        "effectCode": "POISON",
        "effectValue": 50,
        "enableTurn": 3,
        "growPoint": 0,
        "probability": 325,
        "targetId": "ALL",
        "verbCode": "CONDITION_BAD"
      },
      "artId1": 100300101,
      "artId2": 530304502,
      "groupId": 1014,
      "id": 30032,
      "name": "アトモ・アラビアート",
      "shortDescription": "敵全体にダメージ[Ⅰ] ＆ 確率で毒(敵全/3T)"
    },
    "cardName": "都 ひなの",
    "cardSkill": {
      "art1": {
        "artId": 310401304,
        "effectCode": "DAMAGE",
        "effectValue": 275,
        "enableTurn": 1,
        "growPoint": 25,
        "targetId": "CONNECT",
        "verbCode": "BUFF"
      },
      "art2": {
        "artId": 610410100,
        "effectCode": "POISON",
        "effectValue": 50,
        "enableTurn": 1,
        "growPoint": 0,
        "probability": 1000,
        "targetId": "CONNECT",
        "verbCode": "ENCHANT"
      },
      "artId1": 310401304,
      "artId2": 610410100,
      "groupId": 1087,
      "id": 30032,
      "name": "共同研究の成果発表だ！",
      "shortDescription": "与えるダメージUP[Ⅳ] ＆ 必ず毒"
    },
    "charaNo": 3003,
    "commandType1": "MPUP",
    "commandType2": "RANGE_H",
    "commandType3": "RANGE_V",
    "commandType4": "CHARGE",
    "commandType5": "CHARGE",
    "defense": 1065,
    "growthType": "ATKDEF",
    "hp": 3812,
    "illustrator": "GENJIN",
    "initialType": "SUPPORT",
    "magiaCharaNo": 300300,
    "magiaId": 30032,
    "miniCharaNo": 300300,
    "rank": "RANK_2",
    "rateGainMpAtk": 1200,
    "rateGainMpDef": 1000,
    "skillId": 30032
  },
  "defaultCardId": 30032,
  "description": "幼い見た目に反して長い経歴を持つ、ベテラン魔法少女。＠学校では化学部の部長も務める、理系女子でもある。＠後輩たちからは慕われている反面、見た目の子供っぽさをイジられる＠ことも多い。本人は至極真面目にセクシー系を目指している。",
  "designer": "GENJIN",
  "enemyFlg": false,
  "evolutionCard1": {
    "attack": 1284,
    "attributeId": "TIMBER",
    "cardCustomize": {
      "bonusCode1": "ATTACK",
      "bonusCode2": "DEFENSE",
      "bonusCode3": "HP",
      "bonusCode4": "ACCEL",
      "bonusCode5": "BLAST",
      "bonusCode6": "CHARGE",
      "bonusNum1": 40,
      "bonusNum2": 40,
      "bonusNum3": 70,
      "bonusNum4": 30,
      "bonusNum5": 50,
      "bonusNum6": 50,
      "cardId": 30033,
      "gift1": {
        "attributeId": "TIMBER",
        "id": 131,
        "name": "フォレストオーブ",
        "price": 500,
        "rank": 1,
        "rankGift": "RANK_1"
      },
      "gift2": {
        "attributeId": "TIMBER",
        "id": 132,
        "name": "フォレストオーブ＋",
        "price": 1000,
        "rank": 2,
        "rankGift": "RANK_2"
      },
      "gift3": {
        "attributeId": "TIMBER",
        "id": 133,
        "name": "フォレストオーブ＋＋",
        "price": 2000,
        "rank": 3,
        "rankGift": "RANK_3"
      },
      "gift4": {
        "id": 303,
        "name": "立ち耳の包装紙",
        "price": 3000,
        "rank": 1,
        "rankGift": "RANK_1"
      },
      "gift5": {
        "id": 502,
        "name": "階段のモニュメント",
        "price": 5000,
        "rank": 3,
        "rankGift": "RANK_3"
      },
      "gift6": {
        "id": 551,
        "name": "レインボーオーブ",
        "price": 10000,
        "rank": 3,
        "rankGift": "RANK_3"
      },
      "giftId1": 131,
      "giftId2": 132,
      "giftId3": 133,
      "giftId4": 303,
      "giftId5": 502,
      "giftId6": 551,
      "giftNum1": 9,
      "giftNum2": 7,
      "giftNum3": 4,
      "giftNum4": 8,
      "giftNum5": 3,
      "giftNum6": 2
    },
    "cardId": 30033,
    "cardMagia": {
      "art1": {
        "artId": 100300103,
        "effectValue": 3200,
        "growPoint": 100,
        "targetId": "ALL",
        "verbCode": "ATTACK"
      },
      "art2": {
        "artId": 530304504,
        "effectCode": "POISON",
        "effectValue": 50,
        "enableTurn": 3,
        "growPoint": 0,
        "probability": 375,
        "targetId": "ALL",
        "verbCode": "CONDITION_BAD"
      },
      "artId1": 100300103,
      "artId2": 530304504,
      "groupId": 1014,
      "id": 30033,
      "name": "アトモ・アラビアート",
      "shortDescription": "敵全体にダメージ[Ⅲ] ＆ 確率で毒(敵全/3T)"
    },
    "cardName": "都 ひなの",
    "cardSkill": {
      "art1": {
        "artId": 310401306,
        "effectCode": "DAMAGE",
        "effectValue": 325,
        "enableTurn": 1,
        "growPoint": 25,
        "targetId": "CONNECT",
        "verbCode": "BUFF"
      },
      "art2": {
        "artId": 610410100,
        "effectCode": "POISON",
        "effectValue": 50,
        "enableTurn": 1,
        "growPoint": 0,
        "probability": 1000,
        "targetId": "CONNECT",
        "verbCode": "ENCHANT"
      },
      "artId1": 310401306,
      "artId2": 610410100,
      "groupId": 1087,
      "id": 30033,
      "name": "共同研究の成果発表だ！",
      "shortDescription": "与えるダメージUP[Ⅵ] ＆ 必ず毒"
    },
    "charaNo": 3003,
    "commandType1": "MPUP",
    "commandType2": "RANGE_H",
    "commandType3": "RANGE_V",
    "commandType4": "CHARGE",
    "commandType5": "CHARGE",
    "defense": 1270,
    "growthType": "ATKDEF",
    "hp": 4546,
    "illustrator": "GENJIN",
    "initialType": "SUPPORT",
    "magiaCharaNo": 300300,
    "magiaId": 30033,
    "miniCharaNo": 300300,
    "rank": "RANK_3",
    "rateGainMpAtk": 1200,
    "rateGainMpDef": 1000,
    "skillId": 30033
  },
  "evolutionCard2": {
    "attack": 1596,
    "attributeId": "TIMBER",
    "cardCustomize": {
      "bonusCode1": "ATTACK",
      "bonusCode2": "DEFENSE",
      "bonusCode3": "HP",
      "bonusCode4": "ACCEL",
      "bonusCode5": "BLAST",
      "bonusCode6": "CHARGE",
      "bonusNum1": 50,
      "bonusNum2": 50,
      "bonusNum3": 80,
      "bonusNum4": 40,
      "bonusNum5": 60,
      "bonusNum6": 60,
      "cardId": 30034,
      "gift1": {
        "attributeId": "TIMBER",
        "id": 132,
        "name": "フォレストオーブ＋",
        "price": 1000,
        "rank": 2,
        "rankGift": "RANK_2"
      },
      "gift2": {
        "attributeId": "TIMBER",
        "id": 133,
        "name": "フォレストオーブ＋＋",
        "price": 2000,
        "rank": 3,
        "rankGift": "RANK_3"
      },
      "gift3": {
        "id": 551,
        "name": "レインボーオーブ",
        "price": 10000,
        "rank": 3,
        "rankGift": "RANK_3"
      },
      "gift4": {
        "id": 305,
        "name": "屋上の鍵",
        "price": 1000,
        "rank": 1,
        "rankGift": "RANK_1"
      },
      "gift5": {
        "id": 402,
        "name": "南京錠の鎖",
        "price": 3000,
        "rank": 2,
        "rankGift": "RANK_2"
      },
      "gift6": {
        "id": 554,
        "name": "屋上のバルーン",
        "price": 5000,
        "rank": 3,
        "rankGift": "RANK_3"
      },
      "giftId1": 132,
      "giftId2": 133,
      "giftId3": 551,
      "giftId4": 305,
      "giftId5": 402,
      "giftId6": 554,
      "giftNum1": 12,
      "giftNum2": 6,
      "giftNum3": 3,
      "giftNum4": 12,
      "giftNum5": 8,
      "giftNum6": 6
    },
    "cardId": 30034,
    "cardMagia": {
      "art1": {
        "artId": 100300105,
        "effectValue": 3400,
        "growPoint": 100,
        "targetId": "ALL",
        "verbCode": "ATTACK"
      },
      "art2": {
        "artId": 530304506,
        "effectCode": "POISON",
        "effectValue": 50,
        "enableTurn": 3,
        "growPoint": 0,
        "probability": 425,
        "targetId": "ALL",
        "verbCode": "CONDITION_BAD"
      },
      "art3": {
        "artId": 510304200,
        "effectCode": "STUN",
        "enableTurn": 1,
        "growPoint": 0,
        "probability": 1000,
        "targetId": "ALL",
        "verbCode": "CONDITION_BAD"
      },
      "artId1": 100300105,
      "artId2": 530304506,
      "artId3": 510304200,
      "groupId": 1014,
      "id": 30034,
      "name": "アトモ・アラビアート",
      "shortDescription": "敵全体にダメージ[Ⅴ] ＆ 確率で毒(敵全/3T) ＆ 必ずスタン(敵全/1T)"
    },
    "cardName": "都 ひなの",
    "cardSkill": {
      "art1": {
        "artId": 310401308,
        "effectCode": "DAMAGE",
        "effectValue": 375,
        "enableTurn": 1,
        "growPoint": 25,
        "targetId": "CONNECT",
        "verbCode": "BUFF"
      },
      "art2": {
        "artId": 610410100,
        "effectCode": "POISON",
        "effectValue": 50,
        "enableTurn": 1,
        "growPoint": 0,
        "probability": 1000,
        "targetId": "CONNECT",
        "verbCode": "ENCHANT"
      },
      "artId1": 310401308,
      "artId2": 610410100,
      "groupId": 1087,
      "id": 30034,
      "name": "共同研究の成果発表だ！",
      "shortDescription": "与えるダメージUP[Ⅷ] ＆ 必ず毒"
    },
    "charaNo": 3003,
    "commandType1": "MPUP",
    "commandType2": "RANGE_H",
    "commandType3": "RANGE_V",
    "commandType4": "CHARGE",
    "commandType5": "CHARGE",
    "defense": 1578,
    "growthType": "ATKDEF",
    "hp": 5649,
    "illustrator": "GENJIN",
    "initialType": "SUPPORT",
    "magiaCharaNo": 300300,
    "magiaId": 30034,
    "miniCharaNo": 300300,
    "rank": "RANK_4",
    "rateGainMpAtk": 1200,
    "rateGainMpDef": 1000,
    "skillId": 30034
  },
  "evolutionCardId1": 30033,
  "evolutionCardId2": 30034,
  "firstMagiaGift1": {
    "attributeId": "TIMBER",
    "id": 231,
    "name": "フォレストブック",
    "price": 500,
    "rank": 1,
    "rankGift": "RANK_1"
  },
  "firstMagiaGift2": {
    "id": 305,
    "name": "屋上の鍵",
    "price": 1000,
    "rank": 1,
    "rankGift": "RANK_1"
  },
  "firstMagiaGiftId1": 231,
  "firstMagiaGiftId2": 305,
  "firstMagiaGiftNum1": 3,
  "firstMagiaGiftNum2": 3,
  "fourthMagiaGift1": {
    "attributeId": "TIMBER",
    "id": 231,
    "name": "フォレストブック",
    "price": 500,
    "rank": 1,
    "rankGift": "RANK_1"
  },
  "fourthMagiaGift2": {
    "id": 301,
    "name": "燕尾の羽",
    "price": 1000,
    "rank": 1,
    "rankGift": "RANK_1"
  },
  "fourthMagiaGift3": {
    "attributeId": "TIMBER",
    "id": 232,
    "name": "フォレストブック＋",
    "price": 1000,
    "rank": 2,
    "rankGift": "RANK_2"
  },
  "fourthMagiaGift4": {
    "id": 502,
    "name": "階段のモニュメント",
    "price": 5000,
    "rank": 3,
    "rankGift": "RANK_3"
  },
  "fourthMagiaGift5": {
    "attributeId": "TIMBER",
    "id": 233,
    "name": "フォレストブック＋＋",
    "price": 2000,
    "rank": 3,
    "rankGift": "RANK_3"
  },
  "fourthMagiaGift6": {
    "id": 554,
    "name": "屋上のバルーン",
    "price": 5000,
    "rank": 3,
    "rankGift": "RANK_3"
  },
  "fourthMagiaGiftId1": 231,
  "fourthMagiaGiftId2": 301,
  "fourthMagiaGiftId3": 232,
  "fourthMagiaGiftId4": 502,
  "fourthMagiaGiftId5": 233,
  "fourthMagiaGiftId6": 554,
  "fourthMagiaGiftNum1": 9,
  "fourthMagiaGiftNum2": 9,
  "fourthMagiaGiftNum3": 7,
  "fourthMagiaGiftNum4": 3,
  "fourthMagiaGiftNum5": 5,
  "fourthMagiaGiftNum6": 5,
  "growthType": "ATKDEF",
  "id": 3003,
  "initialType": "SUPPORT",
  "kana": "みやこ ひなの",
  "name": "都 ひなの",
  "saleItem": {
    "canUse": false,
    "description": "ショップで特別なアイテムと交換することができるアイテム",
    "isSellable": false,
    "itemCode": "PRISM",
    "name": "マギアチップ",
    "price": 0,
    "shortDescription": "マギアチップ",
    "sortKey": 0,
    "treasureChestColor": "GOLD",
    "unit": "個"
  },
  "saleItemId": "PRISM",
  "school": "南凪自由学園",
  "secondMagiaGift1": {
    "attributeId": "TIMBER",
    "id": 231,
    "name": "フォレストブック",
    "price": 500,
    "rank": 1,
    "rankGift": "RANK_1"
  },
  "secondMagiaGift2": {
    "id": 304,
    "name": "羊の角笛",
    "price": 1000,
    "rank": 1,
    "rankGift": "RANK_1"
  },
  "secondMagiaGift3": {
    "attributeId": "TIMBER",
    "id": 232,
    "name": "フォレストブック＋",
    "price": 1000,
    "rank": 2,
    "rankGift": "RANK_2"
  },
  "secondMagiaGift4": {
    "id": 402,
    "name": "南京錠の鎖",
    "price": 3000,
    "rank": 2,
    "rankGift": "RANK_2"
  },
  "secondMagiaGiftId1": 231,
  "secondMagiaGiftId2": 304,
  "secondMagiaGiftId3": 232,
  "secondMagiaGiftId4": 402,
  "secondMagiaGiftNum1": 5,
  "secondMagiaGiftNum2": 5,
  "secondMagiaGiftNum3": 3,
  "secondMagiaGiftNum4": 3,
  "thirdMagiaGift1": {
    "attributeId": "TIMBER",
    "id": 231,
    "name": "フォレストブック",
    "price": 500,
    "rank": 1,
    "rankGift": "RANK_1"
  },
  "thirdMagiaGift2": {
    "id": 303,
    "name": "立ち耳の包装紙",
    "price": 3000,
    "rank": 1,
    "rankGift": "RANK_1"
  },
  "thirdMagiaGift3": {
    "attributeId": "TIMBER",
    "id": 232,
    "name": "フォレストブック＋",
    "price": 1000,
    "rank": 2,
    "rankGift": "RANK_2"
  },
  "thirdMagiaGift4": {
    "id": 402,
    "name": "南京錠の鎖",
    "price": 3000,
    "rank": 2,
    "rankGift": "RANK_2"
  },
  "thirdMagiaGift5": {
    "attributeId": "TIMBER",
    "id": 233,
    "name": "フォレストブック＋＋",
    "price": 2000,
    "rank": 3,
    "rankGift": "RANK_3"
  },
  "thirdMagiaGift6": {
    "id": 502,
    "name": "階段のモニュメント",
    "price": 5000,
    "rank": 3,
    "rankGift": "RANK_3"
  },
  "thirdMagiaGiftId1": 231,
  "thirdMagiaGiftId2": 303,
  "thirdMagiaGiftId3": 232,
  "thirdMagiaGiftId4": 402,
  "thirdMagiaGiftId5": 233,
  "thirdMagiaGiftId6": 502,
  "thirdMagiaGiftNum1": 7,
  "thirdMagiaGiftNum2": 7,
  "thirdMagiaGiftNum3": 5,
  "thirdMagiaGiftNum4": 5,
  "thirdMagiaGiftNum5": 3,
  "thirdMagiaGiftNum6": 3,
  "voiceActor": "朝日奈丸佳"
}