{
  "attackType": 1,
  "attributeId": "DARK",
  "charaMessageList": [
    {
      "charaNo": 1005,
      "message": "なーなー？オレのこと雇ってみない？",
      "messageId": 6
    },
    {
      "charaNo": 1005,
      "message": "あーだりー！面倒くせーのだいきらいー！",
      "messageId": 7
    },
    {
      "charaNo": 1005,
      "message": "大丈夫大丈夫！報酬なんてちょっとだからさ！",
      "messageId": 8
    },
    {
      "charaNo": 1005,
      "message": "オレの戦い方？相手がバーンと来たらゴンよ！",
      "messageId": 9
    },
    {
      "charaNo": 1005,
      "message": "任せろよ！オレ、ムチャクチャ強いから！",
      "messageId": 10
    },
    {
      "charaNo": 1005,
      "message": "無理すんなよ！手伝ってやろうか？",
      "messageId": 11
    },
    {
      "charaNo": 1005,
      "message": "ぜーんぶひとりで始末しとくからさ…！",
      "messageId": 12
    },
    {
      "charaNo": 1005,
      "message": "いえーい！オレの勝ち～！",
      "messageId": 43
    },
    {
      "charaNo": 1005,
      "message": "は！それじゃー勝てないって！",
      "messageId": 44
    },
    {
      "charaNo": 1005,
      "message": "これ、とーぜんの結果でしょ！",
      "messageId": 45
    },
    {
      "charaNo": 1005,
      "message": "負けるイメージまったくなし！",
      "messageId": 46
    }
  ],
  "defaultCard": {
    "attack": 1305,
    "attributeId": "DARK",
    "cardCustomize": {
      "bonusCode1": "ATTACK",
      "bonusCode2": "DEFENSE",
      "bonusCode3": "HP",
      "bonusCode4": "ACCEL",
      "bonusCode5": "BLAST",
      "bonusCode6": "CHARGE",
      "bonusNum1": 60,
      "bonusNum2": 20,
      "bonusNum3": 30,
      "bonusNum4": 20,
      "bonusNum5": 40,
      "bonusNum6": 40,
      "cardId": 10052,
      "gift1": {
        "attributeId": "DARK",
        "id": 153,
        "name": "ダークオーブ＋＋",
        "price": 2000,
        "rank": 3,
        "rankGift": "RANK_3"
      },
      "gift2": {
        "attributeId": "DARK",
        "id": 151,
        "name": "ダークオーブ",
        "price": 500,
        "rank": 1,
        "rankGift": "RANK_1"
      },
      "gift3": {
        "attributeId": "DARK",
        "id": 152,
        "name": "ダークオーブ＋",
        "price": 1000,
        "rank": 2,
        "rankGift": "RANK_2"
      },
      "gift4": {
        "id": 302,
        "name": "鏡の招待状",
        "price": 1000,
        "rank": 1,
        "rankGift": "RANK_1"
      },
      "gift5": {
        "id": 403,
        "name": "絵馬の水引",
        "price": 3000,
        "rank": 2,
        "rankGift": "RANK_2"
      },
      "gift6": {
        "id": 502,
        "name": "階段のモニュメント",
        "price": 5000,
        "rank": 3,
        "rankGift": "RANK_3"
      },
      "giftId1": 153,
      "giftId2": 151,
      "giftId3": 152,
      "giftId4": 302,
      "giftId5": 403,
      "giftId6": 502,
      "giftNum1": 2,
      "giftNum2": 6,
      "giftNum3": 4,
      "giftNum4": 5,
      "giftNum5": 3,
      "giftNum6": 1
    },
    "cardId": 10052,
    "cardMagia": {
      "art1": {
        "artId": 100000101,
        "effectValue": 6000,
        "growPoint": 100,
        "targetId": "TARGET",
        "verbCode": "ATTACK"
      },
      "art2": {
        "artId": 430002101,
        "effectCode": "DEFENSE",
        "effectValue": 50,
        "enableTurn": 3,
        "growPoint": 25,
        "targetId": "TARGET",
        "verbCode": "DEBUFF"
      },
      "artId1": 100000101,
      "artId2": 430002101,
      "groupId": 1012,
      "id": 10052,
      "name": "ウルトラグレートビッグハンマー",
      "shortDescription": "敵単体にダメージ[Ⅰ]&防御力DOWN(敵単/3T)"
    },
    "cardName": "深月 フェリシア",
    "cardSkill": {
      "art1": {
        "artId": 310401303,
        "effectCode": "DAMAGE",
        "effectValue": 250,
        "enableTurn": 1,
        "growPoint": 25,
        "targetId": "CONNECT",
        "verbCode": "BUFF"
      },
      "art2": {
        "artId": 610408200,
        "effectCode": "COUNTER",
        "enableTurn": 1,
        "growPoint": 0,
        "probability": 1000,
        "targetId": "CONNECT",
        "verbCode": "IGNORE"
      },
      "artId1": 310401303,
      "artId2": 610408200,
      "groupId": 1087,
      "id": 10052,
      "name": "ガツンと任せとけって！",
      "shortDescription": "ダメージUP[Ⅲ] & カウンター無効"
    },
    "charaNo": 1005,
    "commandType1": "MPUP",
    "commandType2": "RANGE_V",
    "commandType3": "RANGE_H",
    "commandType4": "CHARGE",
    "commandType5": "CHARGE",
    "defense": 994,
    "growthType": "ATKHP",
    "hp": 3140,
    "illustrator": "蒼樹うめ",
    "initialType": "ATTACK",
    "magiaCharaNo": 100500,
    "magiaId": 10052,
    "miniCharaNo": 100500,
    "rank": "RANK_2",
    "rateGainMpAtk": 1000,
    "rateGainMpDef": 800,
    "skillId": 10052
  },
  "defaultCardId": 10052,
  "description": "元気で勝気で自由気ままな魔法少女。＠魔女を両親の仇として心底憎んでおり、＠そのため「傭兵」を生業として、神浜の各地で＠魔女との戦いを繰り広げている。＠ワイルドな口調はバトル系少年漫画の影響。＠ただ、心根は優しく動物が大好き。",
  "designer": "蒼樹うめ",
  "enemyFlg": false,
  "evolutionCard1": {
    "attack": 1556,
    "attributeId": "DARK",
    "cardCustomize": {
      "bonusCode1": "ATTACK",
      "bonusCode2": "DEFENSE",
      "bonusCode3": "HP",
      "bonusCode4": "ACCEL",
      "bonusCode5": "BLAST",
      "bonusCode6": "CHARGE",
      "bonusNum1": 70,
      "bonusNum2": 30,
      "bonusNum3": 40,
      "bonusNum4": 30,
      "bonusNum5": 50,
      "bonusNum6": 50,
      "cardId": 10053,
      "gift1": {
        "attributeId": "DARK",
        "id": 153,
        "name": "ダークオーブ＋＋",
        "price": 2000,
        "rank": 3,
        "rankGift": "RANK_3"
      },
      "gift2": {
        "attributeId": "DARK",
        "id": 151,
        "name": "ダークオーブ",
        "price": 500,
        "rank": 1,
        "rankGift": "RANK_1"
      },
      "gift3": {
        "attributeId": "DARK",
        "id": 152,
        "name": "ダークオーブ＋",
        "price": 1000,
        "rank": 2,
        "rankGift": "RANK_2"
      },
      "gift4": {
        "id": 304,
        "name": "羊の角笛",
        "price": 1000,
        "rank": 1,
        "rankGift": "RANK_1"
      },
      "gift5": {
        "id": 552,
        "name": "立ち耳の綿",
        "price": 5000,
        "rank": 3,
        "rankGift": "RANK_3"
      },
      "gift6": {
        "id": 551,
        "name": "レインボーオーブ",
        "price": 10000,
        "rank": 3,
        "rankGift": "RANK_3"
      },
      "giftId1": 153,
      "giftId2": 151,
      "giftId3": 152,
      "giftId4": 304,
      "giftId5": 552,
      "giftId6": 551,
      "giftNum1": 4,
      "giftNum2": 9,
      "giftNum3": 7,
      "giftNum4": 8,
      "giftNum5": 3,
      "giftNum6": 2
    },
    "cardId": 10053,
    "cardMagia": {
      "art1": {
        "artId": 100000103,
        "effectValue": 6400,
        "growPoint": 100,
        "targetId": "TARGET",
        "verbCode": "ATTACK"
      },
      "art2": {
        "artId": 430002103,
        "effectCode": "DEFENSE",
        "effectValue": 150,
        "enableTurn": 3,
        "growPoint": 25,
        "targetId": "TARGET",
        "verbCode": "DEBUFF"
      },
      "artId1": 100000103,
      "artId2": 430002103,
      "groupId": 1012,
      "id": 10053,
      "name": "ウルトラグレートビッグハンマー",
      "shortDescription": "敵単体にダメージ[Ⅲ]&防御力DOWN(敵単/3T)"
    },
    "cardName": "深月 フェリシア",
    "cardSkill": {
      "art1": {
        "artId": 310401305,
        "effectCode": "DAMAGE",
        "effectValue": 300,
        "enableTurn": 1,
        "growPoint": 25,
        "targetId": "CONNECT",
        "verbCode": "BUFF"
      },
      "art2": {
        "artId": 610408200,
        "effectCode": "COUNTER",
        "enableTurn": 1,
        "growPoint": 0,
        "probability": 1000,
        "targetId": "CONNECT",
        "verbCode": "IGNORE"
      },
      "artId1": 310401305,
      "artId2": 610408200,
      "groupId": 1087,
      "id": 10053,
      "name": "ガツンと任せとけって！",
      "shortDescription": "ダメージUP[Ⅴ] & カウンター無効"
    },
    "charaNo": 1005,
    "commandType1": "MPUP",
    "commandType2": "RANGE_V",
    "commandType3": "RANGE_H",
    "commandType4": "CHARGE",
    "commandType5": "CHARGE",
    "defense": 1186,
    "growthType": "ATKHP",
    "hp": 3745,
    "initialType": "ATTACK",
    "magiaCharaNo": 100500,
    "magiaId": 10053,
    "miniCharaNo": 100500,
    "rank": "RANK_3",
    "rateGainMpAtk": 1000,
    "rateGainMpDef": 800,
    "skillId": 10053
  },
  "evolutionCard2": {
    "attack": 1934,
    "attributeId": "DARK",
    "cardCustomize": {
      "bonusCode1": "ATTACK",
      "bonusCode2": "DEFENSE",
      "bonusCode3": "HP",
      "bonusCode4": "ACCEL",
      "bonusCode5": "BLAST",
      "bonusCode6": "CHARGE",
      "bonusNum1": 80,
      "bonusNum2": 40,
      "bonusNum3": 50,
      "bonusNum4": 40,
      "bonusNum5": 60,
      "bonusNum6": 60,
      "cardId": 10054,
      "gift1": {
        "id": 551,
        "name": "レインボーオーブ",
        "price": 10000,
        "rank": 3,
        "rankGift": "RANK_3"
      },
      "gift2": {
        "attributeId": "DARK",
        "id": 152,
        "name": "ダークオーブ＋",
        "price": 1000,
        "rank": 2,
        "rankGift": "RANK_2"
      },
      "gift3": {
        "attributeId": "DARK",
        "id": 153,
        "name": "ダークオーブ＋＋",
        "price": 2000,
        "rank": 3,
        "rankGift": "RANK_3"
      },
      "gift4": {
        "id": 301,
        "name": "燕尾の羽",
        "price": 1000,
        "rank": 1,
        "rankGift": "RANK_1"
      },
      "gift5": {
        "id": 402,
        "name": "南京錠の鎖",
        "price": 3000,
        "rank": 2,
        "rankGift": "RANK_2"
      },
      "gift6": {
        "id": 553,
        "name": "羊の角",
        "price": 5000,
        "rank": 3,
        "rankGift": "RANK_3"
      },
      "giftId1": 551,
      "giftId2": 152,
      "giftId3": 153,
      "giftId4": 301,
      "giftId5": 402,
      "giftId6": 553,
      "giftNum1": 3,
      "giftNum2": 12,
      "giftNum3": 6,
      "giftNum4": 12,
      "giftNum5": 8,
      "giftNum6": 6
    },
    "cardId": 10054,
    "cardMagia": {
      "art1": {
        "artId": 100000105,
        "effectValue": 6800,
        "growPoint": 100,
        "targetId": "TARGET",
        "verbCode": "ATTACK"
      },
      "art2": {
        "artId": 430002105,
        "effectCode": "DEFENSE",
        "effectValue": 250,
        "enableTurn": 3,
        "growPoint": 25,
        "targetId": "TARGET",
        "verbCode": "DEBUFF"
      },
      "art3": {
        "artId": 430002105,
        "effectCode": "DEFENSE",
        "effectValue": 250,
        "enableTurn": 3,
        "growPoint": 25,
        "targetId": "TARGET",
        "verbCode": "DEBUFF"
      },
      "artId1": 100000105,
      "artId2": 430002105,
      "artId3": 430002105,
      "groupId": 1012,
      "id": 10054,
      "name": "ウルトラグレートビッグハンマー",
      "shortDescription": "敵単体にダメージ[Ⅴ]&防御力DOWN&さらに防御力DOWN(敵単/3T)"
    },
    "cardName": "深月 フェリシア",
    "cardSkill": {
      "art1": {
        "artId": 310401307,
        "effectCode": "DAMAGE",
        "effectValue": 350,
        "enableTurn": 1,
        "growPoint": 25,
        "targetId": "CONNECT",
        "verbCode": "BUFF"
      },
      "art2": {
        "artId": 610408200,
        "effectCode": "COUNTER",
        "enableTurn": 1,
        "growPoint": 0,
        "probability": 1000,
        "targetId": "CONNECT",
        "verbCode": "IGNORE"
      },
      "artId1": 310401307,
      "artId2": 610408200,
      "groupId": 1087,
      "id": 10054,
      "name": "ガツンと任せとけって！",
      "shortDescription": "ダメージUP[Ⅶ] & カウンター無効"
    },
    "charaNo": 1005,
    "commandType1": "MPUP",
    "commandType2": "RANGE_V",
    "commandType3": "RANGE_H",
    "commandType4": "CHARGE",
    "commandType5": "CHARGE",
    "defense": 1474,
    "growthType": "ATKHP",
    "hp": 4654,
    "illustrator": "ササギコウシ",
    "initialType": "ATTACK",
    "magiaCharaNo": 100500,
    "magiaId": 10054,
    "miniCharaNo": 100500,
    "rank": "RANK_4",
    "rateGainMpAtk": 1000,
    "rateGainMpDef": 800,
    "skillId": 10054
  },
  "evolutionCardId1": 10053,
  "evolutionCardId2": 10054,
  "firstMagiaGift1": {
    "attributeId": "DARK",
    "id": 251,
    "name": "ダークブック",
    "price": 500,
    "rank": 1,
    "rankGift": "RANK_1"
  },
  "firstMagiaGift2": {
    "id": 301,
    "name": "燕尾の羽",
    "price": 1000,
    "rank": 1,
    "rankGift": "RANK_1"
  },
  "firstMagiaGiftId1": 251,
  "firstMagiaGiftId2": 301,
  "firstMagiaGiftNum1": 3,
  "firstMagiaGiftNum2": 3,
  "fourthMagiaGift1": {
    "attributeId": "DARK",
    "id": 251,
    "name": "ダークブック",
    "price": 500,
    "rank": 1,
    "rankGift": "RANK_1"
  },
  "fourthMagiaGift2": {
    "id": 304,
    "name": "羊の角笛",
    "price": 1000,
    "rank": 1,
    "rankGift": "RANK_1"
  },
  "fourthMagiaGift3": {
    "attributeId": "DARK",
    "id": 252,
    "name": "ダークブック＋",
    "price": 1000,
    "rank": 2,
    "rankGift": "RANK_2"
  },
  "fourthMagiaGift4": {
    "id": 503,
    "name": "マチビト馬の車輪",
    "price": 5000,
    "rank": 3,
    "rankGift": "RANK_3"
  },
  "fourthMagiaGift5": {
    "attributeId": "DARK",
    "id": 253,
    "name": "ダークブック＋＋",
    "price": 2000,
    "rank": 3,
    "rankGift": "RANK_3"
  },
  "fourthMagiaGift6": {
    "id": 553,
    "name": "羊の角",
    "price": 5000,
    "rank": 3,
    "rankGift": "RANK_3"
  },
  "fourthMagiaGiftId1": 251,
  "fourthMagiaGiftId2": 304,
  "fourthMagiaGiftId3": 252,
  "fourthMagiaGiftId4": 503,
  "fourthMagiaGiftId5": 253,
  "fourthMagiaGiftId6": 553,
  "fourthMagiaGiftNum1": 9,
  "fourthMagiaGiftNum2": 9,
  "fourthMagiaGiftNum3": 7,
  "fourthMagiaGiftNum4": 3,
  "fourthMagiaGiftNum5": 5,
  "fourthMagiaGiftNum6": 5,
  "growthType": "ATKHP",
  "id": 1005,
  "initialType": "ATTACK",
  "kana": "みつき ふぇりしあ",
  "name": "深月 フェリシア",
  "openDate": "2017/09/04 15:10:00",
  "saleItem": {
    "canUse": false,
    "description": "ショップで特別なアイテムと交換することができるアイテム",
    "isSellable": false,
    "itemCode": "PRISM",
    "name": "マギアチップ",
    "price": 0,
    "shortDescription": "マギアチップ",
    "sortKey": 0,
    "treasureChestColor": "GOLD",
    "unit": "個"
  },
  "saleItemId": "PRISM",
  "school": "中央学園",
  "secondMagiaGift1": {
    "attributeId": "DARK",
    "id": 251,
    "name": "ダークブック",
    "price": 500,
    "rank": 1,
    "rankGift": "RANK_1"
  },
  "secondMagiaGift2": {
    "id": 302,
    "name": "鏡の招待状",
    "price": 1000,
    "rank": 1,
    "rankGift": "RANK_1"
  },
  "secondMagiaGift3": {
    "attributeId": "DARK",
    "id": 252,
    "name": "ダークブック＋",
    "price": 1000,
    "rank": 2,
    "rankGift": "RANK_2"
  },
  "secondMagiaGift4": {
    "id": 402,
    "name": "南京錠の鎖",
    "price": 3000,
    "rank": 2,
    "rankGift": "RANK_2"
  },
  "secondMagiaGiftId1": 251,
  "secondMagiaGiftId2": 302,
  "secondMagiaGiftId3": 252,
  "secondMagiaGiftId4": 402,
  "secondMagiaGiftNum1": 5,
  "secondMagiaGiftNum2": 5,
  "secondMagiaGiftNum3": 3,
  "secondMagiaGiftNum4": 3,
  "thirdMagiaGift1": {
    "attributeId": "DARK",
    "id": 251,
    "name": "ダークブック",
    "price": 500,
    "rank": 1,
    "rankGift": "RANK_1"
  },
  "thirdMagiaGift2": {
    "id": 305,
    "name": "屋上の鍵",
    "price": 1000,
    "rank": 1,
    "rankGift": "RANK_1"
  },
  "thirdMagiaGift3": {
    "attributeId": "DARK",
    "id": 252,
    "name": "ダークブック＋",
    "price": 1000,
    "rank": 2,
    "rankGift": "RANK_2"
  },
  "thirdMagiaGift4": {
    "id": 403,
    "name": "絵馬の水引",
    "price": 3000,
    "rank": 2,
    "rankGift": "RANK_2"
  },
  "thirdMagiaGift5": {
    "attributeId": "DARK",
    "id": 253,
    "name": "ダークブック＋＋",
    "price": 2000,
    "rank": 3,
    "rankGift": "RANK_3"
  },
  "thirdMagiaGift6": {
    "id": 552,
    "name": "立ち耳の綿",
    "price": 5000,
    "rank": 3,
    "rankGift": "RANK_3"
  },
  "thirdMagiaGiftId1": 251,
  "thirdMagiaGiftId2": 305,
  "thirdMagiaGiftId3": 252,
  "thirdMagiaGiftId4": 403,
  "thirdMagiaGiftId5": 253,
  "thirdMagiaGiftId6": 552,
  "thirdMagiaGiftNum1": 7,
  "thirdMagiaGiftNum2": 7,
  "thirdMagiaGiftNum3": 5,
  "thirdMagiaGiftNum4": 5,
  "thirdMagiaGiftNum5": 3,
  "thirdMagiaGiftNum6": 3,
  "voiceActor": "佐倉綾音"
}