{
  "attackType": 1,
  "attributeId": "DARK",
  "charaMessageList": [
    {
      "charaNo": 3025,
      "message": "辛いというより、哀しかったんです",
      "messageId": 6
    },
    {
      "charaNo": 3025,
      "message": "みんなみんな…優しくなれたらいいのに",
      "messageId": 7
    },
    {
      "charaNo": 3025,
      "message": "私には、それはキラキラと輝いて見えました",
      "messageId": 8
    },
    {
      "charaNo": 3025,
      "message": "また…死ぬのに失敗してしまいました",
      "messageId": 9
    },
    {
      "charaNo": 3025,
      "message": "私は…この希望を見つめて生きていこう",
      "messageId": 10
    },
    {
      "charaNo": 3025,
      "message": "いつだって上手く言葉が出てこない",
      "messageId": 11
    },
    {
      "charaNo": 3025,
      "message": "出てこい、私の言葉。私の声…！",
      "messageId": 12
    },
    {
      "charaNo": 3025,
      "message": "勝ち…！…ました…はい…！",
      "messageId": 43
    },
    {
      "charaNo": 3025,
      "message": "まだ…心臓がドキドキしてます…はい…",
      "messageId": 44
    },
    {
      "charaNo": 3025,
      "message": "生きてこそ…ですね",
      "messageId": 45
    },
    {
      "charaNo": 3025,
      "message": "はいっ！これはっ…！嬉しいドキドキですっ…！",
      "messageId": 46
    }
  ],
  "defaultCard": {
    "attack": 2011,
    "attributeId": "DARK",
    "cardCustomize": {
      "bonusCode1": "ATTACK",
      "bonusCode2": "DEFENSE",
      "bonusCode3": "HP",
      "bonusCode4": "ACCEL",
      "bonusCode5": "BLAST",
      "bonusCode6": "CHARGE",
      "bonusNum1": 70,
      "bonusNum2": 50,
      "bonusNum3": 60,
      "bonusNum4": 60,
      "bonusNum5": 60,
      "bonusNum6": 40,
      "cardId": 30254,
      "gift1": {
        "id": 551,
        "name": "レインボーオーブ",
        "price": 10000,
        "rank": 3,
        "rankGift": "RANK_3"
      },
      "gift2": {
        "attributeId": "DARK",
        "id": 152,
        "name": "ダークオーブ＋",
        "price": 1000,
        "rank": 2,
        "rankGift": "RANK_2"
      },
      "gift3": {
        "attributeId": "DARK",
        "id": 153,
        "name": "ダークオーブ＋＋",
        "price": 2000,
        "rank": 3,
        "rankGift": "RANK_3"
      },
      "gift4": {
        "id": 502,
        "name": "階段のモニュメント",
        "price": 5000,
        "rank": 3,
        "rankGift": "RANK_3"
      },
      "gift5": {
        "id": 403,
        "name": "絵馬の水引",
        "price": 3000,
        "rank": 2,
        "rankGift": "RANK_2"
      },
      "gift6": {
        "id": 553,
        "name": "羊の角",
        "price": 5000,
        "rank": 3,
        "rankGift": "RANK_3"
      },
      "giftId1": 551,
      "giftId2": 152,
      "giftId3": 153,
      "giftId4": 502,
      "giftId5": 403,
      "giftId6": 553,
      "giftNum1": 3,
      "giftNum2": 12,
      "giftNum3": 6,
      "giftNum4": 6,
      "giftNum5": 8,
      "giftNum6": 6
    },
    "cardId": 30254,
    "cardMagia": {
      "art1": {
        "artId": 100000306,
        "effectCode": "LINKED_DAMAGE",
        "effectValue": 5600,
        "growPoint": 100,
        "parameter": 5600,
        "targetId": "TARGET",
        "verbCode": "ATTACK"
      },
      "art2": {
        "artId": 610206900,
        "effectCode": "AVOID",
        "enableTurn": 1,
        "growPoint": 0,
        "probability": 1000,
        "targetId": "SELF",
        "verbCode": "CONDITION_GOOD"
      },
      "artId1": 100000306,
      "artId2": 610206900,
      "groupId": 1067,
      "id": 30254,
      "name": "ソウル・サルベーション",
      "shortDescription": "敵単体にダメージ[Ⅵ]＆低HPほど威力UP＆回避(自/1T)"
    },
    "cardName": "五十鈴 れん",
    "cardSkill": {
      "art1": {
        "artId": 610407300,
        "effectCode": "PURSUE",
        "effectValue": 800,
        "enableTurn": 1,
        "growPoint": 0,
        "probability": 1000,
        "targetId": "CONNECT",
        "verbCode": "CONDITION_GOOD"
      },
      "art2": {
        "artId": 310401107,
        "effectCode": "ATTACK",
        "effectValue": 350,
        "enableTurn": 1,
        "growPoint": 25,
        "targetId": "CONNECT",
        "verbCode": "BUFF"
      },
      "artId1": 610407300,
      "artId2": 310401107,
      "groupId": 1126,
      "id": 30254,
      "name": "私に続きを記させて",
      "shortDescription": "ターゲット生存時に必ず追撃 ＆ 攻撃力UP[Ⅶ]"
    },
    "charaNo": 3025,
    "commandType1": "MPUP",
    "commandType2": "MPUP",
    "commandType3": "RANGE_V",
    "commandType4": "RANGE_H",
    "commandType5": "CHARGE",
    "defense": 1509,
    "growthType": "BALANCE",
    "hp": 4724,
    "illustrator": "さくら小春（QP:flapper）",
    "initialType": "MAGIA",
    "magiaCharaNo": 302500,
    "magiaId": 30254,
    "miniCharaNo": 302500,
    "rank": "RANK_4",
    "rateGainMpAtk": 1200,
    "rateGainMpDef": 1200,
    "skillId": 30254
  },
  "defaultCardId": 30254,
  "description": "小さい頃から内気で、人と話すことが苦手な魔法少女。＠孤立し、生きていくことに苦しみ、自らを追い詰めてしまうが、＠その時に魔法少女の世界を知ったことで、＠どん底から抜け出すことができた。＠精神的に成長もするが、まだ気弱な所がある。",
  "designer": "さくら小春（QP:flapper）",
  "doppel": {
    "description": "この感情の主は、強力な電気信号を駆使し相手の悪意を人格もろとも焼き尽くすこのドッペルの能力に恐怖を覚える一方で、これが殺害以外の方法で人間の悪意を根絶させることが出来る唯一の方法ではないかという誘惑に悩む。＠またこのドッペルは生死を司る力も持ち、その姿を現す時に主は一時的に精神が肉体と分離した幽体離脱状態となる。",
    "designer": "原案・監修：劇団イヌカレー（泥犬）",
    "id": 302500,
    "name": "電令のドッペル",
    "openDate": "2017/09/15 15:10:00",
    "title": "その姿は、心電図"
  },
  "doppelCharaNo": 302500,
  "enemyFlg": false,
  "evolutionCard1": {
    "attack": 2282,
    "attributeId": "DARK",
    "cardCustomize": {
      "bonusCode1": "ATTACK",
      "bonusCode2": "DEFENSE",
      "bonusCode3": "HP",
      "bonusCode4": "ACCEL",
      "bonusCode5": "BLAST",
      "bonusCode6": "CHARGE",
      "bonusNum1": 80,
      "bonusNum2": 60,
      "bonusNum3": 70,
      "bonusNum4": 70,
      "bonusNum5": 70,
      "bonusNum6": 50,
      "cardId": 30255,
      "gift1": {
        "id": 551,
        "name": "レインボーオーブ",
        "price": 10000,
        "rank": 3,
        "rankGift": "RANK_3"
      },
      "gift2": {
        "attributeId": "DARK",
        "id": 152,
        "name": "ダークオーブ＋",
        "price": 1000,
        "rank": 2,
        "rankGift": "RANK_2"
      },
      "gift3": {
        "attributeId": "DARK",
        "id": 153,
        "name": "ダークオーブ＋＋",
        "price": 2000,
        "rank": 3,
        "rankGift": "RANK_3"
      },
      "gift4": {
        "id": 553,
        "name": "羊の角",
        "price": 5000,
        "rank": 3,
        "rankGift": "RANK_3"
      },
      "gift5": {
        "id": 503,
        "name": "マチビト馬の車輪",
        "price": 5000,
        "rank": 3,
        "rankGift": "RANK_3"
      },
      "gift6": {
        "id": 403,
        "name": "絵馬の水引",
        "price": 3000,
        "rank": 2,
        "rankGift": "RANK_2"
      },
      "giftId1": 551,
      "giftId2": 152,
      "giftId3": 153,
      "giftId4": 553,
      "giftId5": 503,
      "giftId6": 403,
      "giftNum1": 3,
      "giftNum2": 15,
      "giftNum3": 10,
      "giftNum4": 8,
      "giftNum5": 10,
      "giftNum6": 15
    },
    "cardId": 30255,
    "cardMagia": {
      "art1": {
        "artId": 100000308,
        "effectCode": "LINKED_DAMAGE",
        "effectValue": 6000,
        "growPoint": 100,
        "parameter": 6000,
        "targetId": "TARGET",
        "verbCode": "ATTACK"
      },
      "art2": {
        "artId": 610206900,
        "effectCode": "AVOID",
        "enableTurn": 1,
        "growPoint": 0,
        "probability": 1000,
        "targetId": "SELF",
        "verbCode": "CONDITION_GOOD"
      },
      "art3": {
        "artId": 630207703,
        "effectCode": "AUTO_HEAL",
        "effectValue": 40,
        "enableTurn": 3,
        "growPoint": 10,
        "probability": 1000,
        "targetId": "SELF",
        "verbCode": "CONDITION_GOOD"
      },
      "artId1": 100000308,
      "artId2": 610206900,
      "artId3": 630207703,
      "groupId": 1067,
      "id": 30255,
      "name": "ソウル・サルベーション",
      "shortDescription": "敵単体にダメージ[Ⅷ]＆低HPほど威力UP＆回避(自/1T)＆HP自動回復(自/3T)"
    },
    "cardName": "五十鈴 れん",
    "cardSkill": {
      "art1": {
        "artId": 610407300,
        "effectCode": "PURSUE",
        "effectValue": 800,
        "enableTurn": 1,
        "growPoint": 0,
        "probability": 1000,
        "targetId": "CONNECT",
        "verbCode": "CONDITION_GOOD"
      },
      "art2": {
        "artId": 310401109,
        "effectCode": "ATTACK",
        "effectValue": 400,
        "enableTurn": 1,
        "growPoint": 25,
        "targetId": "CONNECT",
        "verbCode": "BUFF"
      },
      "art3": {
        "artId": 610406900,
        "effectCode": "AVOID",
        "enableTurn": 1,
        "growPoint": 0,
        "probability": 1000,
        "targetId": "CONNECT",
        "verbCode": "CONDITION_GOOD"
      },
      "artId1": 610407300,
      "artId2": 310401109,
      "artId3": 610406900,
      "groupId": 1126,
      "id": 30255,
      "name": "私に続きを記させて",
      "shortDescription": "ターゲット生存時に必ず追撃 ＆ 攻撃力UP[Ⅸ] ＆ 必ず回避"
    },
    "charaNo": 3025,
    "commandType1": "MPUP",
    "commandType2": "MPUP",
    "commandType3": "RANGE_V",
    "commandType4": "RANGE_H",
    "commandType5": "CHARGE",
    "defense": 1711,
    "doppelCardMagia": {
      "art1": {
        "artId": 190302581,
        "effectCode": "LINKED_DAMAGE",
        "effectValue": 15000,
        "growPoint": 220,
        "parameter": 6000,
        "targetId": "TARGET",
        "verbCode": "ATTACK"
      },
      "art2": {
        "artId": 610206900,
        "effectCode": "AVOID",
        "enableTurn": 1,
        "growPoint": 0,
        "probability": 1000,
        "targetId": "SELF",
        "verbCode": "CONDITION_GOOD"
      },
      "art3": {
        "artId": 630207704,
        "effectCode": "AUTO_HEAL",
        "effectValue": 50,
        "enableTurn": 3,
        "growPoint": 10,
        "probability": 1000,
        "targetId": "SELF",
        "verbCode": "CONDITION_GOOD"
      },
      "artId1": 190302581,
      "artId2": 610206900,
      "artId3": 630207704,
      "groupId": 1067,
      "id": 30258,
      "name": "電令のドッペル",
      "shortDescription": "敵単体にダメージ[Ⅹ]＆低HPほど威力UP＆回避(自/1T)＆HP自動回復(自/3T)"
    },
    "doppelMagiaId": 30258,
    "growthType": "BALANCE",
    "hp": 5355,
    "illustrator": "さくら小春（QP:flapper）",
    "initialType": "MAGIA",
    "magiaCharaNo": 302500,
    "magiaId": 30255,
    "miniCharaNo": 302500,
    "rank": "RANK_5",
    "rateGainMpAtk": 1200,
    "rateGainMpDef": 1200,
    "skillId": 30255
  },
  "evolutionCardId1": 30255,
  "firstMagiaGift1": {
    "attributeId": "DARK",
    "id": 251,
    "name": "ダークブック",
    "price": 500,
    "rank": 1,
    "rankGift": "RANK_1"
  },
  "firstMagiaGift2": {
    "id": 301,
    "name": "燕尾の羽",
    "price": 1000,
    "rank": 1,
    "rankGift": "RANK_1"
  },
  "firstMagiaGift3": {
    "attributeId": "DARK",
    "id": 252,
    "name": "ダークブック＋",
    "price": 1000,
    "rank": 2,
    "rankGift": "RANK_2"
  },
  "firstMagiaGift4": {
    "id": 403,
    "name": "絵馬の水引",
    "price": 3000,
    "rank": 2,
    "rankGift": "RANK_2"
  },
  "firstMagiaGift5": {
    "attributeId": "DARK",
    "id": 253,
    "name": "ダークブック＋＋",
    "price": 2000,
    "rank": 3,
    "rankGift": "RANK_3"
  },
  "firstMagiaGift6": {
    "id": 503,
    "name": "マチビト馬の車輪",
    "price": 5000,
    "rank": 3,
    "rankGift": "RANK_3"
  },
  "firstMagiaGiftId1": 251,
  "firstMagiaGiftId2": 301,
  "firstMagiaGiftId3": 252,
  "firstMagiaGiftId4": 403,
  "firstMagiaGiftId5": 253,
  "firstMagiaGiftId6": 503,
  "firstMagiaGiftNum1": 5,
  "firstMagiaGiftNum2": 5,
  "firstMagiaGiftNum3": 3,
  "firstMagiaGiftNum4": 3,
  "firstMagiaGiftNum5": 1,
  "firstMagiaGiftNum6": 1,
  "fourthMagiaGift1": {
    "attributeId": "DARK",
    "id": 251,
    "name": "ダークブック",
    "price": 500,
    "rank": 1,
    "rankGift": "RANK_1"
  },
  "fourthMagiaGift2": {
    "id": 304,
    "name": "羊の角笛",
    "price": 1000,
    "rank": 1,
    "rankGift": "RANK_1"
  },
  "fourthMagiaGift3": {
    "attributeId": "DARK",
    "id": 252,
    "name": "ダークブック＋",
    "price": 1000,
    "rank": 2,
    "rankGift": "RANK_2"
  },
  "fourthMagiaGift4": {
    "id": 503,
    "name": "マチビト馬の車輪",
    "price": 5000,
    "rank": 3,
    "rankGift": "RANK_3"
  },
  "fourthMagiaGift5": {
    "attributeId": "DARK",
    "id": 253,
    "name": "ダークブック＋＋",
    "price": 2000,
    "rank": 3,
    "rankGift": "RANK_3"
  },
  "fourthMagiaGift6": {
    "id": 552,
    "name": "立ち耳の綿",
    "price": 5000,
    "rank": 3,
    "rankGift": "RANK_3"
  },
  "fourthMagiaGiftId1": 251,
  "fourthMagiaGiftId2": 304,
  "fourthMagiaGiftId3": 252,
  "fourthMagiaGiftId4": 503,
  "fourthMagiaGiftId5": 253,
  "fourthMagiaGiftId6": 552,
  "fourthMagiaGiftNum1": 11,
  "fourthMagiaGiftNum2": 11,
  "fourthMagiaGiftNum3": 9,
  "fourthMagiaGiftNum4": 5,
  "fourthMagiaGiftNum5": 7,
  "fourthMagiaGiftNum6": 7,
  "growthType": "BALANCE",
  "id": 3025,
  "initialType": "MAGIA",
  "kana": "いすず れん",
  "name": "五十鈴 れん",
  "openDate": "2017/09/15 15:10:00",
  "saleItem": {
    "canUse": false,
    "description": "ショップで特別なアイテムと交換することができるアイテム",
    "isSellable": false,
    "itemCode": "PRISM",
    "name": "マギアチップ",
    "price": 0,
    "shortDescription": "マギアチップ",
    "sortKey": 0,
    "treasureChestColor": "GOLD",
    "unit": "個"
  },
  "saleItemId": "PRISM",
  "school": "神浜市立大附属学校",
  "secondMagiaGift1": {
    "attributeId": "DARK",
    "id": 251,
    "name": "ダークブック",
    "price": 500,
    "rank": 1,
    "rankGift": "RANK_1"
  },
  "secondMagiaGift2": {
    "id": 302,
    "name": "鏡の招待状",
    "price": 1000,
    "rank": 1,
    "rankGift": "RANK_1"
  },
  "secondMagiaGift3": {
    "attributeId": "DARK",
    "id": 252,
    "name": "ダークブック＋",
    "price": 1000,
    "rank": 2,
    "rankGift": "RANK_2"
  },
  "secondMagiaGift4": {
    "id": 403,
    "name": "絵馬の水引",
    "price": 3000,
    "rank": 2,
    "rankGift": "RANK_2"
  },
  "secondMagiaGift5": {
    "attributeId": "DARK",
    "id": 253,
    "name": "ダークブック＋＋",
    "price": 2000,
    "rank": 3,
    "rankGift": "RANK_3"
  },
  "secondMagiaGift6": {
    "id": 553,
    "name": "羊の角",
    "price": 5000,
    "rank": 3,
    "rankGift": "RANK_3"
  },
  "secondMagiaGiftId1": 251,
  "secondMagiaGiftId2": 302,
  "secondMagiaGiftId3": 252,
  "secondMagiaGiftId4": 403,
  "secondMagiaGiftId5": 253,
  "secondMagiaGiftId6": 553,
  "secondMagiaGiftNum1": 7,
  "secondMagiaGiftNum2": 7,
  "secondMagiaGiftNum3": 5,
  "secondMagiaGiftNum4": 5,
  "secondMagiaGiftNum5": 3,
  "secondMagiaGiftNum6": 3,
  "thirdMagiaGift1": {
    "attributeId": "DARK",
    "id": 251,
    "name": "ダークブック",
    "price": 500,
    "rank": 1,
    "rankGift": "RANK_1"
  },
  "thirdMagiaGift2": {
    "id": 305,
    "name": "屋上の鍵",
    "price": 1000,
    "rank": 1,
    "rankGift": "RANK_1"
  },
  "thirdMagiaGift3": {
    "attributeId": "DARK",
    "id": 252,
    "name": "ダークブック＋",
    "price": 1000,
    "rank": 2,
    "rankGift": "RANK_2"
  },
  "thirdMagiaGift4": {
    "id": 403,
    "name": "絵馬の水引",
    "price": 3000,
    "rank": 2,
    "rankGift": "RANK_2"
  },
  "thirdMagiaGift5": {
    "attributeId": "DARK",
    "id": 253,
    "name": "ダークブック＋＋",
    "price": 2000,
    "rank": 3,
    "rankGift": "RANK_3"
  },
  "thirdMagiaGift6": {
    "id": 503,
    "name": "マチビト馬の車輪",
    "price": 5000,
    "rank": 3,
    "rankGift": "RANK_3"
  },
  "thirdMagiaGiftId1": 251,
  "thirdMagiaGiftId2": 305,
  "thirdMagiaGiftId3": 252,
  "thirdMagiaGiftId4": 403,
  "thirdMagiaGiftId5": 253,
  "thirdMagiaGiftId6": 503,
  "thirdMagiaGiftNum1": 9,
  "thirdMagiaGiftNum2": 9,
  "thirdMagiaGiftNum3": 7,
  "thirdMagiaGiftNum4": 7,
  "thirdMagiaGiftNum5": 5,
  "thirdMagiaGiftNum6": 5,
  "voiceActor": "尾崎由香"
}