{
  "attackType": 1,
  "attributeId": "LIGHT",
  "charaMessageList": [
    {
      "charaNo": 3027,
      "message": "この家の料理長は、アタシでしょ",
      "messageId": 6
    },
    {
      "charaNo": 3027,
      "message": "アタシだからってそんなに警戒しないでよ",
      "messageId": 7
    },
    {
      "charaNo": 3027,
      "message": "まーまー、ちょっとは肩の力抜こうよ",
      "messageId": 8
    },
    {
      "charaNo": 3027,
      "message": "アタシたちはここで暮らしたいだけだよ",
      "messageId": 9
    },
    {
      "charaNo": 3027,
      "message": "クラゲみたいにフワフワ漂っていたいよね",
      "messageId": 10
    },
    {
      "charaNo": 3027,
      "message": "それでもアタシたちは家族だから…",
      "messageId": 11
    },
    {
      "charaNo": 3027,
      "message": "生きてりゃ面白いこともあるでしょーよ",
      "messageId": 12
    },
    {
      "charaNo": 3027,
      "message": "よし、終わりっと！撤収～",
      "messageId": 43
    },
    {
      "charaNo": 3027,
      "message": "まあ、負けられるわけないからね",
      "messageId": 44
    },
    {
      "charaNo": 3027,
      "message": "勝った勝った～。いい感じじゃない？",
      "messageId": 45
    },
    {
      "charaNo": 3027,
      "message": "悪いけど、ここじゃ止まれないんだよね",
      "messageId": 46
    }
  ],
  "defaultCard": {
    "attack": 1373,
    "attributeId": "LIGHT",
    "cardCustomize": {
      "bonusCode1": "ATTACK",
      "bonusCode2": "DEFENSE",
      "bonusCode3": "HP",
      "bonusCode4": "ACCEL",
      "bonusCode5": "BLAST",
      "bonusCode6": "CHARGE",
      "bonusNum1": 70,
      "bonusNum2": 30,
      "bonusNum3": 40,
      "bonusNum4": 50,
      "bonusNum5": 30,
      "bonusNum6": 50,
      "cardId": 30273,
      "gift1": {
        "attributeId": "LIGHT",
        "id": 143,
        "name": "ライトオーブ＋＋",
        "price": 2000,
        "rank": 3,
        "rankGift": "RANK_3"
      },
      "gift2": {
        "attributeId": "LIGHT",
        "id": 141,
        "name": "ライトオーブ",
        "price": 500,
        "rank": 1,
        "rankGift": "RANK_1"
      },
      "gift3": {
        "attributeId": "LIGHT",
        "id": 142,
        "name": "ライトオーブ＋",
        "price": 1000,
        "rank": 2,
        "rankGift": "RANK_2"
      },
      "gift4": {
        "id": 504,
        "name": "リュトンのリボン",
        "price": 5000,
        "rank": 3,
        "rankGift": "RANK_3"
      },
      "gift5": {
        "id": 304,
        "name": "羊の角笛",
        "price": 1000,
        "rank": 1,
        "rankGift": "RANK_1"
      },
      "gift6": {
        "id": 551,
        "name": "レインボーオーブ",
        "price": 10000,
        "rank": 3,
        "rankGift": "RANK_3"
      },
      "giftId1": 143,
      "giftId2": 141,
      "giftId3": 142,
      "giftId4": 504,
      "giftId5": 304,
      "giftId6": 551,
      "giftNum1": 4,
      "giftNum2": 9,
      "giftNum3": 7,
      "giftNum4": 3,
      "giftNum5": 8,
      "giftNum6": 2
    },
    "cardId": 30273,
    "cardMagia": {
      "art1": {
        "artId": 100300103,
        "effectValue": 3200,
        "growPoint": 100,
        "targetId": "ALL",
        "verbCode": "ATTACK"
      },
      "art2": {
        "artId": 430302004,
        "effectCode": "ATTACK",
        "effectValue": 225,
        "enableTurn": 3,
        "growPoint": 25,
        "targetId": "ALL",
        "verbCode": "DEBUFF"
      },
      "artId1": 100300103,
      "artId2": 430302004,
      "groupId": 1014,
      "id": 30273,
      "name": "サンダー・トレント",
      "shortDescription": "敵全体にダメージ[Ⅲ] ＆ 攻撃力DOWN(敵全/3T)"
    },
    "cardName": "遊佐 葉月",
    "cardSkill": {
      "art1": {
        "artId": 310401306,
        "effectCode": "DAMAGE",
        "effectValue": 325,
        "enableTurn": 1,
        "growPoint": 25,
        "targetId": "CONNECT",
        "verbCode": "BUFF"
      },
      "art2": {
        "artId": 610410500,
        "effectCode": "CURSE",
        "effectValue": 150,
        "enableTurn": 1,
        "growPoint": 0,
        "probability": 1000,
        "targetId": "CONNECT",
        "verbCode": "ENCHANT"
      },
      "artId1": 310401306,
      "artId2": 610410500,
      "groupId": 1087,
      "id": 30273,
      "name": "完璧ー！一緒に仕留めるよ！",
      "shortDescription": "与えるダメージUP[Ⅵ]＆必ず呪い"
    },
    "charaNo": 3027,
    "commandType1": "MPUP",
    "commandType2": "RANGE_V",
    "commandType3": "RANGE_H",
    "commandType4": "CHARGE",
    "commandType5": "CHARGE",
    "defense": 1315,
    "growthType": "ATTACK",
    "hp": 4785,
    "illustrator": "ゆーげん",
    "initialType": "SUPPORT",
    "magiaCharaNo": 302700,
    "magiaId": 30273,
    "miniCharaNo": 302700,
    "rank": "RANK_3",
    "rateGainMpAtk": 1200,
    "rateGainMpDef": 1000,
    "skillId": 30273
  },
  "defaultCardId": 30273,
  "description": "神浜市の施設「つつじの家」出身の魔法少女。＠家族との旅行中に事故に遭い、自分だけが生き残り、つつじの家に引き取られる。＠だが、そんな暗い生い立ちにも関わらず、性格は明るく社交性もあり、＠周囲とのコミュニケーションや世渡りも上手。",
  "designer": "ゆーげん",
  "enemyFlg": false,
  "evolutionCard1": {
    "attack": 1687,
    "attributeId": "LIGHT",
    "cardCustomize": {
      "bonusCode1": "ATTACK",
      "bonusCode2": "DEFENSE",
      "bonusCode3": "HP",
      "bonusCode4": "ACCEL",
      "bonusCode5": "BLAST",
      "bonusCode6": "CHARGE",
      "bonusNum1": 80,
      "bonusNum2": 40,
      "bonusNum3": 50,
      "bonusNum4": 60,
      "bonusNum5": 40,
      "bonusNum6": 60,
      "cardId": 30274,
      "gift1": {
        "id": 551,
        "name": "レインボーオーブ",
        "price": 10000,
        "rank": 3,
        "rankGift": "RANK_3"
      },
      "gift2": {
        "attributeId": "LIGHT",
        "id": 142,
        "name": "ライトオーブ＋",
        "price": 1000,
        "rank": 2,
        "rankGift": "RANK_2"
      },
      "gift3": {
        "attributeId": "LIGHT",
        "id": 143,
        "name": "ライトオーブ＋＋",
        "price": 2000,
        "rank": 3,
        "rankGift": "RANK_3"
      },
      "gift4": {
        "id": 404,
        "name": "オウルのバケツ",
        "price": 3000,
        "rank": 2,
        "rankGift": "RANK_2"
      },
      "gift5": {
        "id": 301,
        "name": "燕尾の羽",
        "price": 1000,
        "rank": 1,
        "rankGift": "RANK_1"
      },
      "gift6": {
        "id": 553,
        "name": "羊の角",
        "price": 5000,
        "rank": 3,
        "rankGift": "RANK_3"
      },
      "giftId1": 551,
      "giftId2": 142,
      "giftId3": 143,
      "giftId4": 404,
      "giftId5": 301,
      "giftId6": 553,
      "giftNum1": 3,
      "giftNum2": 12,
      "giftNum3": 6,
      "giftNum4": 8,
      "giftNum5": 12,
      "giftNum6": 6
    },
    "cardId": 30274,
    "cardMagia": {
      "art1": {
        "artId": 100300105,
        "effectValue": 3400,
        "growPoint": 100,
        "targetId": "ALL",
        "verbCode": "ATTACK"
      },
      "art2": {
        "artId": 430302006,
        "effectCode": "ATTACK",
        "effectValue": 275,
        "enableTurn": 3,
        "growPoint": 25,
        "targetId": "ALL",
        "verbCode": "DEBUFF"
      },
      "art3": {
        "artId": 510305000,
        "effectCode": "CURSE",
        "effectValue": 150,
        "enableTurn": 1,
        "growPoint": 0,
        "probability": 1000,
        "targetId": "ALL",
        "verbCode": "CONDITION_BAD"
      },
      "artId1": 100300105,
      "artId2": 430302006,
      "artId3": 510305000,
      "groupId": 1014,
      "id": 30274,
      "name": "サンダー・トレント",
      "shortDescription": "敵全体にダメージ[Ⅴ] ＆ 攻撃力DOWN(敵全/3T) ＆ 必ず呪い(敵全/1T)"
    },
    "cardName": "遊佐 葉月",
    "cardSkill": {
      "art1": {
        "artId": 310401308,
        "effectCode": "DAMAGE",
        "effectValue": 375,
        "enableTurn": 1,
        "growPoint": 25,
        "targetId": "CONNECT",
        "verbCode": "BUFF"
      },
      "art2": {
        "artId": 610410500,
        "effectCode": "CURSE",
        "effectValue": 150,
        "enableTurn": 1,
        "growPoint": 0,
        "probability": 1000,
        "targetId": "CONNECT",
        "verbCode": "ENCHANT"
      },
      "artId1": 310401308,
      "artId2": 610410500,
      "groupId": 1087,
      "id": 30274,
      "name": "完璧ー！一緒に仕留めるよ！",
      "shortDescription": "与えるダメージUP[Ⅷ]＆必ず呪い"
    },
    "charaNo": 3027,
    "commandType1": "MPUP",
    "commandType2": "RANGE_V",
    "commandType3": "RANGE_H",
    "commandType4": "CHARGE",
    "commandType5": "CHARGE",
    "defense": 1614,
    "growthType": "ATTACK",
    "hp": 5875,
    "illustrator": "ゆーげん",
    "initialType": "SUPPORT",
    "magiaCharaNo": 302700,
    "magiaId": 30274,
    "miniCharaNo": 302700,
    "rank": "RANK_4",
    "rateGainMpAtk": 1200,
    "rateGainMpDef": 1000,
    "skillId": 30274
  },
  "evolutionCardId1": 30274,
  "firstMagiaGift1": {
    "attributeId": "LIGHT",
    "id": 241,
    "name": "ライトブック",
    "price": 500,
    "rank": 1,
    "rankGift": "RANK_1"
  },
  "firstMagiaGift2": {
    "id": 304,
    "name": "羊の角笛",
    "price": 1000,
    "rank": 1,
    "rankGift": "RANK_1"
  },
  "firstMagiaGift3": {
    "attributeId": "LIGHT",
    "id": 242,
    "name": "ライトブック＋",
    "price": 1000,
    "rank": 2,
    "rankGift": "RANK_2"
  },
  "firstMagiaGift4": {
    "id": 401,
    "name": "砂場の巻貝",
    "price": 1000,
    "rank": 2,
    "rankGift": "RANK_2"
  },
  "firstMagiaGiftId1": 241,
  "firstMagiaGiftId2": 304,
  "firstMagiaGiftId3": 242,
  "firstMagiaGiftId4": 401,
  "firstMagiaGiftNum1": 4,
  "firstMagiaGiftNum2": 4,
  "firstMagiaGiftNum3": 2,
  "firstMagiaGiftNum4": 2,
  "fourthMagiaGift1": {
    "attributeId": "LIGHT",
    "id": 241,
    "name": "ライトブック",
    "price": 500,
    "rank": 1,
    "rankGift": "RANK_1"
  },
  "fourthMagiaGift2": {
    "id": 302,
    "name": "鏡の招待状",
    "price": 1000,
    "rank": 1,
    "rankGift": "RANK_1"
  },
  "fourthMagiaGift3": {
    "attributeId": "LIGHT",
    "id": 242,
    "name": "ライトブック＋",
    "price": 1000,
    "rank": 2,
    "rankGift": "RANK_2"
  },
  "fourthMagiaGift4": {
    "id": 503,
    "name": "マチビト馬の車輪",
    "price": 5000,
    "rank": 3,
    "rankGift": "RANK_3"
  },
  "fourthMagiaGift5": {
    "attributeId": "LIGHT",
    "id": 243,
    "name": "ライトブック＋＋",
    "price": 2000,
    "rank": 3,
    "rankGift": "RANK_3"
  },
  "fourthMagiaGift6": {
    "id": 504,
    "name": "リュトンのリボン",
    "price": 5000,
    "rank": 3,
    "rankGift": "RANK_3"
  },
  "fourthMagiaGiftId1": 241,
  "fourthMagiaGiftId2": 302,
  "fourthMagiaGiftId3": 242,
  "fourthMagiaGiftId4": 503,
  "fourthMagiaGiftId5": 243,
  "fourthMagiaGiftId6": 504,
  "fourthMagiaGiftNum1": 10,
  "fourthMagiaGiftNum2": 10,
  "fourthMagiaGiftNum3": 8,
  "fourthMagiaGiftNum4": 4,
  "fourthMagiaGiftNum5": 6,
  "fourthMagiaGiftNum6": 6,
  "growthType": "ATTACK",
  "id": 3027,
  "initialType": "SUPPORT",
  "kana": "ゆさ はづき",
  "name": "遊佐 葉月",
  "openDate": "2017/10/10 15:10:00",
  "saleItem": {
    "canUse": false,
    "description": "ショップで特別なアイテムと交換することができるアイテム",
    "isSellable": false,
    "itemCode": "PRISM",
    "name": "マギアチップ",
    "price": 0,
    "shortDescription": "マギアチップ",
    "sortKey": 0,
    "treasureChestColor": "GOLD",
    "unit": "個"
  },
  "saleItemId": "PRISM",
  "school": "参京院教育学園",
  "secondMagiaGift1": {
    "attributeId": "LIGHT",
    "id": 241,
    "name": "ライトブック",
    "price": 500,
    "rank": 1,
    "rankGift": "RANK_1"
  },
  "secondMagiaGift2": {
    "id": 301,
    "name": "燕尾の羽",
    "price": 1000,
    "rank": 1,
    "rankGift": "RANK_1"
  },
  "secondMagiaGift3": {
    "attributeId": "LIGHT",
    "id": 242,
    "name": "ライトブック＋",
    "price": 1000,
    "rank": 2,
    "rankGift": "RANK_2"
  },
  "secondMagiaGift4": {
    "id": 404,
    "name": "オウルのバケツ",
    "price": 3000,
    "rank": 2,
    "rankGift": "RANK_2"
  },
  "secondMagiaGift5": {
    "attributeId": "LIGHT",
    "id": 243,
    "name": "ライトブック＋＋",
    "price": 2000,
    "rank": 3,
    "rankGift": "RANK_3"
  },
  "secondMagiaGift6": {
    "id": 504,
    "name": "リュトンのリボン",
    "price": 5000,
    "rank": 3,
    "rankGift": "RANK_3"
  },
  "secondMagiaGiftId1": 241,
  "secondMagiaGiftId2": 301,
  "secondMagiaGiftId3": 242,
  "secondMagiaGiftId4": 404,
  "secondMagiaGiftId5": 243,
  "secondMagiaGiftId6": 504,
  "secondMagiaGiftNum1": 6,
  "secondMagiaGiftNum2": 6,
  "secondMagiaGiftNum3": 4,
  "secondMagiaGiftNum4": 4,
  "secondMagiaGiftNum5": 2,
  "secondMagiaGiftNum6": 2,
  "thirdMagiaGift1": {
    "attributeId": "LIGHT",
    "id": 241,
    "name": "ライトブック",
    "price": 500,
    "rank": 1,
    "rankGift": "RANK_1"
  },
  "thirdMagiaGift2": {
    "id": 303,
    "name": "立ち耳の包装紙",
    "price": 3000,
    "rank": 1,
    "rankGift": "RANK_1"
  },
  "thirdMagiaGift3": {
    "attributeId": "LIGHT",
    "id": 242,
    "name": "ライトブック＋",
    "price": 1000,
    "rank": 2,
    "rankGift": "RANK_2"
  },
  "thirdMagiaGift4": {
    "id": 403,
    "name": "絵馬の水引",
    "price": 3000,
    "rank": 2,
    "rankGift": "RANK_2"
  },
  "thirdMagiaGift5": {
    "attributeId": "LIGHT",
    "id": 243,
    "name": "ライトブック＋＋",
    "price": 2000,
    "rank": 3,
    "rankGift": "RANK_3"
  },
  "thirdMagiaGift6": {
    "id": 504,
    "name": "リュトンのリボン",
    "price": 5000,
    "rank": 3,
    "rankGift": "RANK_3"
  },
  "thirdMagiaGiftId1": 241,
  "thirdMagiaGiftId2": 303,
  "thirdMagiaGiftId3": 242,
  "thirdMagiaGiftId4": 403,
  "thirdMagiaGiftId5": 243,
  "thirdMagiaGiftId6": 504,
  "thirdMagiaGiftNum1": 8,
  "thirdMagiaGiftNum2": 8,
  "thirdMagiaGiftNum3": 6,
  "thirdMagiaGiftNum4": 6,
  "thirdMagiaGiftNum5": 4,
  "thirdMagiaGiftNum6": 4,
  "voiceActor": "佳村はるか"
}