{
  "attackType": 0,
  "attributeId": "LIGHT",
  "charaMessageList": [
    {
      "charaNo": 2001,
      "message": "う～ん…リボン、どっちかなぁ～？",
      "messageId": 6
    },
    {
      "charaNo": 2001,
      "message": "よく分からないけど…変わった町だね…",
      "messageId": 7
    },
    {
      "charaNo": 2001,
      "message": "わたしは魔法少女…だからやらなきゃ…！",
      "messageId": 8
    },
    {
      "charaNo": 2001,
      "message": "これってホントに、現実なの…？",
      "messageId": 9
    },
    {
      "charaNo": 2001,
      "message": "あなたが、私を呼んだの？",
      "messageId": 10
    },
    {
      "charaNo": 2001,
      "message": "クラスのみんなには、内緒だよっ！",
      "messageId": 11
    },
    {
      "charaNo": 2001,
      "message": "カッコよくなっちゃえばいいんだよ！",
      "messageId": 12
    },
    {
      "charaNo": 2001,
      "message": "よかった…勝てたみたいだね！",
      "messageId": 43
    },
    {
      "charaNo": 2001,
      "message": "やったぁ～！すごいね！",
      "messageId": 44
    },
    {
      "charaNo": 2001,
      "message": "うんうん！いい感じだね！",
      "messageId": 45
    },
    {
      "charaNo": 2001,
      "message": "はぁ～、どうにか終わったね…！",
      "messageId": 46
    }
  ],
  "defaultCard": {
    "attack": 1508,
    "attributeId": "LIGHT",
    "cardCustomize": {
      "bonusCode1": "ATTACK",
      "bonusCode2": "DEFENSE",
      "bonusCode3": "HP",
      "bonusCode4": "ACCEL",
      "bonusCode5": "BLAST",
      "bonusCode6": "CHARGE",
      "bonusNum1": 70,
      "bonusNum2": 50,
      "bonusNum3": 60,
      "bonusNum4": 60,
      "bonusNum5": 60,
      "bonusNum6": 40,
      "cardId": 20014,
      "gift1": {
        "id": 551,
        "name": "レインボーオーブ",
        "price": 10000,
        "rank": 3,
        "rankGift": "RANK_3"
      },
      "gift2": {
        "attributeId": "LIGHT",
        "id": 142,
        "name": "ライトオーブ＋",
        "price": 1000,
        "rank": 2,
        "rankGift": "RANK_2"
      },
      "gift3": {
        "attributeId": "LIGHT",
        "id": 143,
        "name": "ライトオーブ＋＋",
        "price": 2000,
        "rank": 3,
        "rankGift": "RANK_3"
      },
      "gift4": {
        "id": 552,
        "name": "立ち耳の綿",
        "price": 5000,
        "rank": 3,
        "rankGift": "RANK_3"
      },
      "gift5": {
        "id": 402,
        "name": "南京錠の鎖",
        "price": 3000,
        "rank": 2,
        "rankGift": "RANK_2"
      },
      "gift6": {
        "id": 303,
        "name": "立ち耳の包装紙",
        "price": 3000,
        "rank": 1,
        "rankGift": "RANK_1"
      },
      "giftId1": 551,
      "giftId2": 142,
      "giftId3": 143,
      "giftId4": 552,
      "giftId5": 402,
      "giftId6": 303,
      "giftNum1": 3,
      "giftNum2": 12,
      "giftNum3": 6,
      "giftNum4": 6,
      "giftNum5": 8,
      "giftNum6": 12
    },
    "cardId": 20014,
    "cardMagia": {
      "art1": {
        "artId": 100300104,
        "effectValue": 3300,
        "growPoint": 100,
        "targetId": "ALL",
        "verbCode": "ATTACK"
      },
      "art2": {
        "artId": 200300505,
        "effectCode": "MP",
        "effectValue": 225,
        "growPoint": 10,
        "targetId": "ALL",
        "verbCode": "HEAL"
      },
      "artId1": 100300104,
      "artId2": 200300505,
      "groupId": 1014,
      "id": 20014,
      "name": "プルウィア☆マギカ",
      "shortDescription": "敵全体にダメージ[Ⅳ] ＆ MP回復(全)"
    },
    "cardName": "鹿目 まどか",
    "cardSkill": {
      "art1": {
        "artId": 200400406,
        "effectCode": "HP",
        "effectValue": 425,
        "growPoint": 20,
        "targetId": "CONNECT",
        "verbCode": "HEAL"
      },
      "art2": {
        "artId": 200400506,
        "effectCode": "MP",
        "effectValue": 250,
        "growPoint": 10,
        "targetId": "CONNECT",
        "verbCode": "HEAL"
      },
      "artId1": 200400406,
      "artId2": 200400506,
      "groupId": 1078,
      "id": 20014,
      "name": "私が受け止めてあげるから",
      "shortDescription": "HP回復[Ⅵ] ＆ MP回復[Ⅵ]"
    },
    "charaNo": 2001,
    "commandType1": "MPUP",
    "commandType2": "MPUP",
    "commandType3": "RANGE_H",
    "commandType4": "RANGE_V",
    "commandType5": "CHARGE",
    "defense": 2043,
    "growthType": "BALANCE",
    "hp": 5363,
    "illustrator": "ササギコウシ",
    "initialType": "HEAL",
    "magiaCharaNo": 200100,
    "magiaId": 20014,
    "miniCharaNo": 200100,
    "rank": "RANK_4",
    "rateGainMpAtk": 1000,
    "rateGainMpDef": 1200,
    "skillId": 20014
  },
  "defaultCardId": 20014,
  "description": "途方もない素質をもった見滝原市で活躍する魔法少女。＠見滝原中学校の２年生。家族は父、母、弟。＠おっとりしていて他者への思いやりがある優しい性格で周囲に人が＠絶えない。戦闘時では弓を武器として使っている。",
  "designer": "蒼樹うめ",
  "doppel": {
    "description": "この感情の主は、万物を救おうと試みる。＠浮遊する巨大なソウルジェムに見えるこのドッペルが現れた時、周囲のものは全て＠このドッペルが生み出したものの体内に取り込まれ、体の自由を奪われる。＠その後、このドッペルが大きく浮上して光り輝くと、周囲一帯は光の矢に包まれることになる。＠その最中、感情の主は巨大なソウルジェムの中で眠り続けている。",
    "designer": "原案・監修：劇団イヌカレー（泥犬）",
    "id": 200100,
    "name": "慈悲のドッペル",
    "title": "その姿は、救済"
  },
  "doppelCharaNo": 200100,
  "enemyFlg": false,
  "evolutionCard1": {
    "attack": 1708,
    "attributeId": "LIGHT",
    "cardCustomize": {
      "bonusCode1": "ATTACK",
      "bonusCode2": "DEFENSE",
      "bonusCode3": "HP",
      "bonusCode4": "ACCEL",
      "bonusCode5": "BLAST",
      "bonusCode6": "CHARGE",
      "bonusNum1": 80,
      "bonusNum2": 60,
      "bonusNum3": 70,
      "bonusNum4": 70,
      "bonusNum5": 70,
      "bonusNum6": 50,
      "cardId": 20015,
      "gift1": {
        "id": 551,
        "name": "レインボーオーブ",
        "price": 10000,
        "rank": 3,
        "rankGift": "RANK_3"
      },
      "gift2": {
        "attributeId": "LIGHT",
        "id": 142,
        "name": "ライトオーブ＋",
        "price": 1000,
        "rank": 2,
        "rankGift": "RANK_2"
      },
      "gift3": {
        "attributeId": "LIGHT",
        "id": 143,
        "name": "ライトオーブ＋＋",
        "price": 2000,
        "rank": 3,
        "rankGift": "RANK_3"
      },
      "gift4": {
        "id": 553,
        "name": "羊の角",
        "price": 5000,
        "rank": 3,
        "rankGift": "RANK_3"
      },
      "gift5": {
        "id": 503,
        "name": "マチビト馬の車輪",
        "price": 5000,
        "rank": 3,
        "rankGift": "RANK_3"
      },
      "gift6": {
        "id": 403,
        "name": "絵馬の水引",
        "price": 3000,
        "rank": 2,
        "rankGift": "RANK_2"
      },
      "giftId1": 551,
      "giftId2": 142,
      "giftId3": 143,
      "giftId4": 553,
      "giftId5": 503,
      "giftId6": 403,
      "giftNum1": 3,
      "giftNum2": 15,
      "giftNum3": 10,
      "giftNum4": 8,
      "giftNum5": 10,
      "giftNum6": 15
    },
    "cardId": 20015,
    "cardMagia": {
      "art1": {
        "artId": 100300106,
        "effectValue": 3500,
        "growPoint": 100,
        "targetId": "ALL",
        "verbCode": "ATTACK"
      },
      "art2": {
        "artId": 630306207,
        "effectCode": "DAMAGE_DOWN",
        "effectValue": 350,
        "enableTurn": 3,
        "growPoint": 25,
        "probability": 1000,
        "targetId": "ALL",
        "verbCode": "CONDITION_GOOD"
      },
      "art3": {
        "artId": 200300507,
        "effectCode": "MP",
        "effectValue": 275,
        "growPoint": 10,
        "targetId": "ALL",
        "verbCode": "HEAL"
      },
      "artId1": 100300106,
      "artId2": 630306207,
      "artId3": 200300507,
      "groupId": 1014,
      "id": 20015,
      "name": "プルウィア☆マギカ",
      "shortDescription": "敵全体にダメージ[Ⅵ] ＆ MP回復(全) ＆ダメージカット(全/3T)"
    },
    "cardName": "鹿目 まどか",
    "cardSkill": {
      "art1": {
        "artId": 200400408,
        "effectCode": "HP",
        "effectValue": 475,
        "growPoint": 20,
        "targetId": "CONNECT",
        "verbCode": "HEAL"
      },
      "art2": {
        "artId": 200400508,
        "effectCode": "MP",
        "effectValue": 300,
        "growPoint": 10,
        "targetId": "CONNECT",
        "verbCode": "HEAL"
      },
      "artId1": 200400408,
      "artId2": 200400508,
      "groupId": 1078,
      "id": 20015,
      "name": "私が受け止めてあげるから",
      "shortDescription": "HP回復[Ⅷ] ＆ MP回復[Ⅷ]"
    },
    "charaNo": 2001,
    "commandType1": "MPUP",
    "commandType2": "MPUP",
    "commandType3": "RANGE_H",
    "commandType4": "RANGE_V",
    "commandType5": "CHARGE",
    "defense": 2319,
    "doppelCardMagia": {
      "art1": {
        "artId": 190200181,
        "effectValue": 8140,
        "growPoint": 220,
        "targetId": "ALL",
        "verbCode": "ATTACK"
      },
      "art2": {
        "artId": 630306209,
        "effectCode": "DAMAGE_DOWN",
        "effectValue": 400,
        "enableTurn": 3,
        "growPoint": 25,
        "probability": 1000,
        "targetId": "ALL",
        "verbCode": "CONDITION_GOOD"
      },
      "art3": {
        "artId": 200300509,
        "effectCode": "MP",
        "effectValue": 325,
        "growPoint": 10,
        "targetId": "ALL",
        "verbCode": "HEAL"
      },
      "artId1": 190200181,
      "artId2": 630306209,
      "artId3": 200300509,
      "groupId": 1014,
      "id": 20018,
      "name": "慈悲のドッペル",
      "shortDescription": "敵全体にダメージ[Ⅷ] ＆ MP回復(全) ＆ ダメージカット(全/3T)"
    },
    "doppelMagiaId": 20018,
    "growthType": "BALANCE",
    "hp": 6084,
    "illustrator": "蒼樹うめ",
    "initialType": "HEAL",
    "magiaCharaNo": 200100,
    "magiaId": 20015,
    "miniCharaNo": 200100,
    "rank": "RANK_5",
    "rateGainMpAtk": 1000,
    "rateGainMpDef": 1200,
    "skillId": 20015
  },
  "evolutionCardId1": 20015,
  "firstMagiaGift1": {
    "attributeId": "LIGHT",
    "id": 241,
    "name": "ライトブック",
    "price": 500,
    "rank": 1,
    "rankGift": "RANK_1"
  },
  "firstMagiaGift2": {
    "id": 305,
    "name": "屋上の鍵",
    "price": 1000,
    "rank": 1,
    "rankGift": "RANK_1"
  },
  "firstMagiaGift3": {
    "attributeId": "LIGHT",
    "id": 242,
    "name": "ライトブック＋",
    "price": 1000,
    "rank": 2,
    "rankGift": "RANK_2"
  },
  "firstMagiaGift4": {
    "id": 403,
    "name": "絵馬の水引",
    "price": 3000,
    "rank": 2,
    "rankGift": "RANK_2"
  },
  "firstMagiaGift5": {
    "attributeId": "LIGHT",
    "id": 243,
    "name": "ライトブック＋＋",
    "price": 2000,
    "rank": 3,
    "rankGift": "RANK_3"
  },
  "firstMagiaGift6": {
    "id": 552,
    "name": "立ち耳の綿",
    "price": 5000,
    "rank": 3,
    "rankGift": "RANK_3"
  },
  "firstMagiaGiftId1": 241,
  "firstMagiaGiftId2": 305,
  "firstMagiaGiftId3": 242,
  "firstMagiaGiftId4": 403,
  "firstMagiaGiftId5": 243,
  "firstMagiaGiftId6": 552,
  "firstMagiaGiftNum1": 5,
  "firstMagiaGiftNum2": 5,
  "firstMagiaGiftNum3": 3,
  "firstMagiaGiftNum4": 3,
  "firstMagiaGiftNum5": 1,
  "firstMagiaGiftNum6": 1,
  "fourthMagiaGift1": {
    "attributeId": "LIGHT",
    "id": 241,
    "name": "ライトブック",
    "price": 500,
    "rank": 1,
    "rankGift": "RANK_1"
  },
  "fourthMagiaGift2": {
    "id": 301,
    "name": "燕尾の羽",
    "price": 1000,
    "rank": 1,
    "rankGift": "RANK_1"
  },
  "fourthMagiaGift3": {
    "attributeId": "LIGHT",
    "id": 242,
    "name": "ライトブック＋",
    "price": 1000,
    "rank": 2,
    "rankGift": "RANK_2"
  },
  "fourthMagiaGift4": {
    "id": 503,
    "name": "マチビト馬の車輪",
    "price": 5000,
    "rank": 3,
    "rankGift": "RANK_3"
  },
  "fourthMagiaGift5": {
    "attributeId": "LIGHT",
    "id": 243,
    "name": "ライトブック＋＋",
    "price": 2000,
    "rank": 3,
    "rankGift": "RANK_3"
  },
  "fourthMagiaGift6": {
    "id": 553,
    "name": "羊の角",
    "price": 5000,
    "rank": 3,
    "rankGift": "RANK_3"
  },
  "fourthMagiaGiftId1": 241,
  "fourthMagiaGiftId2": 301,
  "fourthMagiaGiftId3": 242,
  "fourthMagiaGiftId4": 503,
  "fourthMagiaGiftId5": 243,
  "fourthMagiaGiftId6": 553,
  "fourthMagiaGiftNum1": 11,
  "fourthMagiaGiftNum2": 11,
  "fourthMagiaGiftNum3": 9,
  "fourthMagiaGiftNum4": 5,
  "fourthMagiaGiftNum5": 7,
  "fourthMagiaGiftNum6": 7,
  "growthType": "BALANCE",
  "id": 2001,
  "initialType": "HEAL",
  "kana": "かなめ まどか",
  "name": "鹿目 まどか",
  "saleItem": {
    "canUse": false,
    "description": "ショップで特別なアイテムと交換することができるアイテム",
    "isSellable": false,
    "itemCode": "PRISM",
    "name": "マギアチップ",
    "price": 0,
    "shortDescription": "マギアチップ",
    "sortKey": 0,
    "treasureChestColor": "GOLD",
    "unit": "個"
  },
  "saleItemId": "PRISM",
  "school": "見滝原中学校",
  "secondMagiaGift1": {
    "attributeId": "LIGHT",
    "id": 241,
    "name": "ライトブック",
    "price": 500,
    "rank": 1,
    "rankGift": "RANK_1"
  },
  "secondMagiaGift2": {
    "id": 304,
    "name": "羊の角笛",
    "price": 1000,
    "rank": 1,
    "rankGift": "RANK_1"
  },
  "secondMagiaGift3": {
    "attributeId": "LIGHT",
    "id": 242,
    "name": "ライトブック＋",
    "price": 1000,
    "rank": 2,
    "rankGift": "RANK_2"
  },
  "secondMagiaGift4": {
    "id": 402,
    "name": "南京錠の鎖",
    "price": 3000,
    "rank": 2,
    "rankGift": "RANK_2"
  },
  "secondMagiaGift5": {
    "attributeId": "LIGHT",
    "id": 243,
    "name": "ライトブック＋＋",
    "price": 2000,
    "rank": 3,
    "rankGift": "RANK_3"
  },
  "secondMagiaGift6": {
    "id": 553,
    "name": "羊の角",
    "price": 5000,
    "rank": 3,
    "rankGift": "RANK_3"
  },
  "secondMagiaGiftId1": 241,
  "secondMagiaGiftId2": 304,
  "secondMagiaGiftId3": 242,
  "secondMagiaGiftId4": 402,
  "secondMagiaGiftId5": 243,
  "secondMagiaGiftId6": 553,
  "secondMagiaGiftNum1": 7,
  "secondMagiaGiftNum2": 7,
  "secondMagiaGiftNum3": 5,
  "secondMagiaGiftNum4": 5,
  "secondMagiaGiftNum5": 3,
  "secondMagiaGiftNum6": 3,
  "thirdMagiaGift1": {
    "attributeId": "LIGHT",
    "id": 241,
    "name": "ライトブック",
    "price": 500,
    "rank": 1,
    "rankGift": "RANK_1"
  },
  "thirdMagiaGift2": {
    "id": 303,
    "name": "立ち耳の包装紙",
    "price": 3000,
    "rank": 1,
    "rankGift": "RANK_1"
  },
  "thirdMagiaGift3": {
    "attributeId": "LIGHT",
    "id": 242,
    "name": "ライトブック＋",
    "price": 1000,
    "rank": 2,
    "rankGift": "RANK_2"
  },
  "thirdMagiaGift4": {
    "id": 403,
    "name": "絵馬の水引",
    "price": 3000,
    "rank": 2,
    "rankGift": "RANK_2"
  },
  "thirdMagiaGift5": {
    "attributeId": "LIGHT",
    "id": 243,
    "name": "ライトブック＋＋",
    "price": 2000,
    "rank": 3,
    "rankGift": "RANK_3"
  },
  "thirdMagiaGift6": {
    "id": 554,
    "name": "屋上のバルーン",
    "price": 5000,
    "rank": 3,
    "rankGift": "RANK_3"
  },
  "thirdMagiaGiftId1": 241,
  "thirdMagiaGiftId2": 303,
  "thirdMagiaGiftId3": 242,
  "thirdMagiaGiftId4": 403,
  "thirdMagiaGiftId5": 243,
  "thirdMagiaGiftId6": 554,
  "thirdMagiaGiftNum1": 9,
  "thirdMagiaGiftNum2": 9,
  "thirdMagiaGiftNum3": 7,
  "thirdMagiaGiftNum4": 7,
  "thirdMagiaGiftNum5": 5,
  "thirdMagiaGiftNum6": 5,
  "voiceActor": "悠木碧"
}