{
  "attackType": 1,
  "attributeId": "WATER",
  "charaMessageList": [
    {
      "charaNo": 3026,
      "message": "葉月、あやめ。ついてらっしゃい",
      "messageId": 6
    },
    {
      "charaNo": 3026,
      "message": "私たちは私たちで生き抜いて見せるわ",
      "messageId": 7
    },
    {
      "charaNo": 3026,
      "message": "神浜市…なかなか悪くない狩場ね",
      "messageId": 8
    },
    {
      "charaNo": 3026,
      "message": "別にこそこそしてるつもりはないわ…",
      "messageId": 9
    },
    {
      "charaNo": 3026,
      "message": "葉月、あやめ。いつものパターンで行くよ！",
      "messageId": 10
    },
    {
      "charaNo": 3026,
      "message": "手出ししないで。あれは私たちの獲物よ",
      "messageId": 11
    },
    {
      "charaNo": 3026,
      "message": "すべてを背負って生きていくって決めたの…",
      "messageId": 12
    },
    {
      "charaNo": 3026,
      "message": "必ず生き延びてみせる…",
      "messageId": 43
    },
    {
      "charaNo": 3026,
      "message": "私の目は先を見据えてるの",
      "messageId": 44
    },
    {
      "charaNo": 3026,
      "message": "そうね…こんなものかしら",
      "messageId": 45
    },
    {
      "charaNo": 3026,
      "message": "前へ進む…ただそれだけよ",
      "messageId": 46
    }
  ],
  "defaultCard": {
    "attack": 1864,
    "attributeId": "WATER",
    "cardCustomize": {
      "bonusCode1": "ATTACK",
      "bonusCode2": "DEFENSE",
      "bonusCode3": "HP",
      "bonusCode4": "ACCEL",
      "bonusCode5": "BLAST",
      "bonusCode6": "CHARGE",
      "bonusNum1": 80,
      "bonusNum2": 40,
      "bonusNum3": 50,
      "bonusNum4": 80,
      "bonusNum5": 40,
      "bonusNum6": 40,
      "cardId": 30264,
      "gift1": {
        "id": 551,
        "name": "レインボーオーブ",
        "price": 10000,
        "rank": 3,
        "rankGift": "RANK_3"
      },
      "gift2": {
        "attributeId": "WATER",
        "id": 122,
        "name": "アクアオーブ＋",
        "price": 1000,
        "rank": 2,
        "rankGift": "RANK_2"
      },
      "gift3": {
        "attributeId": "WATER",
        "id": 123,
        "name": "アクアオーブ＋＋",
        "price": 2000,
        "rank": 3,
        "rankGift": "RANK_3"
      },
      "gift4": {
        "id": 552,
        "name": "立ち耳の綿",
        "price": 5000,
        "rank": 3,
        "rankGift": "RANK_3"
      },
      "gift5": {
        "id": 404,
        "name": "オウルのバケツ",
        "price": 3000,
        "rank": 2,
        "rankGift": "RANK_2"
      },
      "gift6": {
        "id": 301,
        "name": "燕尾の羽",
        "price": 1000,
        "rank": 1,
        "rankGift": "RANK_1"
      },
      "giftId1": 551,
      "giftId2": 122,
      "giftId3": 123,
      "giftId4": 552,
      "giftId5": 404,
      "giftId6": 301,
      "giftNum1": 3,
      "giftNum2": 12,
      "giftNum3": 6,
      "giftNum4": 6,
      "giftNum5": 8,
      "giftNum6": 12
    },
    "cardId": 30264,
    "cardMagia": {
      "art1": {
        "artId": 100300104,
        "effectValue": 3300,
        "growPoint": 100,
        "targetId": "ALL",
        "verbCode": "ATTACK"
      },
      "art2": {
        "artId": 630307705,
        "effectCode": "AUTO_HEAL",
        "effectValue": 60,
        "enableTurn": 3,
        "growPoint": 10,
        "probability": 1000,
        "targetId": "ALL",
        "verbCode": "CONDITION_GOOD"
      },
      "artId1": 100300104,
      "artId2": 630307705,
      "groupId": 1014,
      "id": 30264,
      "name": "バタフライ・テンペスト",
      "shortDescription": "敵全体にダメージ[Ⅳ] ＆ HP自動回復(全/3T) "
    },
    "cardName": "静海 このは",
    "cardSkill": {
      "art1": {
        "artId": 200400406,
        "effectCode": "HP",
        "effectValue": 425,
        "growPoint": 20,
        "targetId": "CONNECT",
        "verbCode": "HEAL"
      },
      "art2": {
        "artId": 310401607,
        "effectCode": "ACCEL",
        "effectValue": 400,
        "enableTurn": 1,
        "growPoint": 25,
        "targetId": "CONNECT",
        "verbCode": "BUFF"
      },
      "art3": {
        "artId": 310401107,
        "effectCode": "ATTACK",
        "effectValue": 350,
        "enableTurn": 1,
        "growPoint": 25,
        "targetId": "CONNECT",
        "verbCode": "BUFF"
      },
      "artId1": 200400406,
      "artId2": 310401607,
      "artId3": 310401107,
      "groupId": 1078,
      "id": 30264,
      "name": "私に任せてもらえるかしら",
      "shortDescription": "HP回復[Ⅵ]＆Accele MPUP[Ⅶ] & 攻撃力UP[Ⅶ] "
    },
    "charaNo": 3026,
    "commandType1": "MPUP",
    "commandType2": "MPUP",
    "commandType3": "RANGE_H",
    "commandType4": "RANGE_H",
    "commandType5": "CHARGE",
    "defense": 1911,
    "growthType": "DEFHP",
    "hp": 5898,
    "illustrator": "ゆーげん",
    "initialType": "BALANCE",
    "magiaCharaNo": 302600,
    "magiaId": 30264,
    "miniCharaNo": 302600,
    "rank": "RANK_4",
    "rateGainMpAtk": 900,
    "rateGainMpDef": 900,
    "skillId": 30264
  },
  "defaultCardId": 30264,
  "description": "神浜市の施設「つつじの家」出身の魔法少女。＠元は裕福な家庭で生まれ育ったが、家業が傾き、父親と母親を相次いで病で亡くし、つつじの家に引き取られた。＠施設内では皆の取りまとめ役で、勉強をはじめ、何をやらせても優秀。＠しかし、料理だけは下手。",
  "designer": "ゆーげん",
  "doppel": {
    "description": "この感情の主は様々な魔力を駆使し恨みある者達へ報復する。＠このドッペルは三つ首狐拳のドッペルのひとりで報復の写し。魔法に長け怪火を操り相手を幻惑する。＠例え水中であっても遺恨ある限りこの怪火が消えることはないだろう。＠ドッペルの出現中、主は理性を失い本能のままに行動しすさまじい跳躍力を発揮する。",
    "designer": "原案・監修：劇団イヌカレー（泥犬）",
    "id": 302600,
    "name": "報復のドッペル",
    "openDate": "2017/10/10 15:10:00",
    "title": "その姿は、狐"
  },
  "doppelCharaNo": 302600,
  "enemyFlg": false,
  "evolutionCard1": {
    "attack": 2113,
    "attributeId": "WATER",
    "cardCustomize": {
      "bonusCode1": "ATTACK",
      "bonusCode2": "DEFENSE",
      "bonusCode3": "HP",
      "bonusCode4": "ACCEL",
      "bonusCode5": "BLAST",
      "bonusCode6": "CHARGE",
      "bonusNum1": 90,
      "bonusNum2": 50,
      "bonusNum3": 60,
      "bonusNum4": 90,
      "bonusNum5": 50,
      "bonusNum6": 50,
      "cardId": 30265,
      "gift1": {
        "id": 551,
        "name": "レインボーオーブ",
        "price": 10000,
        "rank": 3,
        "rankGift": "RANK_3"
      },
      "gift2": {
        "attributeId": "WATER",
        "id": 122,
        "name": "アクアオーブ＋",
        "price": 1000,
        "rank": 2,
        "rankGift": "RANK_2"
      },
      "gift3": {
        "attributeId": "WATER",
        "id": 123,
        "name": "アクアオーブ＋＋",
        "price": 2000,
        "rank": 3,
        "rankGift": "RANK_3"
      },
      "gift4": {
        "id": 504,
        "name": "リュトンのリボン",
        "price": 5000,
        "rank": 3,
        "rankGift": "RANK_3"
      },
      "gift5": {
        "id": 554,
        "name": "屋上のバルーン",
        "price": 5000,
        "rank": 3,
        "rankGift": "RANK_3"
      },
      "gift6": {
        "id": 402,
        "name": "南京錠の鎖",
        "price": 3000,
        "rank": 2,
        "rankGift": "RANK_2"
      },
      "giftId1": 551,
      "giftId2": 122,
      "giftId3": 123,
      "giftId4": 504,
      "giftId5": 554,
      "giftId6": 402,
      "giftNum1": 3,
      "giftNum2": 15,
      "giftNum3": 10,
      "giftNum4": 8,
      "giftNum5": 10,
      "giftNum6": 15
    },
    "cardId": 30265,
    "cardMagia": {
      "art1": {
        "artId": 100300106,
        "effectValue": 3500,
        "growPoint": 100,
        "targetId": "ALL",
        "verbCode": "ATTACK"
      },
      "art2": {
        "artId": 630307707,
        "effectCode": "AUTO_HEAL",
        "effectValue": 80,
        "enableTurn": 3,
        "growPoint": 10,
        "probability": 1000,
        "targetId": "ALL",
        "verbCode": "CONDITION_GOOD"
      },
      "art3": {
        "artId": 630308200,
        "effectCode": "COUNTER",
        "enableTurn": 3,
        "growPoint": 0,
        "probability": 1000,
        "targetId": "ALL",
        "verbCode": "IGNORE"
      },
      "artId1": 100300106,
      "artId2": 630307707,
      "artId3": 630308200,
      "groupId": 1014,
      "id": 30265,
      "name": "バタフライ・テンペスト",
      "shortDescription": "敵全体にダメージ[Ⅵ] ＆ HP自動回復(全/3T)  ＆  カウンター無効(全/3T)"
    },
    "cardName": "静海 このは",
    "cardSkill": {
      "art1": {
        "artId": 200400408,
        "effectCode": "HP",
        "effectValue": 475,
        "growPoint": 20,
        "targetId": "CONNECT",
        "verbCode": "HEAL"
      },
      "art2": {
        "artId": 310401609,
        "effectCode": "ACCEL",
        "effectValue": 500,
        "enableTurn": 1,
        "growPoint": 25,
        "targetId": "CONNECT",
        "verbCode": "BUFF"
      },
      "art3": {
        "artId": 310401109,
        "effectCode": "ATTACK",
        "effectValue": 400,
        "enableTurn": 1,
        "growPoint": 25,
        "targetId": "CONNECT",
        "verbCode": "BUFF"
      },
      "artId1": 200400408,
      "artId2": 310401609,
      "artId3": 310401109,
      "groupId": 1078,
      "id": 30265,
      "name": "私に任せてもらえるかしら",
      "shortDescription": "HP回復[Ⅷ]＆Accele MPUP[Ⅸ] & 攻撃力UP[Ⅸ]"
    },
    "charaNo": 3026,
    "commandType1": "MPUP",
    "commandType2": "MPUP",
    "commandType3": "RANGE_H",
    "commandType4": "RANGE_H",
    "commandType5": "CHARGE",
    "defense": 2166,
    "doppelCardMagia": {
      "art1": {
        "artId": 190302681,
        "effectValue": 8140,
        "growPoint": 220,
        "targetId": "ALL",
        "verbCode": "ATTACK"
      },
      "art2": {
        "artId": 630307709,
        "effectCode": "AUTO_HEAL",
        "effectValue": 100,
        "enableTurn": 3,
        "growPoint": 10,
        "probability": 1000,
        "targetId": "ALL",
        "verbCode": "CONDITION_GOOD"
      },
      "art3": {
        "artId": 630308200,
        "effectCode": "COUNTER",
        "enableTurn": 3,
        "growPoint": 0,
        "probability": 1000,
        "targetId": "ALL",
        "verbCode": "IGNORE"
      },
      "artId1": 190302681,
      "artId2": 630307709,
      "artId3": 630308200,
      "groupId": 1014,
      "id": 30268,
      "name": "報復のドッペル",
      "shortDescription": "敵全体にダメージ[Ⅷ] ＆ HP自動回復(全/3T)  ＆  カウンター無効(全/3T)"
    },
    "doppelMagiaId": 30268,
    "growthType": "DEFHP",
    "hp": 6685,
    "illustrator": "ゆーげん",
    "initialType": "BALANCE",
    "magiaCharaNo": 302600,
    "magiaId": 30265,
    "miniCharaNo": 302600,
    "rank": "RANK_5",
    "rateGainMpAtk": 900,
    "rateGainMpDef": 900,
    "skillId": 30265
  },
  "evolutionCardId1": 30265,
  "firstMagiaGift1": {
    "attributeId": "WATER",
    "id": 221,
    "name": "アクアブック",
    "price": 500,
    "rank": 1,
    "rankGift": "RANK_1"
  },
  "firstMagiaGift2": {
    "id": 301,
    "name": "燕尾の羽",
    "price": 1000,
    "rank": 1,
    "rankGift": "RANK_1"
  },
  "firstMagiaGift3": {
    "attributeId": "WATER",
    "id": 222,
    "name": "アクアブック＋",
    "price": 1000,
    "rank": 2,
    "rankGift": "RANK_2"
  },
  "firstMagiaGift4": {
    "id": 404,
    "name": "オウルのバケツ",
    "price": 3000,
    "rank": 2,
    "rankGift": "RANK_2"
  },
  "firstMagiaGift5": {
    "attributeId": "WATER",
    "id": 223,
    "name": "アクアブック＋＋",
    "price": 2000,
    "rank": 3,
    "rankGift": "RANK_3"
  },
  "firstMagiaGift6": {
    "id": 503,
    "name": "マチビト馬の車輪",
    "price": 5000,
    "rank": 3,
    "rankGift": "RANK_3"
  },
  "firstMagiaGiftId1": 221,
  "firstMagiaGiftId2": 301,
  "firstMagiaGiftId3": 222,
  "firstMagiaGiftId4": 404,
  "firstMagiaGiftId5": 223,
  "firstMagiaGiftId6": 503,
  "firstMagiaGiftNum1": 5,
  "firstMagiaGiftNum2": 5,
  "firstMagiaGiftNum3": 3,
  "firstMagiaGiftNum4": 3,
  "firstMagiaGiftNum5": 1,
  "firstMagiaGiftNum6": 1,
  "fourthMagiaGift1": {
    "attributeId": "WATER",
    "id": 221,
    "name": "アクアブック",
    "price": 500,
    "rank": 1,
    "rankGift": "RANK_1"
  },
  "fourthMagiaGift2": {
    "id": 302,
    "name": "鏡の招待状",
    "price": 1000,
    "rank": 1,
    "rankGift": "RANK_1"
  },
  "fourthMagiaGift3": {
    "attributeId": "WATER",
    "id": 222,
    "name": "アクアブック＋",
    "price": 1000,
    "rank": 2,
    "rankGift": "RANK_2"
  },
  "fourthMagiaGift4": {
    "id": 553,
    "name": "羊の角",
    "price": 5000,
    "rank": 3,
    "rankGift": "RANK_3"
  },
  "fourthMagiaGift5": {
    "attributeId": "WATER",
    "id": 223,
    "name": "アクアブック＋＋",
    "price": 2000,
    "rank": 3,
    "rankGift": "RANK_3"
  },
  "fourthMagiaGift6": {
    "id": 501,
    "name": "砂場のシャベル",
    "price": 5000,
    "rank": 3,
    "rankGift": "RANK_3"
  },
  "fourthMagiaGiftId1": 221,
  "fourthMagiaGiftId2": 302,
  "fourthMagiaGiftId3": 222,
  "fourthMagiaGiftId4": 553,
  "fourthMagiaGiftId5": 223,
  "fourthMagiaGiftId6": 501,
  "fourthMagiaGiftNum1": 11,
  "fourthMagiaGiftNum2": 11,
  "fourthMagiaGiftNum3": 9,
  "fourthMagiaGiftNum4": 5,
  "fourthMagiaGiftNum5": 7,
  "fourthMagiaGiftNum6": 7,
  "growthType": "DEFHP",
  "id": 3026,
  "initialType": "BALANCE",
  "kana": "しずみ このは",
  "name": "静海 このは",
  "openDate": "2017/10/10 15:10:00",
  "saleItem": {
    "canUse": false,
    "description": "ショップで特別なアイテムと交換することができるアイテム",
    "isSellable": false,
    "itemCode": "PRISM",
    "name": "マギアチップ",
    "price": 0,
    "shortDescription": "マギアチップ",
    "sortKey": 0,
    "treasureChestColor": "GOLD",
    "unit": "個"
  },
  "saleItemId": "PRISM",
  "school": "参京院教育学園",
  "secondMagiaGift1": {
    "attributeId": "WATER",
    "id": 221,
    "name": "アクアブック",
    "price": 500,
    "rank": 1,
    "rankGift": "RANK_1"
  },
  "secondMagiaGift2": {
    "id": 303,
    "name": "立ち耳の包装紙",
    "price": 3000,
    "rank": 1,
    "rankGift": "RANK_1"
  },
  "secondMagiaGift3": {
    "attributeId": "WATER",
    "id": 222,
    "name": "アクアブック＋",
    "price": 1000,
    "rank": 2,
    "rankGift": "RANK_2"
  },
  "secondMagiaGift4": {
    "id": 403,
    "name": "絵馬の水引",
    "price": 3000,
    "rank": 2,
    "rankGift": "RANK_2"
  },
  "secondMagiaGift5": {
    "attributeId": "WATER",
    "id": 223,
    "name": "アクアブック＋＋",
    "price": 2000,
    "rank": 3,
    "rankGift": "RANK_3"
  },
  "secondMagiaGift6": {
    "id": 552,
    "name": "立ち耳の綿",
    "price": 5000,
    "rank": 3,
    "rankGift": "RANK_3"
  },
  "secondMagiaGiftId1": 221,
  "secondMagiaGiftId2": 303,
  "secondMagiaGiftId3": 222,
  "secondMagiaGiftId4": 403,
  "secondMagiaGiftId5": 223,
  "secondMagiaGiftId6": 552,
  "secondMagiaGiftNum1": 7,
  "secondMagiaGiftNum2": 7,
  "secondMagiaGiftNum3": 5,
  "secondMagiaGiftNum4": 5,
  "secondMagiaGiftNum5": 3,
  "secondMagiaGiftNum6": 3,
  "thirdMagiaGift1": {
    "attributeId": "WATER",
    "id": 221,
    "name": "アクアブック",
    "price": 500,
    "rank": 1,
    "rankGift": "RANK_1"
  },
  "thirdMagiaGift2": {
    "id": 305,
    "name": "屋上の鍵",
    "price": 1000,
    "rank": 1,
    "rankGift": "RANK_1"
  },
  "thirdMagiaGift3": {
    "attributeId": "WATER",
    "id": 222,
    "name": "アクアブック＋",
    "price": 1000,
    "rank": 2,
    "rankGift": "RANK_2"
  },
  "thirdMagiaGift4": {
    "id": 402,
    "name": "南京錠の鎖",
    "price": 3000,
    "rank": 2,
    "rankGift": "RANK_2"
  },
  "thirdMagiaGift5": {
    "attributeId": "WATER",
    "id": 223,
    "name": "アクアブック＋＋",
    "price": 2000,
    "rank": 3,
    "rankGift": "RANK_3"
  },
  "thirdMagiaGift6": {
    "id": 554,
    "name": "屋上のバルーン",
    "price": 5000,
    "rank": 3,
    "rankGift": "RANK_3"
  },
  "thirdMagiaGiftId1": 221,
  "thirdMagiaGiftId2": 305,
  "thirdMagiaGiftId3": 222,
  "thirdMagiaGiftId4": 402,
  "thirdMagiaGiftId5": 223,
  "thirdMagiaGiftId6": 554,
  "thirdMagiaGiftNum1": 9,
  "thirdMagiaGiftNum2": 9,
  "thirdMagiaGiftNum3": 7,
  "thirdMagiaGiftNum4": 7,
  "thirdMagiaGiftNum5": 5,
  "thirdMagiaGiftNum6": 5,
  "voiceActor": "Lynn"
}