{
  "attackType": 1,
  "attributeId": "LIGHT",
  "charaMessageList": [
    {
      "charaNo": 3004,
      "message": "お父さんみたいに…私も人を救えるの…？",
      "messageId": 6
    },
    {
      "charaNo": 3004,
      "message": "絵本に出てくる騎士みたいになりたいの",
      "messageId": 7
    },
    {
      "charaNo": 3004,
      "message": "守るもののために…私はこの剣を振るいたい",
      "messageId": 8
    },
    {
      "charaNo": 3004,
      "message": "魔法少女でいるって…寂しくならない？",
      "messageId": 9
    },
    {
      "charaNo": 3004,
      "message": "私、やってみようかな！レスキュー隊！",
      "messageId": 10
    },
    {
      "charaNo": 3004,
      "message": "ありがとうって…言われたいのかな…",
      "messageId": 11
    },
    {
      "charaNo": 3004,
      "message": "魔法少女…ううん、私は騎士になったの！",
      "messageId": 12
    },
    {
      "charaNo": 3004,
      "message": "もっと強くなるんだから！",
      "messageId": 43
    },
    {
      "charaNo": 3004,
      "message": "みんなを守れて嬉しい…！",
      "messageId": 44
    },
    {
      "charaNo": 3004,
      "message": "お父さんにも見てもらえたらいいのにな",
      "messageId": 45
    },
    {
      "charaNo": 3004,
      "message": "騎士として当然の務めでしょ！",
      "messageId": 46
    }
  ],
  "defaultCard": {
    "attack": 1018,
    "attributeId": "LIGHT",
    "cardCustomize": {
      "bonusCode1": "ATTACK",
      "bonusCode2": "DEFENSE",
      "bonusCode3": "HP",
      "bonusCode4": "ACCEL",
      "bonusCode5": "BLAST",
      "bonusCode6": "CHARGE",
      "bonusNum1": 20,
      "bonusNum2": 60,
      "bonusNum3": 40,
      "bonusNum4": 40,
      "bonusNum5": 40,
      "bonusNum6": 20,
      "cardId": 30042,
      "gift1": {
        "attributeId": "LIGHT",
        "id": 141,
        "name": "ライトオーブ",
        "price": 500,
        "rank": 1,
        "rankGift": "RANK_1"
      },
      "gift2": {
        "attributeId": "LIGHT",
        "id": 143,
        "name": "ライトオーブ＋＋",
        "price": 2000,
        "rank": 3,
        "rankGift": "RANK_3"
      },
      "gift3": {
        "attributeId": "LIGHT",
        "id": 142,
        "name": "ライトオーブ＋",
        "price": 1000,
        "rank": 2,
        "rankGift": "RANK_2"
      },
      "gift4": {
        "id": 503,
        "name": "マチビト馬の車輪",
        "price": 5000,
        "rank": 3,
        "rankGift": "RANK_3"
      },
      "gift5": {
        "id": 403,
        "name": "絵馬の水引",
        "price": 3000,
        "rank": 2,
        "rankGift": "RANK_2"
      },
      "gift6": {
        "id": 303,
        "name": "立ち耳の包装紙",
        "price": 3000,
        "rank": 1,
        "rankGift": "RANK_1"
      },
      "giftId1": 141,
      "giftId2": 143,
      "giftId3": 142,
      "giftId4": 503,
      "giftId5": 403,
      "giftId6": 303,
      "giftNum1": 6,
      "giftNum2": 2,
      "giftNum3": 4,
      "giftNum4": 1,
      "giftNum5": 3,
      "giftNum6": 5
    },
    "cardId": 30042,
    "cardMagia": {
      "art1": {
        "artId": 100300101,
        "effectValue": 3000,
        "growPoint": 100,
        "targetId": "ALL",
        "verbCode": "ATTACK"
      },
      "art2": {
        "artId": 610207600,
        "effectCode": "PROVOKE",
        "enableTurn": 1,
        "growPoint": 0,
        "probability": 1000,
        "targetId": "SELF",
        "verbCode": "CONDITION_GOOD"
      },
      "art3": {
        "artId": 310201202,
        "effectCode": "DEFENSE",
        "effectValue": 150,
        "enableTurn": 1,
        "growPoint": 25,
        "targetId": "SELF",
        "verbCode": "BUFF"
      },
      "artId1": 100300101,
      "artId2": 610207600,
      "artId3": 310201202,
      "groupId": 1014,
      "id": 30042,
      "name": "ナイトリゾルブ",
      "shortDescription": "敵全体にダメージ[Ⅰ] ＆ 必ず挑発(自/1T) ＆ 防御力UP(自/1T)"
    },
    "cardName": "美凪 ささら",
    "cardSkill": {
      "art1": {
        "artId": 310401203,
        "effectCode": "DEFENSE",
        "effectValue": 600,
        "enableTurn": 1,
        "growPoint": 25,
        "targetId": "CONNECT",
        "verbCode": "BUFF"
      },
      "art2": {
        "artId": 610406203,
        "effectCode": "DAMAGE_DOWN",
        "effectValue": 400,
        "enableTurn": 1,
        "growPoint": 25,
        "probability": 1000,
        "targetId": "CONNECT",
        "verbCode": "CONDITION_GOOD"
      },
      "artId1": 310401203,
      "artId2": 610406203,
      "groupId": 1086,
      "id": 30042,
      "name": "私があなたを守るから！",
      "shortDescription": "防御力UP[Ⅲ] ＆ ダメージカット状態[Ⅲ]"
    },
    "charaNo": 3004,
    "commandType1": "MPUP",
    "commandType2": "MPUP",
    "commandType3": "RANGE_V",
    "commandType4": "RANGE_H",
    "commandType5": "CHARGE",
    "defense": 1305,
    "growthType": "ATKDEF",
    "hp": 3993,
    "illustrator": "戸流ケイ",
    "initialType": "DEFENSE",
    "magiaCharaNo": 300400,
    "magiaId": 30042,
    "miniCharaNo": 300400,
    "rank": "RANK_2",
    "rateGainMpAtk": 800,
    "rateGainMpDef": 1000,
    "skillId": 30042
  },
  "defaultCardId": 30042,
  "description": "正義感の強い魔法少女。＠幼い頃、絵本に出てきた正義の騎士に夢中となり、それ以来、自分も＠困っている人たちを助ける騎士になりたいと願っていた。＠レスキュー部隊に所属する父の影響も強く、目の前の敵を倒すことよ＠りも人命救助を優先する。",
  "designer": "戸流ケイ",
  "enemyFlg": false,
  "evolutionCard1": {
    "attack": 1214,
    "attributeId": "LIGHT",
    "cardCustomize": {
      "bonusCode1": "ATTACK",
      "bonusCode2": "DEFENSE",
      "bonusCode3": "HP",
      "bonusCode4": "ACCEL",
      "bonusCode5": "BLAST",
      "bonusCode6": "CHARGE",
      "bonusNum1": 30,
      "bonusNum2": 70,
      "bonusNum3": 50,
      "bonusNum4": 50,
      "bonusNum5": 50,
      "bonusNum6": 30,
      "cardId": 30043,
      "gift1": {
        "attributeId": "LIGHT",
        "id": 141,
        "name": "ライトオーブ",
        "price": 500,
        "rank": 1,
        "rankGift": "RANK_1"
      },
      "gift2": {
        "attributeId": "LIGHT",
        "id": 143,
        "name": "ライトオーブ＋＋",
        "price": 2000,
        "rank": 3,
        "rankGift": "RANK_3"
      },
      "gift3": {
        "attributeId": "LIGHT",
        "id": 142,
        "name": "ライトオーブ＋",
        "price": 1000,
        "rank": 2,
        "rankGift": "RANK_2"
      },
      "gift4": {
        "id": 551,
        "name": "レインボーオーブ",
        "price": 10000,
        "rank": 3,
        "rankGift": "RANK_3"
      },
      "gift5": {
        "id": 553,
        "name": "羊の角",
        "price": 5000,
        "rank": 3,
        "rankGift": "RANK_3"
      },
      "gift6": {
        "id": 305,
        "name": "屋上の鍵",
        "price": 1000,
        "rank": 1,
        "rankGift": "RANK_1"
      },
      "giftId1": 141,
      "giftId2": 143,
      "giftId3": 142,
      "giftId4": 551,
      "giftId5": 553,
      "giftId6": 305,
      "giftNum1": 9,
      "giftNum2": 4,
      "giftNum3": 7,
      "giftNum4": 2,
      "giftNum5": 3,
      "giftNum6": 8
    },
    "cardId": 30043,
    "cardMagia": {
      "art1": {
        "artId": 100300103,
        "effectValue": 3200,
        "growPoint": 100,
        "targetId": "ALL",
        "verbCode": "ATTACK"
      },
      "art2": {
        "artId": 610207600,
        "effectCode": "PROVOKE",
        "enableTurn": 1,
        "growPoint": 0,
        "probability": 1000,
        "targetId": "SELF",
        "verbCode": "CONDITION_GOOD"
      },
      "art3": {
        "artId": 310201204,
        "effectCode": "DEFENSE",
        "effectValue": 300,
        "enableTurn": 1,
        "growPoint": 25,
        "targetId": "SELF",
        "verbCode": "BUFF"
      },
      "artId1": 100300103,
      "artId2": 610207600,
      "artId3": 310201204,
      "groupId": 1014,
      "id": 30043,
      "name": "ナイトリゾルブ",
      "shortDescription": "敵全体にダメージ[Ⅲ] ＆ 必ず挑発(自/1T) ＆ 防御力UP(自/1T)"
    },
    "cardName": "美凪 ささら",
    "cardSkill": {
      "art1": {
        "artId": 310401205,
        "effectCode": "DEFENSE",
        "effectValue": 750,
        "enableTurn": 1,
        "growPoint": 25,
        "targetId": "CONNECT",
        "verbCode": "BUFF"
      },
      "art2": {
        "artId": 610406205,
        "effectCode": "DAMAGE_DOWN",
        "effectValue": 500,
        "enableTurn": 1,
        "growPoint": 25,
        "probability": 1000,
        "targetId": "CONNECT",
        "verbCode": "CONDITION_GOOD"
      },
      "artId1": 310401205,
      "artId2": 610406205,
      "groupId": 1086,
      "id": 30043,
      "name": "私があなたを守るから！",
      "shortDescription": "防御力UP[Ⅴ] ＆ ダメージカット状態[Ⅴ]"
    },
    "charaNo": 3004,
    "commandType1": "MPUP",
    "commandType2": "MPUP",
    "commandType3": "RANGE_V",
    "commandType4": "RANGE_H",
    "commandType5": "CHARGE",
    "defense": 1556,
    "growthType": "ATKDEF",
    "hp": 4762,
    "illustrator": "戸流ケイ",
    "initialType": "DEFENSE",
    "magiaCharaNo": 300400,
    "magiaId": 30043,
    "miniCharaNo": 300400,
    "rank": "RANK_3",
    "rateGainMpAtk": 800,
    "rateGainMpDef": 1000,
    "skillId": 30043
  },
  "evolutionCard2": {
    "attack": 1509,
    "attributeId": "LIGHT",
    "cardCustomize": {
      "bonusCode1": "ATTACK",
      "bonusCode2": "DEFENSE",
      "bonusCode3": "HP",
      "bonusCode4": "ACCEL",
      "bonusCode5": "BLAST",
      "bonusCode6": "CHARGE",
      "bonusNum1": 40,
      "bonusNum2": 80,
      "bonusNum3": 60,
      "bonusNum4": 60,
      "bonusNum5": 60,
      "bonusNum6": 40,
      "cardId": 30044,
      "gift1": {
        "attributeId": "LIGHT",
        "id": 142,
        "name": "ライトオーブ＋",
        "price": 1000,
        "rank": 2,
        "rankGift": "RANK_2"
      },
      "gift2": {
        "id": 551,
        "name": "レインボーオーブ",
        "price": 10000,
        "rank": 3,
        "rankGift": "RANK_3"
      },
      "gift3": {
        "attributeId": "LIGHT",
        "id": 143,
        "name": "ライトオーブ＋＋",
        "price": 2000,
        "rank": 3,
        "rankGift": "RANK_3"
      },
      "gift4": {
        "id": 554,
        "name": "屋上のバルーン",
        "price": 5000,
        "rank": 3,
        "rankGift": "RANK_3"
      },
      "gift5": {
        "id": 403,
        "name": "絵馬の水引",
        "price": 3000,
        "rank": 2,
        "rankGift": "RANK_2"
      },
      "gift6": {
        "id": 302,
        "name": "鏡の招待状",
        "price": 1000,
        "rank": 1,
        "rankGift": "RANK_1"
      },
      "giftId1": 142,
      "giftId2": 551,
      "giftId3": 143,
      "giftId4": 554,
      "giftId5": 403,
      "giftId6": 302,
      "giftNum1": 12,
      "giftNum2": 3,
      "giftNum3": 6,
      "giftNum4": 6,
      "giftNum5": 8,
      "giftNum6": 12
    },
    "cardId": 30044,
    "cardMagia": {
      "art1": {
        "artId": 100300105,
        "effectValue": 3400,
        "growPoint": 100,
        "targetId": "ALL",
        "verbCode": "ATTACK"
      },
      "art2": {
        "artId": 610207600,
        "effectCode": "PROVOKE",
        "enableTurn": 1,
        "growPoint": 0,
        "probability": 1000,
        "targetId": "SELF",
        "verbCode": "CONDITION_GOOD"
      },
      "art3": {
        "artId": 610207400,
        "effectCode": "GUTS",
        "enableTurn": 1,
        "growPoint": 0,
        "probability": 1000,
        "targetId": "SELF",
        "verbCode": "CONDITION_GOOD"
      },
      "artId1": 100300105,
      "artId2": 610207600,
      "artId3": 610207400,
      "groupId": 1014,
      "id": 30044,
      "name": "ナイトリゾルブ",
      "shortDescription": "敵全体にダメージ[Ⅴ] ＆ 必ず挑発(自/1T) ＆ 耐える(自/1T)"
    },
    "cardName": "美凪 ささら",
    "cardSkill": {
      "art1": {
        "artId": 310401207,
        "effectCode": "DEFENSE",
        "effectValue": 900,
        "enableTurn": 1,
        "growPoint": 25,
        "targetId": "CONNECT",
        "verbCode": "BUFF"
      },
      "art2": {
        "artId": 610406207,
        "effectCode": "DAMAGE_DOWN",
        "effectValue": 600,
        "enableTurn": 1,
        "growPoint": 25,
        "probability": 1000,
        "targetId": "CONNECT",
        "verbCode": "CONDITION_GOOD"
      },
      "artId1": 310401207,
      "artId2": 610406207,
      "groupId": 1086,
      "id": 30044,
      "name": "私があなたを守るから！",
      "shortDescription": "防御力UP[Ⅶ] ＆ ダメージカット状態[Ⅶ]"
    },
    "charaNo": 3004,
    "commandType1": "MPUP",
    "commandType2": "MPUP",
    "commandType3": "RANGE_V",
    "commandType4": "RANGE_H",
    "commandType5": "CHARGE",
    "defense": 1934,
    "growthType": "ATKDEF",
    "hp": 5918,
    "illustrator": "戸流ケイ",
    "initialType": "DEFENSE",
    "magiaCharaNo": 300400,
    "magiaId": 30044,
    "miniCharaNo": 300400,
    "rank": "RANK_4",
    "rateGainMpAtk": 800,
    "rateGainMpDef": 1000,
    "skillId": 30044
  },
  "evolutionCardId1": 30043,
  "evolutionCardId2": 30044,
  "firstMagiaGift1": {
    "attributeId": "LIGHT",
    "id": 241,
    "name": "ライトブック",
    "price": 500,
    "rank": 1,
    "rankGift": "RANK_1"
  },
  "firstMagiaGift2": {
    "id": 304,
    "name": "羊の角笛",
    "price": 1000,
    "rank": 1,
    "rankGift": "RANK_1"
  },
  "firstMagiaGiftId1": 241,
  "firstMagiaGiftId2": 304,
  "firstMagiaGiftNum1": 3,
  "firstMagiaGiftNum2": 3,
  "fourthMagiaGift1": {
    "attributeId": "LIGHT",
    "id": 241,
    "name": "ライトブック",
    "price": 500,
    "rank": 1,
    "rankGift": "RANK_1"
  },
  "fourthMagiaGift2": {
    "id": 302,
    "name": "鏡の招待状",
    "price": 1000,
    "rank": 1,
    "rankGift": "RANK_1"
  },
  "fourthMagiaGift3": {
    "attributeId": "LIGHT",
    "id": 242,
    "name": "ライトブック＋",
    "price": 1000,
    "rank": 2,
    "rankGift": "RANK_2"
  },
  "fourthMagiaGift4": {
    "id": 503,
    "name": "マチビト馬の車輪",
    "price": 5000,
    "rank": 3,
    "rankGift": "RANK_3"
  },
  "fourthMagiaGift5": {
    "attributeId": "LIGHT",
    "id": 243,
    "name": "ライトブック＋＋",
    "price": 2000,
    "rank": 3,
    "rankGift": "RANK_3"
  },
  "fourthMagiaGift6": {
    "id": 553,
    "name": "羊の角",
    "price": 5000,
    "rank": 3,
    "rankGift": "RANK_3"
  },
  "fourthMagiaGiftId1": 241,
  "fourthMagiaGiftId2": 302,
  "fourthMagiaGiftId3": 242,
  "fourthMagiaGiftId4": 503,
  "fourthMagiaGiftId5": 243,
  "fourthMagiaGiftId6": 553,
  "fourthMagiaGiftNum1": 9,
  "fourthMagiaGiftNum2": 9,
  "fourthMagiaGiftNum3": 7,
  "fourthMagiaGiftNum4": 3,
  "fourthMagiaGiftNum5": 5,
  "fourthMagiaGiftNum6": 5,
  "growthType": "ATKDEF",
  "id": 3004,
  "initialType": "DEFENSE",
  "kana": "みなぎ ささら",
  "name": "美凪 ささら",
  "saleItem": {
    "canUse": false,
    "description": "ショップで特別なアイテムと交換することができるアイテム",
    "isSellable": false,
    "itemCode": "PRISM",
    "name": "マギアチップ",
    "price": 0,
    "shortDescription": "マギアチップ",
    "sortKey": 0,
    "treasureChestColor": "GOLD",
    "unit": "個"
  },
  "saleItemId": "PRISM",
  "school": "神浜市立大附属学校",
  "secondMagiaGift1": {
    "attributeId": "LIGHT",
    "id": 241,
    "name": "ライトブック",
    "price": 500,
    "rank": 1,
    "rankGift": "RANK_1"
  },
  "secondMagiaGift2": {
    "id": 301,
    "name": "燕尾の羽",
    "price": 1000,
    "rank": 1,
    "rankGift": "RANK_1"
  },
  "secondMagiaGift3": {
    "attributeId": "LIGHT",
    "id": 242,
    "name": "ライトブック＋",
    "price": 1000,
    "rank": 2,
    "rankGift": "RANK_2"
  },
  "secondMagiaGift4": {
    "id": 403,
    "name": "絵馬の水引",
    "price": 3000,
    "rank": 2,
    "rankGift": "RANK_2"
  },
  "secondMagiaGiftId1": 241,
  "secondMagiaGiftId2": 301,
  "secondMagiaGiftId3": 242,
  "secondMagiaGiftId4": 403,
  "secondMagiaGiftNum1": 5,
  "secondMagiaGiftNum2": 5,
  "secondMagiaGiftNum3": 3,
  "secondMagiaGiftNum4": 3,
  "thirdMagiaGift1": {
    "attributeId": "LIGHT",
    "id": 241,
    "name": "ライトブック",
    "price": 500,
    "rank": 1,
    "rankGift": "RANK_1"
  },
  "thirdMagiaGift2": {
    "id": 303,
    "name": "立ち耳の包装紙",
    "price": 3000,
    "rank": 1,
    "rankGift": "RANK_1"
  },
  "thirdMagiaGift3": {
    "attributeId": "LIGHT",
    "id": 242,
    "name": "ライトブック＋",
    "price": 1000,
    "rank": 2,
    "rankGift": "RANK_2"
  },
  "thirdMagiaGift4": {
    "id": 403,
    "name": "絵馬の水引",
    "price": 3000,
    "rank": 2,
    "rankGift": "RANK_2"
  },
  "thirdMagiaGift5": {
    "attributeId": "LIGHT",
    "id": 243,
    "name": "ライトブック＋＋",
    "price": 2000,
    "rank": 3,
    "rankGift": "RANK_3"
  },
  "thirdMagiaGift6": {
    "id": 503,
    "name": "マチビト馬の車輪",
    "price": 5000,
    "rank": 3,
    "rankGift": "RANK_3"
  },
  "thirdMagiaGiftId1": 241,
  "thirdMagiaGiftId2": 303,
  "thirdMagiaGiftId3": 242,
  "thirdMagiaGiftId4": 403,
  "thirdMagiaGiftId5": 243,
  "thirdMagiaGiftId6": 503,
  "thirdMagiaGiftNum1": 7,
  "thirdMagiaGiftNum2": 7,
  "thirdMagiaGiftNum3": 5,
  "thirdMagiaGiftNum4": 5,
  "thirdMagiaGiftNum5": 3,
  "thirdMagiaGiftNum6": 3,
  "voiceActor": "高橋李依"
}