{
  "attackType": 0,
  "attributeId": "DARK",
  "charaMessageList": [
    {
      "charaNo": 2003,
      "message": "私…鹿目さんとの出会いをやり直したい！",
      "messageId": 6
    },
    {
      "charaNo": 2003,
      "message": "私は、彼女を守る私になりたい…",
      "messageId": 7
    },
    {
      "charaNo": 2003,
      "message": "一体ここは、どこなんでしょうか…？",
      "messageId": 8
    },
    {
      "charaNo": 2003,
      "message": "諦めないから、絶対に…！",
      "messageId": 9
    },
    {
      "charaNo": 2003,
      "message": "この相手には、なんの武器が…？",
      "messageId": 10
    },
    {
      "charaNo": 2003,
      "message": "これから一緒に頑張ろうね！",
      "messageId": 11
    },
    {
      "charaNo": 2003,
      "message": "今回こそはきっと…鹿目さんを救う…！",
      "messageId": 12
    },
    {
      "charaNo": 2003,
      "message": "やった？やった…！",
      "messageId": 43
    },
    {
      "charaNo": 2003,
      "message": "良かった…終わったよね…",
      "messageId": 44
    },
    {
      "charaNo": 2003,
      "message": "な、なんとかなりました～…",
      "messageId": 45
    },
    {
      "charaNo": 2003,
      "message": "上手く戦えました、私…？",
      "messageId": 46
    }
  ],
  "defaultCard": {
    "attack": 1735,
    "attributeId": "DARK",
    "cardCustomize": {
      "bonusCode1": "ATTACK",
      "bonusCode2": "DEFENSE",
      "bonusCode3": "HP",
      "bonusCode4": "ACCEL",
      "bonusCode5": "BLAST",
      "bonusCode6": "CHARGE",
      "bonusNum1": 50,
      "bonusNum2": 50,
      "bonusNum3": 80,
      "bonusNum4": 40,
      "bonusNum5": 60,
      "bonusNum6": 60,
      "cardId": 20034,
      "gift1": {
        "attributeId": "DARK",
        "id": 152,
        "name": "ダークオーブ＋",
        "price": 1000,
        "rank": 2,
        "rankGift": "RANK_2"
      },
      "gift2": {
        "attributeId": "DARK",
        "id": 153,
        "name": "ダークオーブ＋＋",
        "price": 2000,
        "rank": 3,
        "rankGift": "RANK_3"
      },
      "gift3": {
        "id": 551,
        "name": "レインボーオーブ",
        "price": 10000,
        "rank": 3,
        "rankGift": "RANK_3"
      },
      "gift4": {
        "id": 305,
        "name": "屋上の鍵",
        "price": 1000,
        "rank": 1,
        "rankGift": "RANK_1"
      },
      "gift5": {
        "id": 402,
        "name": "南京錠の鎖",
        "price": 3000,
        "rank": 2,
        "rankGift": "RANK_2"
      },
      "gift6": {
        "id": 554,
        "name": "屋上のバルーン",
        "price": 5000,
        "rank": 3,
        "rankGift": "RANK_3"
      },
      "giftId1": 152,
      "giftId2": 153,
      "giftId3": 551,
      "giftId4": 305,
      "giftId5": 402,
      "giftId6": 554,
      "giftNum1": 12,
      "giftNum2": 6,
      "giftNum3": 3,
      "giftNum4": 12,
      "giftNum5": 8,
      "giftNum6": 6
    },
    "cardId": 20034,
    "cardMagia": {
      "art1": {
        "artId": 100300105,
        "effectValue": 3400,
        "growPoint": 100,
        "targetId": "ALL",
        "verbCode": "ATTACK"
      },
      "art2": {
        "artId": 630307800,
        "effectCode": "SKILL_QUICK",
        "enableTurn": 3,
        "growPoint": 0,
        "probability": 1000,
        "targetId": "ALL",
        "verbCode": "CONDITION_GOOD"
      },
      "artId1": 100300105,
      "artId2": 630307800,
      "groupId": 1014,
      "id": 20034,
      "name": "時間止めスペシャル",
      "shortDescription": "敵全体にダメージ[Ⅴ] ＆ スキルクイック(全/3T)"
    },
    "cardName": "暁美 ほむら",
    "cardSkill": {
      "art1": {
        "artId": 610406900,
        "effectCode": "AVOID",
        "enableTurn": 1,
        "growPoint": 0,
        "probability": 1000,
        "targetId": "CONNECT",
        "verbCode": "CONDITION_GOOD"
      },
      "artId1": 610406900,
      "groupId": 1124,
      "id": 20034,
      "name": "一緒に頑張ろうね！",
      "shortDescription": "必ず回避"
    },
    "charaNo": 2003,
    "commandType1": "MPUP",
    "commandType2": "RANGE_H",
    "commandType3": "RANGE_V",
    "commandType4": "CHARGE",
    "commandType5": "CHARGE",
    "defense": 1716,
    "growthType": "HP",
    "hp": 6335,
    "illustrator": "ササギコウシ",
    "initialType": "SUPPORT",
    "magiaCharaNo": 200300,
    "magiaId": 20034,
    "miniCharaNo": 200300,
    "rank": "RANK_4",
    "rateGainMpAtk": 1200,
    "rateGainMpDef": 1000,
    "skillId": 20034
  },
  "defaultCardId": 20034,
  "description": "まどかを守れる存在になることを願った気弱な魔法少女。＠見滝原中学校の２年生。まどかが魔女化する未来を変えるために＠同じ時を繰り返している。＠とあるきっかけから、神浜市で未来を変える希望を探すことになる。",
  "designer": "蒼樹うめ",
  "enemyFlg": false,
  "firstMagiaGift1": {
    "attributeId": "DARK",
    "id": 251,
    "name": "ダークブック",
    "price": 500,
    "rank": 1,
    "rankGift": "RANK_1"
  },
  "firstMagiaGift2": {
    "id": 305,
    "name": "屋上の鍵",
    "price": 1000,
    "rank": 1,
    "rankGift": "RANK_1"
  },
  "firstMagiaGift3": {
    "attributeId": "DARK",
    "id": 252,
    "name": "ダークブック＋",
    "price": 1000,
    "rank": 2,
    "rankGift": "RANK_2"
  },
  "firstMagiaGift4": {
    "id": 403,
    "name": "絵馬の水引",
    "price": 3000,
    "rank": 2,
    "rankGift": "RANK_2"
  },
  "firstMagiaGift5": {
    "attributeId": "DARK",
    "id": 253,
    "name": "ダークブック＋＋",
    "price": 2000,
    "rank": 3,
    "rankGift": "RANK_3"
  },
  "firstMagiaGift6": {
    "id": 552,
    "name": "立ち耳の綿",
    "price": 5000,
    "rank": 3,
    "rankGift": "RANK_3"
  },
  "firstMagiaGiftId1": 251,
  "firstMagiaGiftId2": 305,
  "firstMagiaGiftId3": 252,
  "firstMagiaGiftId4": 403,
  "firstMagiaGiftId5": 253,
  "firstMagiaGiftId6": 552,
  "firstMagiaGiftNum1": 5,
  "firstMagiaGiftNum2": 5,
  "firstMagiaGiftNum3": 3,
  "firstMagiaGiftNum4": 3,
  "firstMagiaGiftNum5": 1,
  "firstMagiaGiftNum6": 1,
  "fourthMagiaGift1": {
    "attributeId": "DARK",
    "id": 251,
    "name": "ダークブック",
    "price": 500,
    "rank": 1,
    "rankGift": "RANK_1"
  },
  "fourthMagiaGift2": {
    "id": 301,
    "name": "燕尾の羽",
    "price": 1000,
    "rank": 1,
    "rankGift": "RANK_1"
  },
  "fourthMagiaGift3": {
    "attributeId": "DARK",
    "id": 252,
    "name": "ダークブック＋",
    "price": 1000,
    "rank": 2,
    "rankGift": "RANK_2"
  },
  "fourthMagiaGift4": {
    "id": 503,
    "name": "マチビト馬の車輪",
    "price": 5000,
    "rank": 3,
    "rankGift": "RANK_3"
  },
  "fourthMagiaGift5": {
    "attributeId": "DARK",
    "id": 253,
    "name": "ダークブック＋＋",
    "price": 2000,
    "rank": 3,
    "rankGift": "RANK_3"
  },
  "fourthMagiaGift6": {
    "id": 553,
    "name": "羊の角",
    "price": 5000,
    "rank": 3,
    "rankGift": "RANK_3"
  },
  "fourthMagiaGiftId1": 251,
  "fourthMagiaGiftId2": 301,
  "fourthMagiaGiftId3": 252,
  "fourthMagiaGiftId4": 503,
  "fourthMagiaGiftId5": 253,
  "fourthMagiaGiftId6": 553,
  "fourthMagiaGiftNum1": 11,
  "fourthMagiaGiftNum2": 11,
  "fourthMagiaGiftNum3": 9,
  "fourthMagiaGiftNum4": 5,
  "fourthMagiaGiftNum5": 7,
  "fourthMagiaGiftNum6": 7,
  "growthType": "HP",
  "id": 2003,
  "initialType": "SUPPORT",
  "kana": "あけみ ほむら",
  "name": "暁美 ほむら",
  "saleItem": {
    "canUse": false,
    "description": "ショップで特別なアイテムと交換することができるアイテム",
    "isSellable": false,
    "itemCode": "PRISM",
    "name": "マギアチップ",
    "price": 0,
    "shortDescription": "マギアチップ",
    "sortKey": 0,
    "treasureChestColor": "GOLD",
    "unit": "個"
  },
  "saleItemId": "PRISM",
  "school": "見滝原中学校",
  "secondMagiaGift1": {
    "attributeId": "DARK",
    "id": 251,
    "name": "ダークブック",
    "price": 500,
    "rank": 1,
    "rankGift": "RANK_1"
  },
  "secondMagiaGift2": {
    "id": 304,
    "name": "羊の角笛",
    "price": 1000,
    "rank": 1,
    "rankGift": "RANK_1"
  },
  "secondMagiaGift3": {
    "attributeId": "DARK",
    "id": 252,
    "name": "ダークブック＋",
    "price": 1000,
    "rank": 2,
    "rankGift": "RANK_2"
  },
  "secondMagiaGift4": {
    "id": 402,
    "name": "南京錠の鎖",
    "price": 3000,
    "rank": 2,
    "rankGift": "RANK_2"
  },
  "secondMagiaGift5": {
    "attributeId": "DARK",
    "id": 253,
    "name": "ダークブック＋＋",
    "price": 2000,
    "rank": 3,
    "rankGift": "RANK_3"
  },
  "secondMagiaGift6": {
    "id": 553,
    "name": "羊の角",
    "price": 5000,
    "rank": 3,
    "rankGift": "RANK_3"
  },
  "secondMagiaGiftId1": 251,
  "secondMagiaGiftId2": 304,
  "secondMagiaGiftId3": 252,
  "secondMagiaGiftId4": 402,
  "secondMagiaGiftId5": 253,
  "secondMagiaGiftId6": 553,
  "secondMagiaGiftNum1": 7,
  "secondMagiaGiftNum2": 7,
  "secondMagiaGiftNum3": 5,
  "secondMagiaGiftNum4": 5,
  "secondMagiaGiftNum5": 3,
  "secondMagiaGiftNum6": 3,
  "thirdMagiaGift1": {
    "attributeId": "DARK",
    "id": 251,
    "name": "ダークブック",
    "price": 500,
    "rank": 1,
    "rankGift": "RANK_1"
  },
  "thirdMagiaGift2": {
    "id": 303,
    "name": "立ち耳の包装紙",
    "price": 3000,
    "rank": 1,
    "rankGift": "RANK_1"
  },
  "thirdMagiaGift3": {
    "attributeId": "DARK",
    "id": 252,
    "name": "ダークブック＋",
    "price": 1000,
    "rank": 2,
    "rankGift": "RANK_2"
  },
  "thirdMagiaGift4": {
    "id": 403,
    "name": "絵馬の水引",
    "price": 3000,
    "rank": 2,
    "rankGift": "RANK_2"
  },
  "thirdMagiaGift5": {
    "attributeId": "DARK",
    "id": 253,
    "name": "ダークブック＋＋",
    "price": 2000,
    "rank": 3,
    "rankGift": "RANK_3"
  },
  "thirdMagiaGift6": {
    "id": 554,
    "name": "屋上のバルーン",
    "price": 5000,
    "rank": 3,
    "rankGift": "RANK_3"
  },
  "thirdMagiaGiftId1": 251,
  "thirdMagiaGiftId2": 303,
  "thirdMagiaGiftId3": 252,
  "thirdMagiaGiftId4": 403,
  "thirdMagiaGiftId5": 253,
  "thirdMagiaGiftId6": 554,
  "thirdMagiaGiftNum1": 9,
  "thirdMagiaGiftNum2": 9,
  "thirdMagiaGiftNum3": 7,
  "thirdMagiaGiftNum4": 7,
  "thirdMagiaGiftNum5": 5,
  "thirdMagiaGiftNum6": 5,
  "title": "眼鏡ver.",
  "voiceActor": "斎藤千和"
}