{
  "canUse": false,
  "description": "みたまの特訓[杏子・フェリシア編]の交換用アイテム",
  "eventId": 1004,
  "isSellable": false,
  "itemCode": "EVENT_TRAINING_1004",
  "name": "ポーション",
  "price": 0,
  "shortDescription": "みたまの特訓[杏子・フェリシア編]の交換用アイテム",
  "sortKey": 0,
  "treasureChestColor": "ADDED_DROP",
  "unit": "個"
}