{
  "canUse": false,
  "description": "★2のデスティニージェムとの交換用アイテムです",
  "eventId": 1007,
  "isSellable": false,
  "itemCode": "EVENT_TOWER_1007_EXCHANGE_RARE2",
  "name": "デスティニーボトル★2",
  "price": 0,
  "shortDescription": "★2のデスティニージェムとの交換用アイテム",
  "sortKey": 0,
  "treasureChestColor": "GOLD",
  "unit": "個"
}