{
  "canUse": false,
  "description": "魔法少女を強化することができるアイテム",
  "isSellable": false,
  "itemCode": "COMPOSE_ITEM_LIGHT_P",
  "itemType": "COMPOSE",
  "name": "ライトジェム＋",
  "price": 0,
  "rank": "RANK_2",
  "shortDescription": "ライトジェム＋",
  "sortKey": 0,
  "treasureChestColor": "SILVER",
  "unit": "個"
}