{
  "canUse": false,
  "description": "みたまの特訓[巴マミ編]の交換用アイテムです",
  "eventId": 1002,
  "isSellable": false,
  "itemCode": "EVENT_COMPOSE_MAMI",
  "name": "マミのポーション",
  "price": 0,
  "shortDescription": "みたまの特訓[巴マミ編]の交換用アイテムです",
  "sortKey": 0,
  "treasureChestColor": "GOLD",
  "unit": "個"
}