{
  "canUse": false,
  "description": "魔法少女を強化することができるアイテム",
  "isSellable": false,
  "itemCode": "COMPOSE_ITEM_TIMBER_PP",
  "itemType": "COMPOSE",
  "name": "フォレストジェム＋＋",
  "price": 0,
  "rank": "RANK_3",
  "shortDescription": "フォレストジェム＋＋",
  "sortKey": 0,
  "treasureChestColor": "GOLD",
  "unit": "個"
}