{
  "attack": 360,
  "attributeId": "ALL",
  "defense": 0,
  "description": "「ちょっと派手じゃないかな？」＠お母さんと相談して決めたリボンを、そよ風がくすぐるように揺らしている。絶望なんて見当たらない、穏やかな時間。＠「そうだよね、魔法少女だって、ただのひとりの女の子だもん」",
  "hp": 440,
  "illustrator": "シャフト",
  "pieceId": 1017,
  "pieceName": "穏やかな日差し",
  "pieceSkill": {
    "art1": {
      "artId": 390201102,
      "effectCode": "ATTACK",
      "effectValue": 100,
      "growPoint": 25,
      "probability": 1000,
      "targetId": "SELF",
      "verbCode": "BUFF"
    },
    "artId1": 390201102,
    "groupId": 1085,
    "id": 101700,
    "name": "アタック・アデプト[Ⅱ]",
    "shortDescription": "攻撃力UP[Ⅱ]"
  },
  "pieceSkill2": {
    "art1": {
      "artId": 390201103,
      "effectCode": "ATTACK",
      "effectValue": 150,
      "growPoint": 25,
      "probability": 1000,
      "targetId": "SELF",
      "verbCode": "BUFF"
    },
    "artId1": 390201103,
    "groupId": 1085,
    "id": 101701,
    "name": "アタック・アデプト[Ⅲ]",
    "shortDescription": "攻撃力UP[Ⅲ]"
  },
  "pieceType": "ABILITY",
  "rank": "RANK_2",
  "skillId": 101700,
  "skillId2": 101701
}