{
  "attack": 721,
  "attributeId": "ALL",
  "defense": 0,
  "description": "「なるほど、ここで鍵開けテクが活用できるんだ！…って違う？うそでしょ!?＠この主人公、擦れ違い様に警備員から鍵を取ってたの!?＠どういうことだろ…え、えっと、解説は巻末の152Pに記載…＠こんなテクニックが書いてあるなんて、作者は何者なの!?」",
  "hp": 881,
  "illustrator": "ニリツ",
  "openDate": "2017/10/30 15:10:00",
  "pieceId": 1130,
  "pieceName": "マイバイブル",
  "pieceSkill": {
    "art1": {
      "artId": 690206104,
      "effectCode": "DAMAGE_UP",
      "effectValue": 200,
      "growPoint": 25,
      "probability": 1000,
      "targetId": "SELF",
      "verbCode": "CONDITION_GOOD"
    },
    "art2": {
      "artId": 690208800,
      "effectCode": "CURSE",
      "growPoint": 0,
      "probability": 1000,
      "targetId": "SELF",
      "verbCode": "IGNORE"
    },
    "artId1": 690206104,
    "artId2": 690208800,
    "groupId": 1119,
    "id": 113000,
    "name": "ブレッシング・アデプト",
    "shortDescription": "ダメージアップ状態[Ⅳ]&呪い無効"
  },
  "pieceSkill2": {
    "art1": {
      "artId": 690206105,
      "effectCode": "DAMAGE_UP",
      "effectValue": 250,
      "growPoint": 25,
      "probability": 1000,
      "targetId": "SELF",
      "verbCode": "CONDITION_GOOD"
    },
    "art2": {
      "artId": 690208800,
      "effectCode": "CURSE",
      "growPoint": 0,
      "probability": 1000,
      "targetId": "SELF",
      "verbCode": "IGNORE"
    },
    "artId1": 690206105,
    "artId2": 690208800,
    "groupId": 1119,
    "id": 113001,
    "name": "ブレッシング・アデプト",
    "shortDescription": "ダメージアップ状態[Ⅴ]&呪い無効"
  },
  "pieceType": "ABILITY",
  "rank": "RANK_4",
  "skillId": 113000,
  "skillId2": 113001
}