{
  "attack": 0,
  "attributeId": "ALL",
  "charaIds": "2003",
  "charaList": [
    {
      "charaId": 2003,
      "name": "暁美 ほむら"
    }
  ],
  "defense": 481,
  "description": "「彼女を守る私になりたい」＠願いは叶えられ、少女は魔法少女になった＠守りたいものを守るために、彼女はあらゆる手段を試行する＠それがどんな危険なものであっても",
  "hp": 441,
  "illustrator": "東山雄勢",
  "pieceId": 1081,
  "pieceName": "彼女を守る私になりたい",
  "pieceSkill": {
    "art1": {
      "artId": 630207800,
      "effectCode": "SKILL_QUICK",
      "enableTurn": 3,
      "growPoint": 0,
      "probability": 1000,
      "targetId": "SELF",
      "verbCode": "CONDITION_GOOD"
    },
    "artId1": 630207800,
    "groupId": 1131,
    "id": 108100,
    "intervalTurn": 15,
    "messageId": 70,
    "name": "スキルクイック",
    "shortDescription": "スキルクイック(自/3T)"
  },
  "pieceSkill2": {
    "art1": {
      "artId": 630207800,
      "effectCode": "SKILL_QUICK",
      "enableTurn": 3,
      "growPoint": 0,
      "probability": 1000,
      "targetId": "SELF",
      "verbCode": "CONDITION_GOOD"
    },
    "artId1": 630207800,
    "groupId": 1131,
    "id": 108101,
    "intervalTurn": 13,
    "messageId": 70,
    "name": "スキルクイック",
    "shortDescription": "スキルクイック(自/3T)"
  },
  "pieceType": "SKILL",
  "rank": "RANK_3",
  "skillId": 108100,
  "skillId2": 108101
}