{
  "attack": 0,
  "attributeId": "ALL",
  "charaIds": "3008",
  "charaList": [
    {
      "charaId": 3008,
      "name": "志伸 あきら"
    }
  ],
  "defense": 463,
  "description": "「困っている人に手を差し伸べることこそ武の存在意義」＠幼い頃から、そう教わってきた彼女は、＠それを成し遂げるだけの力をつけてきた。＠若くして黒帯を締めていることこそが、その証明である。",
  "hp": 463,
  "illustrator": "茶ちえ",
  "pieceId": 1090,
  "pieceName": "優しき強者",
  "pieceSkill": {
    "art1": {
      "artId": 700211900,
      "effectCode": "CHARGE",
      "growPoint": 0,
      "probability": 1000,
      "targetId": "SELF",
      "verbCode": "DRAW"
    },
    "artId1": 700211900,
    "groupId": 1167,
    "id": 109000,
    "intervalTurn": 15,
    "messageId": 70,
    "name": "チャージドロー",
    "shortDescription": "Chargeドロー"
  },
  "pieceSkill2": {
    "art1": {
      "artId": 700211900,
      "effectCode": "CHARGE",
      "growPoint": 0,
      "probability": 1000,
      "targetId": "SELF",
      "verbCode": "DRAW"
    },
    "artId1": 700211900,
    "groupId": 1167,
    "id": 109001,
    "intervalTurn": 13,
    "messageId": 70,
    "name": "チャージドロー",
    "shortDescription": "Chargeドロー"
  },
  "pieceType": "SKILL",
  "rank": "RANK_3",
  "skillId": 109000,
  "skillId2": 109001
}