{
  "attack": 180,
  "attributeId": "ALL",
  "defense": 0,
  "description": "犬の魔女の手下。その役割はインテリア。＠全く意思を持たずにただ回転しているだけのマネキン。＠誰からも愛されなかった犬の魔女は意思を持つ手下を創造することが出来なかった。",
  "hp": 220,
  "illustrator": "劇団イヌカレー",
  "pieceId": 1009,
  "pieceName": "犬の魔女の手下",
  "pieceSkill": {
    "art1": {
      "artId": 390201101,
      "effectCode": "ATTACK",
      "effectValue": 50,
      "growPoint": 25,
      "probability": 1000,
      "targetId": "SELF",
      "verbCode": "BUFF"
    },
    "artId1": 390201101,
    "groupId": 1085,
    "id": 100900,
    "name": "アタック・アデプト[Ⅰ]",
    "shortDescription": "攻撃力UP[Ⅰ]"
  },
  "pieceSkill2": {
    "art1": {
      "artId": 390201102,
      "effectCode": "ATTACK",
      "effectValue": 100,
      "growPoint": 25,
      "probability": 1000,
      "targetId": "SELF",
      "verbCode": "BUFF"
    },
    "artId1": 390201102,
    "groupId": 1085,
    "id": 100901,
    "name": "アタック・アデプト[Ⅱ]",
    "shortDescription": "攻撃力UP[Ⅱ]"
  },
  "pieceType": "ABILITY",
  "rank": "RANK_1",
  "skillId": 100900,
  "skillId2": 100901
}