{
  "attack": 601,
  "attributeId": "ALL",
  "defense": 0,
  "description": "一人は、その鋭き刃をもって闇夜を切り裂き、＠一人は、その猛き銃砲をもって悪夢を撃ち抜き、＠一人は、その揺らめく槍をもって脅威を貫き、＠一人は、その煌く盾をもって時を彷徨い歩き、因果を結びつけてゆく。",
  "hp": 601,
  "illustrator": "シャフト",
  "pieceId": 1064,
  "pieceName": "まどかと因果を紡ぐ魔法少女",
  "pieceSkill": {
    "art1": {
      "artId": 390201403,
      "effectCode": "MAGIA",
      "effectValue": 100,
      "growPoint": 25,
      "probability": 1000,
      "targetId": "SELF",
      "verbCode": "BUFF"
    },
    "artId1": 390201403,
    "groupId": 1088,
    "id": 106400,
    "name": "マギア・アデプト[Ⅲ]",
    "shortDescription": "マギアダメージUP[Ⅲ]"
  },
  "pieceSkill2": {
    "art1": {
      "artId": 390201404,
      "effectCode": "MAGIA",
      "effectValue": 125,
      "growPoint": 25,
      "probability": 1000,
      "targetId": "SELF",
      "verbCode": "BUFF"
    },
    "artId1": 390201404,
    "groupId": 1088,
    "id": 106401,
    "name": "マギア・アデプト[Ⅳ]",
    "shortDescription": "マギアダメージUP[Ⅳ]"
  },
  "pieceType": "ABILITY",
  "rank": "RANK_3",
  "skillId": 106400,
  "skillId2": 106401
}