{
  "attack": 0,
  "attributeId": "ALL",
  "charaIds": "1018",
  "charaList": [
    {
      "charaId": 1018,
      "name": "天音 月夜"
    }
  ],
  "defense": 463,
  "description": "ひどく懐かしく愛おしい。見つけたときからそうだった＠吹いて見れば心が温もり、音は風に乗って舞っていく＠音よキミはどこへ行くのか＠行く先はいつも決まっている。遠い私の妹のところへ",
  "hp": 463,
  "illustrator": "mepo",
  "openDate": "2017/11/30 15:10:00",
  "pieceId": 1149,
  "pieceName": "月夜の宝物",
  "pieceSkill": {
    "art1": {
      "artId": 700211700,
      "effectCode": "CHARACTER",
      "growPoint": 0,
      "probability": 1000,
      "targetId": "SELF",
      "verbCode": "DRAW"
    },
    "artId1": 700211700,
    "groupId": 1161,
    "id": 114900,
    "intervalTurn": 5,
    "messageId": 70,
    "name": "モノポライズドロー",
    "shortDescription": "自分のDiscドロー"
  },
  "pieceSkill2": {
    "art1": {
      "artId": 700211700,
      "effectCode": "CHARACTER",
      "growPoint": 0,
      "probability": 1000,
      "targetId": "SELF",
      "verbCode": "DRAW"
    },
    "artId1": 700211700,
    "groupId": 1161,
    "id": 114901,
    "intervalTurn": 4,
    "messageId": 70,
    "name": "モノポライズドロー",
    "shortDescription": "自分のDiscドロー"
  },
  "pieceType": "SKILL",
  "rank": "RANK_3",
  "skillId": 114900,
  "skillId2": 114901
}