{
  "attack": 0,
  "attributeId": "ALL",
  "defense": 600,
  "description": "大好きなあの子にだって、辛いことはたくさんあるはず。＠それでも私に、笑顔をくれる、勇気をくれる。＠いつだってキミがいるから、私は青春のステージに立てるんだ。＠だから全力で叫ぶんだ。キミがアイドルのステージで輝けるように。",
  "hp": 600,
  "illustrator": "シャフト",
  "pieceId": 1053,
  "pieceName": "PPPH！コールは完璧！",
  "pieceSkill": {
    "art1": {
      "artId": 410302107,
      "effectCode": "DEFENSE",
      "effectValue": 350,
      "enableTurn": 1,
      "growPoint": 25,
      "targetId": "ALL",
      "verbCode": "DEBUFF"
    },
    "artId1": 410302107,
    "groupId": 1095,
    "id": 105310,
    "intervalTurn": 7,
    "messageId": 72,
    "name": "クウェル・ガード[Ⅶ]",
    "shortDescription": "防御力DOWN[Ⅶ](敵全/1T)"
  },
  "pieceSkill2": {
    "art1": {
      "artId": 410302108,
      "effectCode": "DEFENSE",
      "effectValue": 400,
      "enableTurn": 1,
      "growPoint": 25,
      "targetId": "ALL",
      "verbCode": "DEBUFF"
    },
    "artId1": 410302108,
    "groupId": 1095,
    "id": 105311,
    "intervalTurn": 6,
    "messageId": 72,
    "name": "クウェル・ガード[Ⅷ]",
    "shortDescription": "防御力DOWN[Ⅷ](敵全/1T)"
  },
  "pieceType": "SKILL",
  "rank": "RANK_3",
  "skillId": 105310,
  "skillId2": 105311
}