{
  "attack": 0,
  "attributeId": "ALL",
  "defense": 384,
  "description": "昼下がり、穏やかな午後。＠みんなの前では強気でいても母の前ではやっぱり子供。＠いつまでもこうしていられないのは彼女も分かってる。＠でも、今だけはもう少し、夢の中に…。",
  "hp": 424,
  "illustrator": "一十九二",
  "pieceId": 1038,
  "pieceName": "心解ける枕",
  "pieceSkill": {
    "art1": {
      "artId": 610206205,
      "effectCode": "DAMAGE_DOWN",
      "effectValue": 250,
      "enableTurn": 1,
      "growPoint": 25,
      "probability": 1000,
      "targetId": "SELF",
      "verbCode": "CONDITION_GOOD"
    },
    "artId1": 610206205,
    "groupId": 1120,
    "id": 103810,
    "intervalTurn": 8,
    "messageId": 70,
    "name": "エンハンス・シールド[Ⅴ]",
    "shortDescription": "ダメージカット状態[Ⅴ](自/1T)"
  },
  "pieceSkill2": {
    "art1": {
      "artId": 610206206,
      "effectCode": "DAMAGE_DOWN",
      "effectValue": 300,
      "enableTurn": 1,
      "growPoint": 25,
      "probability": 1000,
      "targetId": "SELF",
      "verbCode": "CONDITION_GOOD"
    },
    "artId1": 610206206,
    "groupId": 1120,
    "id": 103811,
    "intervalTurn": 7,
    "messageId": 70,
    "name": "エンハンス・シールド[Ⅵ]",
    "shortDescription": "ダメージカット状態[Ⅵ](自/1T)"
  },
  "pieceType": "SKILL",
  "rank": "RANK_2",
  "skillId": 103810,
  "skillId2": 103811
}