{
  "attack": 363,
  "attributeId": "ALL",
  "defense": 0,
  "description": "「今日の調理実習、彼と同じ班になっちゃった！＠お家でママとコロッケ作る練習もしたし…＠“あいみは料理も上手なんだね、お嫁さんにしたいくらいだ”なんて＠言われちゃったり！…って！待って待って！お嫁さんって気が早いよー」",
  "hp": 443,
  "illustrator": "かんざきひろ",
  "openDate": "2017/10/23 15:10:00",
  "pieceId": 1124,
  "pieceName": "日々妄想",
  "pieceSkill": {
    "art1": {
      "artId": 390201502,
      "effectCode": "RESIST",
      "effectValue": 250,
      "growPoint": 25,
      "probability": 1000,
      "targetId": "SELF",
      "verbCode": "BUFF"
    },
    "artId1": 390201502,
    "groupId": 1089,
    "id": 112400,
    "name": "レジスト・アデプト[Ⅱ]",
    "shortDescription": "状態異常耐性UP[Ⅱ]"
  },
  "pieceSkill2": {
    "art1": {
      "artId": 390201503,
      "effectCode": "RESIST",
      "effectValue": 300,
      "growPoint": 25,
      "probability": 1000,
      "targetId": "SELF",
      "verbCode": "BUFF"
    },
    "artId1": 390201503,
    "groupId": 1089,
    "id": 112401,
    "name": "レジスト・アデプト[Ⅲ]",
    "shortDescription": "状態異常耐性UP[Ⅲ]"
  },
  "pieceType": "ABILITY",
  "rank": "RANK_2",
  "skillId": 112400,
  "skillId2": 112401
}