{
  "attack": 0,
  "attributeId": "ALL",
  "defense": 444,
  "description": "憂いながら、彼女が紅茶の水面に浮かべるのはどんな未来だろうか。＠救世か終末か。絶望か希望か。角砂糖とジャムをめいっぱい入れて、彼女の憂鬱を解かすことが出来るのは唯ひとり、彼女の伴侶だけかもしれない。",
  "hp": 364,
  "illustrator": "ムラ黒江",
  "pieceId": 1044,
  "pieceName": "苦い紅茶にはお砂糖を",
  "pieceSkill": {
    "art1": {
      "artId": 330201203,
      "effectCode": "DEFENSE",
      "effectValue": 225,
      "enableTurn": 3,
      "growPoint": 25,
      "targetId": "SELF",
      "verbCode": "BUFF"
    },
    "artId1": 330201203,
    "groupId": 1086,
    "id": 104410,
    "intervalTurn": 8,
    "messageId": 70,
    "name": "ガードライズ[Ⅲ]",
    "shortDescription": "防御力UP[Ⅲ](自/3T)"
  },
  "pieceSkill2": {
    "art1": {
      "artId": 330201204,
      "effectCode": "DEFENSE",
      "effectValue": 300,
      "enableTurn": 3,
      "growPoint": 25,
      "targetId": "SELF",
      "verbCode": "BUFF"
    },
    "artId1": 330201204,
    "groupId": 1086,
    "id": 104411,
    "intervalTurn": 7,
    "messageId": 70,
    "name": "ガードライズ[Ⅳ]",
    "shortDescription": "防御力UP[Ⅳ](自/3T)"
  },
  "pieceType": "SKILL",
  "rank": "RANK_2",
  "skillId": 104410,
  "skillId2": 104411
}