{
  "attack": 0,
  "attributeId": "ALL",
  "charaIds": "4003",
  "charaList": [
    {
      "charaId": 4003,
      "name": "千歳 ゆま"
    }
  ],
  "defense": 506,
  "description": "少女を救った\"ヒーロー\"は、1つの飴を差し出した。＠その飴はとても甘く、嫌な思い出を取り払ってくれるようだった。＠自分も\"ヒーロー\"と一緒に戦いたい。＠少女は小さく心に誓った。",
  "hp": 426,
  "illustrator": "絵西",
  "pieceId": 1102,
  "pieceName": "ヒーローとの出会い",
  "pieceSkill": {
    "art1": {
      "artId": 700212000,
      "effectCode": "BLAST",
      "growPoint": 0,
      "probability": 1000,
      "targetId": "SELF",
      "verbCode": "DRAW"
    },
    "artId1": 700212000,
    "groupId": 1168,
    "id": 110200,
    "intervalTurn": 15,
    "messageId": 70,
    "name": "ブラストドロー",
    "shortDescription": "Blastドロー"
  },
  "pieceSkill2": {
    "art1": {
      "artId": 700212000,
      "effectCode": "BLAST",
      "growPoint": 0,
      "probability": 1000,
      "targetId": "SELF",
      "verbCode": "DRAW"
    },
    "artId1": 700212000,
    "groupId": 1168,
    "id": 110201,
    "intervalTurn": 13,
    "messageId": 70,
    "name": "ブラストドロー",
    "shortDescription": "Blastドロー"
  },
  "pieceType": "SKILL",
  "rank": "RANK_3",
  "skillId": 110200,
  "skillId2": 110201
}