{
  "attack": 0,
  "attributeId": "ALL",
  "charaIds": "1011",
  "charaList": [
    {
      "charaId": 1011,
      "name": "秋野 かえで"
    }
  ],
  "defense": 421,
  "description": "幼い頃からたくさんの植物や、動物と触れ合ってきた彼女。＠動物とは大の仲良しで、動物達もそれを理解している。＠自然や動物に囲まれた彼女の家は、彼女にとってまさに楽園である。",
  "hp": 501,
  "illustrator": "匈歌ハトリ",
  "pieceId": 1078,
  "pieceName": "アニマルパラダイス",
  "pieceSkill": {
    "art1": {
      "artId": 700211600,
      "effectCode": "ALIGNMENT",
      "growPoint": 0,
      "probability": 1000,
      "targetId": "SELF",
      "verbCode": "DRAW"
    },
    "artId1": 700211600,
    "groupId": 1156,
    "id": 107800,
    "intervalTurn": 15,
    "messageId": 70,
    "name": "アトリビュートドロー",
    "shortDescription": "同じ属性ドロー"
  },
  "pieceSkill2": {
    "art1": {
      "artId": 700211600,
      "effectCode": "ALIGNMENT",
      "growPoint": 0,
      "probability": 1000,
      "targetId": "SELF",
      "verbCode": "DRAW"
    },
    "artId1": 700211600,
    "groupId": 1156,
    "id": 107801,
    "intervalTurn": 13,
    "messageId": 70,
    "name": "アトリビュートドロー",
    "shortDescription": "同じ属性ドロー"
  },
  "pieceType": "SKILL",
  "rank": "RANK_3",
  "skillId": 107800,
  "skillId2": 107801
}