{
  "attack": 0,
  "attributeId": "ALL",
  "charaIds": "3001",
  "charaList": [
    {
      "charaId": 3001,
      "name": "矢宵 かのこ"
    }
  ],
  "defense": 422,
  "description": "目指すは世界中の人に通じるファッションデザイナー！＠夢に向かって日々、ファッションセンスを磨いている。＠彼女の奇抜なセンスには、周りも驚きを隠せない。＠そんな反応をわかっていながらも、彼女は挫けずに努力をし続ける。",
  "hp": 502,
  "illustrator": "mepo",
  "pieceId": 1083,
  "pieceName": "勇往邁進",
  "pieceSkill": {
    "art1": {
      "artId": 510303909,
      "effectCode": "CHARM",
      "enableTurn": 1,
      "growPoint": 0,
      "probability": 500,
      "targetId": "ALL",
      "verbCode": "CONDITION_BAD"
    },
    "artId1": 510303909,
    "groupId": 1103,
    "id": 108300,
    "intervalTurn": 15,
    "messageId": 70,
    "name": "チャーム・アイズ[Ⅸ]",
    "shortDescription": "魅了[Ⅸ](全/1T)"
  },
  "pieceSkill2": {
    "art1": {
      "artId": 510303910,
      "effectCode": "CHARM",
      "enableTurn": 1,
      "growPoint": 0,
      "probability": 525,
      "targetId": "ALL",
      "verbCode": "CONDITION_BAD"
    },
    "artId1": 510303910,
    "groupId": 1103,
    "id": 108301,
    "intervalTurn": 13,
    "messageId": 70,
    "name": "チャーム・アイズ[Ⅹ]",
    "shortDescription": "魅了[Ⅹ](全/1T)"
  },
  "pieceType": "SKILL",
  "rank": "RANK_3",
  "skillId": 108300,
  "skillId2": 108301
}