{
  "attack": 0,
  "attributeId": "ALL",
  "defense": 200,
  "description": "銀の魔女の手下。その役割は主張。＠体についたパイプから近所迷惑な爆音を撒き散らし気まぐれな砂嵐のように移動する。嫌いなものは磁石。",
  "hp": 220,
  "illustrator": "劇団イヌカレー",
  "pieceId": 1007,
  "pieceName": "銀の魔女の手下",
  "pieceSkill": {
    "art1": {
      "artId": 410002203,
      "effectCode": "DAMAGE",
      "effectValue": 150,
      "enableTurn": 1,
      "growPoint": 25,
      "targetId": "TARGET",
      "verbCode": "DEBUFF"
    },
    "artId1": 410002203,
    "groupId": 1096,
    "id": 100710,
    "intervalTurn": 6,
    "messageId": 72,
    "name": "スラッシュダウン[Ⅲ]",
    "shortDescription": "与えるダメージDOWN[Ⅲ](敵単/1T)"
  },
  "pieceSkill2": {
    "art1": {
      "artId": 410002204,
      "effectCode": "DAMAGE",
      "effectValue": 200,
      "enableTurn": 1,
      "growPoint": 25,
      "targetId": "TARGET",
      "verbCode": "DEBUFF"
    },
    "artId1": 410002204,
    "groupId": 1096,
    "id": 100711,
    "intervalTurn": 5,
    "messageId": 72,
    "name": "スラッシュダウン[Ⅳ]",
    "shortDescription": "与えるダメージDOWN[Ⅳ](敵単/1T)"
  },
  "pieceType": "SKILL",
  "rank": "RANK_1",
  "skillId": 100710,
  "skillId2": 100711
}