{
  "attack": 0,
  "attributeId": "ALL",
  "defense": 540,
  "description": "「急にスケッチブックが欲しいなんて、ういったらどうしたのかな？＠確かにういの周りって、不思議と特技というか才能のある子が多いけど＠それで何かにチャレンジしようと思ったのかな…？＠ふふっ、ういが何を描くのか、今からちょっと楽しみかも」",
  "hp": 660,
  "illustrator": "シャフト",
  "pieceId": 1049,
  "pieceName": "きっと喜んでくれるよね",
  "pieceSkill": {
    "art1": {
      "artId": 310201107,
      "effectCode": "ATTACK",
      "effectValue": 350,
      "enableTurn": 1,
      "growPoint": 25,
      "targetId": "SELF",
      "verbCode": "BUFF"
    },
    "art2": {
      "artId": 310201206,
      "effectCode": "DEFENSE",
      "effectValue": 450,
      "enableTurn": 1,
      "growPoint": 25,
      "targetId": "SELF",
      "verbCode": "BUFF"
    },
    "artId1": 310201107,
    "artId2": 310201206,
    "groupId": 1085,
    "id": 104910,
    "intervalTurn": 7,
    "messageId": 70,
    "name": "ブルームアップ[Ⅶ]",
    "shortDescription": "攻撃力UP[Ⅶ] ＆ 防御力UP[Ⅵ](自/1T)"
  },
  "pieceSkill2": {
    "art1": {
      "artId": 310201108,
      "effectCode": "ATTACK",
      "effectValue": 400,
      "enableTurn": 1,
      "growPoint": 25,
      "targetId": "SELF",
      "verbCode": "BUFF"
    },
    "art2": {
      "artId": 310201207,
      "effectCode": "DEFENSE",
      "effectValue": 525,
      "enableTurn": 1,
      "growPoint": 25,
      "targetId": "SELF",
      "verbCode": "BUFF"
    },
    "artId1": 310201108,
    "artId2": 310201207,
    "groupId": 1085,
    "id": 104911,
    "intervalTurn": 6,
    "messageId": 70,
    "name": "ブルームアップ[Ⅷ]",
    "shortDescription": "攻撃力UP[Ⅷ] ＆ 防御力UP[Ⅶ](自/1T)"
  },
  "pieceType": "SKILL",
  "rank": "RANK_3",
  "skillId": 104910,
  "skillId2": 104911
}