{
  "baseBondsPt": 96,
  "bgm": "bgm01_anime15",
  "bossBgm": "bgm01_anime15",
  "cardExp": 40,
  "consumeType": "NORMAL",
  "defaultDropItem": {
    "dropItemId": 101,
    "probability1": 50,
    "probability10": 0,
    "probability2": 950,
    "probability3": 0,
    "probability4": 0,
    "probability5": 0,
    "probability6": 0,
    "probability7": 0,
    "probability8": 0,
    "probability9": 0,
    "rewardCode1": "RICHE_300",
    "rewardCode2": "MISS"
  },
  "defaultDropItemId": 101,
  "dropItem1": {
    "dropItemId": 501,
    "probability1": 1000,
    "probability10": 0,
    "probability2": 0,
    "probability3": 0,
    "probability4": 0,
    "probability5": 0,
    "probability6": 0,
    "probability7": 0,
    "probability8": 0,
    "probability9": 0,
    "rewardCode1": "GIFT_501_1"
  },
  "dropItemId1": 501,
  "endStory": "340121-4",
  "exp": 40,
  "firstClearRewardCode": "ITEM_CURE_AP_50_1",
  "mission1": "NOT_DEAD",
  "mission2": "ACTION_15",
  "mission3": "MEMBER_CHARA_4012",
  "missionMaster1": {
    "condition": 0,
    "description": "一人も倒れずにクリア",
    "missionCode": "NOT",
    "missionSubCode": "DEAD"
  },
  "missionMaster2": {
    "condition": 15,
    "description": "15ターン以内クリア",
    "missionCode": "ACTION"
  },
  "missionMaster3": {
    "condition": 0,
    "description": "御崎 海香を含めてクリア",
    "missionCode": "MEMBER",
    "missionSubCode": "CHARA",
    "targetId": "4012"
  },
  "missionRewardCode": "ITEM_PRISM_1",
  "parameterMap": {},
  "placeId": "46103",
  "questBattleId": 3401213,
  "riche": 552,
  "sectionId": 340121,
  "sectionIndex": 3,
  "startStory": "340121-3",
  "waveEnemyAttributeIdList": [
    "FIRE"
  ]
}