{
  "addDropItemId": "EVENT_BRANCH_1005_PART_1",
  "addDropLotArr": "0,20,130,180,380,180,80,30,0,0",
  "addDropLotMap": {
    "0": 0,
    "1": 20,
    "2": 130,
    "3": 180,
    "4": 380,
    "5": 180,
    "6": 80,
    "7": 30,
    "8": 0,
    "9": 0
  },
  "addDropNum": 1,
  "ap": 14,
  "baseBondsPt": 15,
  "bgm": "bgm01_anime15",
  "bossBgm": "bgm01_anime15",
  "cardExp": 15,
  "consumeType": "NORMAL",
  "defaultDropItem": {
    "dropItemId": 101,
    "probability1": 50,
    "probability10": 0,
    "probability2": 950,
    "probability3": 0,
    "probability4": 0,
    "probability5": 0,
    "probability6": 0,
    "probability7": 0,
    "probability8": 0,
    "probability9": 0,
    "rewardCode1": "RICHE_300",
    "rewardCode2": "MISS"
  },
  "defaultDropItemId": 101,
  "difficulty": 15,
  "dropItem1": {
    "dropItemId": 9029,
    "probability1": 1000,
    "probability10": 0,
    "probability2": 0,
    "probability3": 0,
    "probability4": 0,
    "probability5": 0,
    "probability6": 0,
    "probability7": 0,
    "probability8": 0,
    "probability9": 0,
    "rewardCode1": "ITEM_EVENT_BRANCH_1005_CHARA_3028_1"
  },
  "dropItem2": {
    "dropItemId": 401,
    "probability1": 1000,
    "probability10": 0,
    "probability2": 0,
    "probability3": 0,
    "probability4": 0,
    "probability5": 0,
    "probability6": 0,
    "probability7": 0,
    "probability8": 0,
    "probability9": 0,
    "rewardCode1": "GIFT_401_1"
  },
  "dropItemId1": 9029,
  "dropItemId2": 401,
  "endStory": "510051-16",
  "eventId": 1005,
  "exp": 30,
  "firstClearRewardCode": "ITEM_COMPOSE_ITEM_ALL_P_1",
  "mission1": "NOT_DEAD",
  "mission2": "ACTION_15",
  "mission3": "NOT_CONTINUE",
  "missionMaster1": {
    "condition": 0,
    "description": "一人も倒れずにクリア",
    "missionCode": "NOT",
    "missionSubCode": "DEAD"
  },
  "missionMaster2": {
    "condition": 15,
    "description": "15ターン以内クリア",
    "missionCode": "ACTION"
  },
  "missionMaster3": {
    "condition": 0,
    "description": "コンティニュー無しでクリア",
    "missionCode": "NOT",
    "missionSubCode": "CONTINUE"
  },
  "missionRewardCode": "ITEM_PRESENTED_MONEY_3",
  "parameterMap": {},
  "placeId": "47103",
  "questBattleId": 5005151,
  "riche": 150,
  "sectionId": 500515,
  "sectionIndex": 1,
  "waveEnemyAttributeIdList": [
    "TIMBER"
  ]
}