{
  "baseBondsPt": 59,
  "bgm": "bgm01_anime16",
  "bossBgm": "bgm01_anime16",
  "cardExp": 104,
  "consumeType": "NORMAL",
  "defaultDropItem": {
    "dropItemId": 101,
    "probability1": 50,
    "probability10": 0,
    "probability2": 950,
    "probability3": 0,
    "probability4": 0,
    "probability5": 0,
    "probability6": 0,
    "probability7": 0,
    "probability8": 0,
    "probability9": 0,
    "rewardCode1": "RICHE_300",
    "rewardCode2": "MISS"
  },
  "defaultDropItemId": 101,
  "dropItem1": {
    "dropItemId": 302,
    "probability1": 1000,
    "probability10": 0,
    "probability2": 0,
    "probability3": 0,
    "probability4": 0,
    "probability5": 0,
    "probability6": 0,
    "probability7": 0,
    "probability8": 0,
    "probability9": 0,
    "rewardCode1": "GIFT_302_1"
  },
  "dropItem2": {
    "dropItemId": 401,
    "probability1": 1000,
    "probability10": 0,
    "probability2": 0,
    "probability3": 0,
    "probability4": 0,
    "probability5": 0,
    "probability6": 0,
    "probability7": 0,
    "probability8": 0,
    "probability9": 0,
    "rewardCode1": "GIFT_401_1"
  },
  "dropItemId1": 302,
  "dropItemId2": 401,
  "exp": 78,
  "firstClearRewardCode": "ITEM_COMPOSE_ITEM_ALL_PP_1",
  "mission1": "NOT_DEAD",
  "mission2": "ACTION_10",
  "mission3": "HP_50",
  "missionMaster1": {
    "condition": 0,
    "description": "一人も倒れずにクリア",
    "missionCode": "NOT",
    "missionSubCode": "DEAD"
  },
  "missionMaster2": {
    "condition": 10,
    "description": "10ターン以内クリア",
    "missionCode": "ACTION"
  },
  "missionMaster3": {
    "condition": 50,
    "description": "合計残HPが50％以上でクリア",
    "missionCode": "HP"
  },
  "missionRewardCode": "ITEM_PRISM_1",
  "npcHelpDisplayHidden": false,
  "npcHelpId": "114,115,116",
  "npcHelpNameHidden": false,
  "npcHelpNameQuestHidden": false,
  "npcHelpSupportHidden": false,
  "parameterMap": {},
  "placeId": "47103",
  "questBattleId": 2054022,
  "riche": 1222,
  "sectionId": 205402,
  "sectionIndex": 2,
  "startStory": "205402-2",
  "waveEnemyAttributeIdList": [
    "FIRE",
    "DARK"
  ]
}