{
  "baseBondsPt": 56,
  "bgm": "bgm02_boss01",
  "bossBgm": "bgm02_boss01",
  "cardExp": 100,
  "charaIdNameMap": {
    "1001": "環 いろは"
  },
  "consumeType": "FREE_AT_NOT_CLEAR",
  "defaultDropItem": {
    "dropItemId": 101,
    "probability1": 50,
    "probability10": 0,
    "probability2": 950,
    "probability3": 0,
    "probability4": 0,
    "probability5": 0,
    "probability6": 0,
    "probability7": 0,
    "probability8": 0,
    "probability9": 0,
    "rewardCode1": "RICHE_300",
    "rewardCode2": "MISS"
  },
  "defaultDropItemId": 101,
  "dropItem1": {
    "dropItemId": 503,
    "probability1": 1000,
    "probability10": 0,
    "probability2": 0,
    "probability3": 0,
    "probability4": 0,
    "probability5": 0,
    "probability6": 0,
    "probability7": 0,
    "probability8": 0,
    "probability9": 0,
    "rewardCode1": "GIFT_503_1"
  },
  "dropItemId1": 503,
  "endStory": "101307-5",
  "exp": 48,
  "firstClearRewardCode": "RICHE_1000",
  "mission1": "NOT_DEAD",
  "mission2": "ACTION_15",
  "mission3": "HP_25",
  "missionMaster1": {
    "condition": 0,
    "description": "一人も倒れずにクリア",
    "missionCode": "NOT",
    "missionSubCode": "DEAD"
  },
  "missionMaster2": {
    "condition": 15,
    "description": "15ターン以内クリア",
    "missionCode": "ACTION"
  },
  "missionMaster3": {
    "condition": 25,
    "description": "合計残HPが25％以上でクリア",
    "missionCode": "HP"
  },
  "missionRewardCode": "ITEM_PRESENTED_MONEY_3",
  "naviWaves": "{\"naviWaveList\":[{\"naviPrep\":[{\"command\":\"gimmick\",\"commandSub\":\"doppel_disabled\",\"parameter\":\"0\"},{\"command\":\"system\",\"commandSub\":\"end\"}],\"naviPreview\":[{\"command\":\"system\",\"commandSub\":\"end\"}],\"naviMain\":[{\"command\":\"wait\",\"commandSub\":\"turn\"},{\"command\":\"wait\",\"commandSub\":\"turn\"},{\"command\":\"wait\",\"commandSub\":\"turn\"},{\"command\":\"system\",\"commandSub\":\"disabledTap\"},{\"command\":\"system\",\"commandSub\":\"inStory\",\"parameter\":\"101307-12_TvyVa\"},{\"command\":\"wait\",\"commandSub\":\"playabled\"},{\"command\":\"gimmick\",\"commandSub\":\"doppel_enabled\",\"parameter\":\"0\"},{\"command\":\"system\",\"commandSub\":\"updateMagiaButton\"},{\"command\":\"anime\",\"commandSub\":\"qb_doppel_tutorial\",\"parameter\":\"m_000,0,0\"},{\"command\":\"wait\",\"commandSub\":\"time\",\"parameter\":\"10\"},{\"command\":\"wait\",\"commandSub\":\"touch\"},{\"command\":\"system\",\"commandSub\":\"clearAnime\"},{\"command\":\"system\",\"commandSub\":\"end\"}]}]}",
  "npcHelpDisplayHidden": false,
  "npcHelpId": "103,105",
  "npcHelpNameHidden": false,
  "npcHelpNameQuestHidden": false,
  "npcHelpSupportHidden": false,
  "onlyCharaIds": "1001",
  "parameterMap": {},
  "placeId": "12064",
  "questBattleId": 1013074,
  "questStory": "101307-11",
  "riche": 552,
  "sectionId": 101307,
  "sectionIndex": 4,
  "skipHelper": true,
  "specialLogicAtNotClear": "ADD_DOPPEL_1001_100100_10019,MOD_ENEMY_1022_81022",
  "startStory": "101307-4",
  "storyWaveIndex": 1,
  "waveEnemyAttributeIdList": [
    "LIGHT"
  ]
}