{
  "addDropItemId": "EVENT_SINGLERAID_1008_EXCHANGE_1",
  "addDropLotArr": "100,100,100,100,100,100,100,100,100,100",
  "addDropLotMap": {
    "0": 100,
    "1": 100,
    "2": 100,
    "3": 100,
    "4": 100,
    "5": 100,
    "6": 100,
    "7": 100,
    "8": 100,
    "9": 100
  },
  "addDropNum": 1,
  "ap": 10,
  "baseBondsPt": 50,
  "bgm": "bgm01_battle04",
  "bossBgm": "bgm01_battle04",
  "cardExp": 30,
  "consumeType": "NORMAL",
  "difficulty": 50,
  "eventId": 1008,
  "exp": 80,
  "limitTurn": 8,
  "mission1": "CLEAR",
  "mission2": "ACTION_8",
  "mission3": "WAVE_1",
  "missionMaster1": {
    "condition": 0,
    "description": "クリア",
    "missionCode": "CLEAR"
  },
  "missionMaster2": {
    "condition": 8,
    "description": "8ターン以内クリア",
    "missionCode": "ACTION"
  },
  "missionMaster3": {
    "condition": 1,
    "description": "1Wave内にクリア",
    "missionCode": "WAVE"
  },
  "missionRewardCode": "ITEM_PRESENTED_MONEY_3",
  "parameter": "WAVE_LIMIT_DROP=104",
  "parameterMap": {
    "WAVE_LIMIT_DROP": "104"
  },
  "placeId": "21252",
  "questBattleId": 5008751,
  "riche": 500,
  "sectionId": 500875,
  "sectionIndex": 1,
  "waveEnemyAttributeIdList": [
    "DARK"
  ]
}