{
  "baseBondsPt": 96,
  "bgm": "bgm01_anime15",
  "bossBgm": "bgm01_anime15",
  "cardExp": 40,
  "consumeType": "NORMAL",
  "defaultDropItem": {
    "dropItemId": 101,
    "probability1": 50,
    "probability10": 0,
    "probability2": 950,
    "probability3": 0,
    "probability4": 0,
    "probability5": 0,
    "probability6": 0,
    "probability7": 0,
    "probability8": 0,
    "probability9": 0,
    "rewardCode1": "RICHE_300",
    "rewardCode2": "MISS"
  },
  "defaultDropItemId": 101,
  "dropItem1": {
    "dropItemId": 305,
    "probability1": 1000,
    "probability10": 0,
    "probability2": 0,
    "probability3": 0,
    "probability4": 0,
    "probability5": 0,
    "probability6": 0,
    "probability7": 0,
    "probability8": 0,
    "probability9": 0,
    "rewardCode1": "GIFT_305_1"
  },
  "dropItemId1": 305,
  "exp": 40,
  "firstClearRewardCode": "ITEM_COMPOSE_ITEM_ALL_PP_1",
  "mission1": "NOT_DEAD",
  "mission2": "ACTION_15",
  "mission3": "MEMBER_CHARA_1004",
  "missionMaster1": {
    "condition": 0,
    "description": "一人も倒れずにクリア",
    "missionCode": "NOT",
    "missionSubCode": "DEAD"
  },
  "missionMaster2": {
    "condition": 15,
    "description": "15ターン以内クリア",
    "missionCode": "ACTION"
  },
  "missionMaster3": {
    "condition": 0,
    "description": "二葉 さなを含めてクリア",
    "missionCode": "MEMBER",
    "missionSubCode": "CHARA",
    "targetId": "1004"
  },
  "missionRewardCode": "ITEM_PRISM_1",
  "parameterMap": {},
  "placeId": "47105",
  "questBattleId": 3100411,
  "riche": 552,
  "sectionId": 310041,
  "sectionIndex": 1,
  "startStory": "310041-1",
  "storyWaveIndex": 0,
  "waveEnemyAttributeIdList": [
    "WATER"
  ]
}