{
  "baseBondsPt": 40,
  "bgm": "bgm01_battle04",
  "bossBgm": "bgm01_battle04",
  "cardExp": 75,
  "consumeType": "NORMAL",
  "defaultDropItem": {
    "dropItemId": 101,
    "probability1": 50,
    "probability10": 0,
    "probability2": 950,
    "probability3": 0,
    "probability4": 0,
    "probability5": 0,
    "probability6": 0,
    "probability7": 0,
    "probability8": 0,
    "probability9": 0,
    "rewardCode1": "RICHE_300",
    "rewardCode2": "MISS"
  },
  "defaultDropItemId": 101,
  "dropItem1": {
    "dropItemId": 122,
    "probability1": 1000,
    "probability10": 0,
    "probability2": 0,
    "probability3": 0,
    "probability4": 0,
    "probability5": 0,
    "probability6": 0,
    "probability7": 0,
    "probability8": 0,
    "probability9": 0,
    "rewardCode1": "GIFT_122_1"
  },
  "dropItemId1": 122,
  "endStory": "101102-8",
  "exp": 25,
  "firstClearRewardCode": "GIFT_141_1",
  "mission1": "NOT_DEAD",
  "mission2": "ACTION_15",
  "mission3": "NOT_CONTINUE",
  "missionMaster1": {
    "condition": 0,
    "description": "一人も倒れずにクリア",
    "missionCode": "NOT",
    "missionSubCode": "DEAD"
  },
  "missionMaster2": {
    "condition": 15,
    "description": "15ターン以内クリア",
    "missionCode": "ACTION"
  },
  "missionMaster3": {
    "condition": 0,
    "description": "コンティニュー無しでクリア",
    "missionCode": "NOT",
    "missionSubCode": "CONTINUE"
  },
  "missionRewardCode": "ITEM_PRESENTED_MONEY_3",
  "npcHelpDisplayHidden": false,
  "npcHelpId": "102",
  "npcHelpNameHidden": false,
  "npcHelpNameQuestHidden": false,
  "npcHelpSupportHidden": false,
  "parameterMap": {},
  "placeId": "11023",
  "questBattleId": 1011024,
  "questStory": "101102-7",
  "riche": 320,
  "sectionId": 101102,
  "sectionIndex": 4,
  "startStory": "101102-6",
  "storyWaveIndex": 1,
  "waveEnemyAttributeIdList": [
    "WATER"
  ]
}