{
  "ap": 20,
  "baseBondsPt": 20,
  "bgm": "bgm01_battle02",
  "bossBgm": "bgm01_battle02",
  "cardExp": 40,
  "consumeType": "NORMAL",
  "defaultDropItem": {
    "dropItemId": 102,
    "probability1": 50,
    "probability10": 0,
    "probability2": 950,
    "probability3": 0,
    "probability4": 0,
    "probability5": 0,
    "probability6": 0,
    "probability7": 0,
    "probability8": 0,
    "probability9": 0,
    "rewardCode1": "RICHE_1000",
    "rewardCode2": "MISS"
  },
  "defaultDropItemId": 102,
  "difficulty": 20,
  "dropItem1": {
    "dropItemId": 122,
    "probability1": 1000,
    "probability10": 0,
    "probability2": 0,
    "probability3": 0,
    "probability4": 0,
    "probability5": 0,
    "probability6": 0,
    "probability7": 0,
    "probability8": 0,
    "probability9": 0,
    "rewardCode1": "GIFT_122_1"
  },
  "dropItem2": {
    "dropItemId": 123,
    "probability1": 1000,
    "probability10": 0,
    "probability2": 0,
    "probability3": 0,
    "probability4": 0,
    "probability5": 0,
    "probability6": 0,
    "probability7": 0,
    "probability8": 0,
    "probability9": 0,
    "rewardCode1": "GIFT_123_1"
  },
  "dropItem3": {
    "dropItemId": 221,
    "probability1": 1000,
    "probability10": 0,
    "probability2": 0,
    "probability3": 0,
    "probability4": 0,
    "probability5": 0,
    "probability6": 0,
    "probability7": 0,
    "probability8": 0,
    "probability9": 0,
    "rewardCode1": "GIFT_221_1"
  },
  "dropItem4": {
    "dropItemId": 222,
    "probability1": 1000,
    "probability10": 0,
    "probability2": 0,
    "probability3": 0,
    "probability4": 0,
    "probability5": 0,
    "probability6": 0,
    "probability7": 0,
    "probability8": 0,
    "probability9": 0,
    "rewardCode1": "GIFT_222_1"
  },
  "dropItem5": {
    "dropItemId": 551,
    "probability1": 1000,
    "probability10": 0,
    "probability2": 0,
    "probability3": 0,
    "probability4": 0,
    "probability5": 0,
    "probability6": 0,
    "probability7": 0,
    "probability8": 0,
    "probability9": 0,
    "rewardCode1": "GIFT_551_1"
  },
  "dropItemId1": 122,
  "dropItemId2": 123,
  "dropItemId3": 221,
  "dropItemId4": 222,
  "dropItemId5": 551,
  "exp": 60,
  "firstClearRewardCode": "RICHE_1000",
  "mission1": "NOT_DEAD",
  "mission2": "ACTION_10",
  "mission3": "ONLY_DAMAGE_ATTRIBUTE_FIRE",
  "missionMaster1": {
    "condition": 0,
    "description": "一人も倒れずにクリア",
    "missionCode": "NOT",
    "missionSubCode": "DEAD"
  },
  "missionMaster2": {
    "condition": 10,
    "description": "10ターン以内クリア",
    "missionCode": "ACTION"
  },
  "missionMaster3": {
    "attributeId": "FIRE",
    "condition": 0,
    "description": "火属性のダメージだけでクリア",
    "missionCode": "ONLY_DAMAGE",
    "missionSubCode": "ATTRIBUTE"
  },
  "missionRewardCode": "ITEM_PRESENTED_MONEY_5",
  "parameterMap": {},
  "placeId": "46211",
  "questBattleId": 4000323,
  "riche": 5000,
  "sectionId": 400032,
  "sectionIndex": 3,
  "waveEnemyAttributeIdList": [
    "WATER",
    "LIGHT"
  ]
}