{
  "addDropItemId": "EVENT_SINGLERAID_1008_EXCHANGE_1",
  "addDropLotArr": "0,0,0,0,0,0,0,0,0,0,0,0,0,0,0,0,0,0,0,0,0,0,0,0,0,0,0,0,0,0,0,0,0,0,0,0,0,0,0,0,0,0,0,200,200,200,200,200,0,0,0,0,0,0,0,0",
  "addDropLotMap": {
    "0": 0,
    "1": 0,
    "10": 0,
    "11": 0,
    "12": 0,
    "13": 0,
    "14": 0,
    "15": 0,
    "16": 0,
    "17": 0,
    "18": 0,
    "19": 0,
    "2": 0,
    "20": 0,
    "21": 0,
    "22": 0,
    "23": 0,
    "24": 0,
    "25": 0,
    "26": 0,
    "27": 0,
    "28": 0,
    "29": 0,
    "3": 0,
    "30": 0,
    "31": 0,
    "32": 0,
    "33": 0,
    "34": 0,
    "35": 0,
    "36": 0,
    "37": 0,
    "38": 0,
    "39": 0,
    "4": 0,
    "40": 0,
    "41": 0,
    "42": 0,
    "43": 200,
    "44": 200,
    "45": 200,
    "46": 200,
    "47": 200,
    "48": 0,
    "49": 0,
    "5": 0,
    "50": 0,
    "51": 0,
    "52": 0,
    "53": 0,
    "54": 0,
    "55": 0,
    "6": 0,
    "7": 0,
    "8": 0,
    "9": 0
  },
  "addDropNum": 1,
  "ap": 15,
  "baseBondsPt": 75,
  "bgm": "bgm01_battle02",
  "bossBgm": "bgm02_boss01",
  "cardExp": 45,
  "consumeType": "NORMAL",
  "difficulty": 80,
  "eventId": 1008,
  "exp": 120,
  "limitTurn": 15,
  "mission1": "HP_10",
  "mission2": "ACTION_14",
  "mission3": "NOT_CONTINUE",
  "missionMaster1": {
    "condition": 10,
    "description": "合計残HPが10％以上でクリア",
    "missionCode": "HP"
  },
  "missionMaster2": {
    "condition": 14,
    "description": "14ターン以内クリア",
    "missionCode": "ACTION"
  },
  "missionMaster3": {
    "condition": 0,
    "description": "コンティニュー無しでクリア",
    "missionCode": "NOT",
    "missionSubCode": "CONTINUE"
  },
  "missionRewardCode": "ITEM_PRESENTED_MONEY_2",
  "parameter": "WAVE_LIMIT_DROP=100801,100800,100819",
  "parameterMap": {
    "WAVE_LIMIT_DROP": "100801"
  },
  "placeId": "46103",
  "questBattleId": 5008813,
  "riche": 750,
  "sectionId": 500881,
  "sectionIndex": 3,
  "waveEnemyAttributeIdList": [
    "DARK"
  ]
}