{
  "baseBondsPt": 48,
  "bgm": "bgm01_anime16",
  "bossBgm": "bgm01_anime16",
  "cardExp": 90,
  "consumeType": "NORMAL",
  "defaultDropItem": {
    "dropItemId": 101,
    "probability1": 50,
    "probability10": 0,
    "probability2": 950,
    "probability3": 0,
    "probability4": 0,
    "probability5": 0,
    "probability6": 0,
    "probability7": 0,
    "probability8": 0,
    "probability9": 0,
    "rewardCode1": "RICHE_300",
    "rewardCode2": "MISS"
  },
  "defaultDropItemId": 101,
  "dropItem1": {
    "dropItemId": 304,
    "probability1": 1000,
    "probability10": 0,
    "probability2": 0,
    "probability3": 0,
    "probability4": 0,
    "probability5": 0,
    "probability6": 0,
    "probability7": 0,
    "probability8": 0,
    "probability9": 0,
    "rewardCode1": "GIFT_304_1"
  },
  "dropItem2": {
    "dropItemId": 302,
    "probability1": 1000,
    "probability10": 0,
    "probability2": 0,
    "probability3": 0,
    "probability4": 0,
    "probability5": 0,
    "probability6": 0,
    "probability7": 0,
    "probability8": 0,
    "probability9": 0,
    "rewardCode1": "GIFT_302_1"
  },
  "dropItemId1": 304,
  "dropItemId2": 302,
  "endStory": "101205-11",
  "exp": 36,
  "firstClearRewardCode": "ITEM_COMPOSE_ITEM_ALL_1",
  "mission1": "NOT_DEAD",
  "mission2": "ACTION_15",
  "mission3": "COUNT_CONNECT_1",
  "missionMaster1": {
    "condition": 0,
    "description": "一人も倒れずにクリア",
    "missionCode": "NOT",
    "missionSubCode": "DEAD"
  },
  "missionMaster2": {
    "condition": 15,
    "description": "15ターン以内クリア",
    "missionCode": "ACTION"
  },
  "missionMaster3": {
    "condition": 1,
    "description": "コネクトを1回発動",
    "missionCode": "COUNT",
    "missionSubCode": "CONNECT"
  },
  "missionRewardCode": "ITEM_PRESENTED_MONEY_3",
  "npcHelpId": "102",
  "parameterMap": {},
  "placeId": "47104",
  "questBattleId": 1012055,
  "questStory": "101205-10",
  "riche": 396,
  "sectionId": 101205,
  "sectionIndex": 5,
  "startStory": "101205-9",
  "storyWaveIndex": 1,
  "waveEnemyAttributeIdList": [
    "TIMBER",
    "DARK"
  ]
}