{
  "addDropItemId": "EVENT_SINGLERAID_1008_EXCHANGE_1",
  "addDropLotArr": "0,0,0,0,0,0,0,0,0,0,200,200,200,200,200,0,0,0,0,0,0,0,0,0,0,0,0,0,0,0,0,0,0,0,0,0,0,0,0,0,0,0,0,0,0,0,0,0,0,0,0,0,0,0,0,0",
  "addDropLotMap": {
    "0": 0,
    "1": 0,
    "10": 200,
    "11": 200,
    "12": 200,
    "13": 200,
    "14": 200,
    "15": 0,
    "16": 0,
    "17": 0,
    "18": 0,
    "19": 0,
    "2": 0,
    "20": 0,
    "21": 0,
    "22": 0,
    "23": 0,
    "24": 0,
    "25": 0,
    "26": 0,
    "27": 0,
    "28": 0,
    "29": 0,
    "3": 0,
    "30": 0,
    "31": 0,
    "32": 0,
    "33": 0,
    "34": 0,
    "35": 0,
    "36": 0,
    "37": 0,
    "38": 0,
    "39": 0,
    "4": 0,
    "40": 0,
    "41": 0,
    "42": 0,
    "43": 0,
    "44": 0,
    "45": 0,
    "46": 0,
    "47": 0,
    "48": 0,
    "49": 0,
    "5": 0,
    "50": 0,
    "51": 0,
    "52": 0,
    "53": 0,
    "54": 0,
    "55": 0,
    "6": 0,
    "7": 0,
    "8": 0,
    "9": 0
  },
  "addDropNum": 1,
  "ap": 10,
  "baseBondsPt": 50,
  "bgm": "bgm01_battle03",
  "bossBgm": "bgm01_battle03",
  "cardExp": 30,
  "consumeType": "NORMAL",
  "difficulty": 45,
  "eventId": 1008,
  "exp": 80,
  "limitTurn": 9,
  "mission1": "HP_30",
  "mission2": "ACTION_8",
  "mission3": "NOT_CONTINUE",
  "missionMaster1": {
    "condition": 30,
    "description": "合計残HPが30％以上でクリア",
    "missionCode": "HP"
  },
  "missionMaster2": {
    "condition": 8,
    "description": "8ターン以内クリア",
    "missionCode": "ACTION"
  },
  "missionMaster3": {
    "condition": 0,
    "description": "コンティニュー無しでクリア",
    "missionCode": "NOT",
    "missionSubCode": "CONTINUE"
  },
  "missionRewardCode": "ITEM_PRESENTED_MONEY_1",
  "parameter": "WAVE_LIMIT_DROP=100804",
  "parameterMap": {
    "WAVE_LIMIT_DROP": "100804"
  },
  "placeId": "47105",
  "questBattleId": 5008332,
  "riche": 500,
  "sectionId": 500833,
  "sectionIndex": 2,
  "waveEnemyAttributeIdList": [
    "LIGHT"
  ]
}