{
  "ap": 25,
  "baseBondsPt": 30,
  "bgm": "bgm01_battle03",
  "bossBgm": "bgm01_battle03",
  "cardExp": 60,
  "consumeType": "NORMAL",
  "defaultDropItem": {
    "dropItemId": 102,
    "probability1": 50,
    "probability10": 0,
    "probability2": 950,
    "probability3": 0,
    "probability4": 0,
    "probability5": 0,
    "probability6": 0,
    "probability7": 0,
    "probability8": 0,
    "probability9": 0,
    "rewardCode1": "RICHE_1000",
    "rewardCode2": "MISS"
  },
  "defaultDropItemId": 102,
  "difficulty": 40,
  "dropItem1": {
    "dropItemId": 1042,
    "probability1": 1000,
    "probability10": 0,
    "probability2": 0,
    "probability3": 0,
    "probability4": 0,
    "probability5": 0,
    "probability6": 0,
    "probability7": 0,
    "probability8": 0,
    "probability9": 0,
    "rewardCode1": "ITEM_COMPOSE_ITEM_LIGHT_P_1"
  },
  "dropItem2": {
    "dropItemId": 1012,
    "probability1": 1000,
    "probability10": 0,
    "probability2": 0,
    "probability3": 0,
    "probability4": 0,
    "probability5": 0,
    "probability6": 0,
    "probability7": 0,
    "probability8": 0,
    "probability9": 0,
    "rewardCode1": "ITEM_COMPOSE_ITEM_FIRE_P_1"
  },
  "dropItem3": {
    "dropItemId": 1043,
    "probability1": 1000,
    "probability10": 0,
    "probability2": 0,
    "probability3": 0,
    "probability4": 0,
    "probability5": 0,
    "probability6": 0,
    "probability7": 0,
    "probability8": 0,
    "probability9": 0,
    "rewardCode1": "ITEM_COMPOSE_ITEM_LIGHT_PP_1"
  },
  "dropItem4": {
    "dropItemId": 1013,
    "probability1": 1000,
    "probability10": 0,
    "probability2": 0,
    "probability3": 0,
    "probability4": 0,
    "probability5": 0,
    "probability6": 0,
    "probability7": 0,
    "probability8": 0,
    "probability9": 0,
    "rewardCode1": "ITEM_COMPOSE_ITEM_FIRE_PP_1"
  },
  "dropItem5": {
    "dropItemId": 9010,
    "probability1": 1000,
    "probability10": 0,
    "probability2": 0,
    "probability3": 0,
    "probability4": 0,
    "probability5": 0,
    "probability6": 0,
    "probability7": 0,
    "probability8": 0,
    "probability9": 0,
    "rewardCode1": "RICHE_10000"
  },
  "dropItemId1": 1042,
  "dropItemId2": 1012,
  "dropItemId3": 1043,
  "dropItemId4": 1013,
  "dropItemId5": 9010,
  "exp": 90,
  "firstClearRewardCode": "RICHE_1000",
  "mission1": "NOT_DEAD",
  "mission2": "ACTION_10",
  "mission3": "COMBO_BLAST_3",
  "missionMaster1": {
    "condition": 0,
    "description": "一人も倒れずにクリア",
    "missionCode": "NOT",
    "missionSubCode": "DEAD"
  },
  "missionMaster2": {
    "condition": 10,
    "description": "10ターン以内クリア",
    "missionCode": "ACTION"
  },
  "missionMaster3": {
    "condition": 3,
    "description": "ブラストコンボを3回発動",
    "missionCode": "COMBO",
    "missionSubCode": "BLAST"
  },
  "missionRewardCode": "ITEM_PRESENTED_MONEY_5",
  "parameterMap": {},
  "placeId": "46201",
  "questBattleId": 4000414,
  "riche": 10000,
  "sectionId": 400041,
  "sectionIndex": 4,
  "waveEnemyAttributeIdList": [
    "LIGHT",
    "FIRE"
  ]
}