{
  "addDropItemId": "EVENT_BRANCH_1005_PART_1",
  "addDropLotArr": "0,10,20,40,100,280,350,120,60,20",
  "addDropLotMap": {
    "0": 0,
    "1": 10,
    "2": 20,
    "3": 40,
    "4": 100,
    "5": 280,
    "6": 350,
    "7": 120,
    "8": 60,
    "9": 20
  },
  "addDropNum": 1,
  "ap": 14,
  "baseBondsPt": 20,
  "bgm": "bgm01_anime12",
  "bossBgm": "bgm01_anime12",
  "cardExp": 20,
  "consumeType": "NORMAL",
  "defaultDropItem": {
    "dropItemId": 101,
    "probability1": 50,
    "probability10": 0,
    "probability2": 950,
    "probability3": 0,
    "probability4": 0,
    "probability5": 0,
    "probability6": 0,
    "probability7": 0,
    "probability8": 0,
    "probability9": 0,
    "rewardCode1": "RICHE_300",
    "rewardCode2": "MISS"
  },
  "defaultDropItemId": 101,
  "difficulty": 20,
  "dropItem1": {
    "dropItemId": 9026,
    "probability1": 1000,
    "probability10": 0,
    "probability2": 0,
    "probability3": 0,
    "probability4": 0,
    "probability5": 0,
    "probability6": 0,
    "probability7": 0,
    "probability8": 0,
    "probability9": 0,
    "rewardCode1": "ITEM_EVENT_BRANCH_1005_CHARA_3027_1"
  },
  "dropItem2": {
    "dropItemId": 401,
    "probability1": 1000,
    "probability10": 0,
    "probability2": 0,
    "probability3": 0,
    "probability4": 0,
    "probability5": 0,
    "probability6": 0,
    "probability7": 0,
    "probability8": 0,
    "probability9": 0,
    "rewardCode1": "GIFT_401_1"
  },
  "dropItemId1": 9026,
  "dropItemId2": 401,
  "endStory": "510051-22",
  "eventId": 1005,
  "exp": 40,
  "firstClearRewardCode": "ITEM_COMPOSE_ITEM_ALL_P_1",
  "mission1": "NOT_DEAD",
  "mission2": "ACTION_15",
  "mission3": "NOT_CONTINUE",
  "missionMaster1": {
    "condition": 0,
    "description": "一人も倒れずにクリア",
    "missionCode": "NOT",
    "missionSubCode": "DEAD"
  },
  "missionMaster2": {
    "condition": 15,
    "description": "15ターン以内クリア",
    "missionCode": "ACTION"
  },
  "missionMaster3": {
    "condition": 0,
    "description": "コンティニュー無しでクリア",
    "missionCode": "NOT",
    "missionSubCode": "CONTINUE"
  },
  "missionRewardCode": "ITEM_PRESENTED_MONEY_3",
  "parameterMap": {},
  "placeId": "47105",
  "questBattleId": 5005241,
  "riche": 200,
  "sectionId": 500524,
  "sectionIndex": 1,
  "waveEnemyAttributeIdList": [
    "WATER"
  ]
}