{
  "baseBondsPt": 56,
  "bgm": "bgm02_boss01",
  "bossBgm": "bgm02_boss01",
  "cardExp": 100,
  "consumeType": "NORMAL",
  "defaultDropItem": {
    "dropItemId": 101,
    "probability1": 50,
    "probability10": 0,
    "probability2": 950,
    "probability3": 0,
    "probability4": 0,
    "probability5": 0,
    "probability6": 0,
    "probability7": 0,
    "probability8": 0,
    "probability9": 0,
    "rewardCode1": "RICHE_300",
    "rewardCode2": "MISS"
  },
  "defaultDropItemId": 101,
  "dropItem1": {
    "dropItemId": 403,
    "probability1": 1000,
    "probability10": 0,
    "probability2": 0,
    "probability3": 0,
    "probability4": 0,
    "probability5": 0,
    "probability6": 0,
    "probability7": 0,
    "probability8": 0,
    "probability9": 0,
    "rewardCode1": "GIFT_403_1"
  },
  "dropItem2": {
    "dropItemId": 503,
    "probability1": 1000,
    "probability10": 0,
    "probability2": 0,
    "probability3": 0,
    "probability4": 0,
    "probability5": 0,
    "probability6": 0,
    "probability7": 0,
    "probability8": 0,
    "probability9": 0,
    "rewardCode1": "GIFT_503_1"
  },
  "dropItemId1": 403,
  "dropItemId2": 503,
  "endStory": "101306-9",
  "exp": 42,
  "firstClearRewardCode": "ITEM_COMPOSE_ITEM_ALL_1",
  "mission1": "NOT_DEAD",
  "mission2": "ACTION_15",
  "mission3": "COUNT_CONNECT_1",
  "missionMaster1": {
    "condition": 0,
    "description": "一人も倒れずにクリア",
    "missionCode": "NOT",
    "missionSubCode": "DEAD"
  },
  "missionMaster2": {
    "condition": 15,
    "description": "15ターン以内クリア",
    "missionCode": "ACTION"
  },
  "missionMaster3": {
    "condition": 1,
    "description": "コネクトを1回発動",
    "missionCode": "COUNT",
    "missionSubCode": "CONNECT"
  },
  "missionRewardCode": "ITEM_PRESENTED_MONEY_3",
  "npcHelpDisplayHidden": false,
  "npcHelpId": "103,105",
  "npcHelpNameHidden": false,
  "npcHelpNameQuestHidden": false,
  "npcHelpSupportHidden": false,
  "parameterMap": {},
  "placeId": "12064",
  "questBattleId": 1013065,
  "riche": 476,
  "sectionId": 101306,
  "sectionIndex": 5,
  "startStory": "101306-8",
  "storyWaveIndex": 0,
  "waveEnemyAttributeIdList": [
    "LIGHT"
  ]
}