{
  "ap": 10,
  "baseBondsPt": 15,
  "bgm": "bgm01_battle03",
  "bossBgm": "bgm01_battle03",
  "cardExp": 30,
  "consumeType": "NORMAL",
  "defaultDropItem": {
    "dropItemId": 102,
    "probability1": 50,
    "probability10": 0,
    "probability2": 950,
    "probability3": 0,
    "probability4": 0,
    "probability5": 0,
    "probability6": 0,
    "probability7": 0,
    "probability8": 0,
    "probability9": 0,
    "rewardCode1": "RICHE_1000",
    "rewardCode2": "MISS"
  },
  "defaultDropItemId": 102,
  "difficulty": 15,
  "dropItem1": {
    "dropItemId": 1021,
    "probability1": 1000,
    "probability10": 0,
    "probability2": 0,
    "probability3": 0,
    "probability4": 0,
    "probability5": 0,
    "probability6": 0,
    "probability7": 0,
    "probability8": 0,
    "probability9": 0,
    "rewardCode1": "ITEM_COMPOSE_ITEM_WATER_1"
  },
  "dropItem2": {
    "dropItemId": 1041,
    "probability1": 1000,
    "probability10": 0,
    "probability2": 0,
    "probability3": 0,
    "probability4": 0,
    "probability5": 0,
    "probability6": 0,
    "probability7": 0,
    "probability8": 0,
    "probability9": 0,
    "rewardCode1": "ITEM_COMPOSE_ITEM_LIGHT_1"
  },
  "dropItem3": {
    "dropItemId": 1042,
    "probability1": 1000,
    "probability10": 0,
    "probability2": 0,
    "probability3": 0,
    "probability4": 0,
    "probability5": 0,
    "probability6": 0,
    "probability7": 0,
    "probability8": 0,
    "probability9": 0,
    "rewardCode1": "ITEM_COMPOSE_ITEM_LIGHT_P_1"
  },
  "dropItem4": {
    "dropItemId": 1022,
    "probability1": 1000,
    "probability10": 0,
    "probability2": 0,
    "probability3": 0,
    "probability4": 0,
    "probability5": 0,
    "probability6": 0,
    "probability7": 0,
    "probability8": 0,
    "probability9": 0,
    "rewardCode1": "ITEM_COMPOSE_ITEM_WATER_P_1"
  },
  "dropItemId1": 1021,
  "dropItemId2": 1041,
  "dropItemId3": 1042,
  "dropItemId4": 1022,
  "exp": 45,
  "firstClearRewardCode": "RICHE_1000",
  "mission1": "NOT_DEAD",
  "mission2": "ACTION_10",
  "mission3": "COMBO_ACCELE_3",
  "missionMaster1": {
    "condition": 0,
    "description": "一人も倒れずにクリア",
    "missionCode": "NOT",
    "missionSubCode": "DEAD"
  },
  "missionMaster2": {
    "condition": 10,
    "description": "10ターン以内クリア",
    "missionCode": "ACTION"
  },
  "missionMaster3": {
    "condition": 3,
    "description": "アクセルコンボを3回発動",
    "missionCode": "COMBO",
    "missionSubCode": "ACCELE"
  },
  "missionRewardCode": "ITEM_PRESENTED_MONEY_5",
  "parameterMap": {},
  "placeId": "46201",
  "questBattleId": 4000212,
  "riche": 3000,
  "sectionId": 400021,
  "sectionIndex": 2,
  "waveEnemyAttributeIdList": [
    "LIGHT",
    "WATER"
  ]
}