{
  "baseBondsPt": 162,
  "bgm": "bgm01_anime12",
  "bossBgm": "bgm01_anime12",
  "cardExp": 60,
  "consumeType": "NORMAL",
  "defaultDropItem": {
    "dropItemId": 101,
    "probability1": 50,
    "probability10": 0,
    "probability2": 950,
    "probability3": 0,
    "probability4": 0,
    "probability5": 0,
    "probability6": 0,
    "probability7": 0,
    "probability8": 0,
    "probability9": 0,
    "rewardCode1": "RICHE_300",
    "rewardCode2": "MISS"
  },
  "defaultDropItemId": 101,
  "dropItem1": {
    "dropItemId": 232,
    "probability1": 1000,
    "probability10": 0,
    "probability2": 0,
    "probability3": 0,
    "probability4": 0,
    "probability5": 0,
    "probability6": 0,
    "probability7": 0,
    "probability8": 0,
    "probability9": 0,
    "rewardCode1": "GIFT_232_1"
  },
  "dropItem2": {
    "dropItemId": 232,
    "probability1": 1000,
    "probability10": 0,
    "probability2": 0,
    "probability3": 0,
    "probability4": 0,
    "probability5": 0,
    "probability6": 0,
    "probability7": 0,
    "probability8": 0,
    "probability9": 0,
    "rewardCode1": "GIFT_232_1"
  },
  "dropItemId1": 232,
  "dropItemId2": 232,
  "endStory": "340032-4",
  "exp": 72,
  "firstClearRewardCode": "ITEM_CURE_AP_50_1",
  "mission1": "NOT_DEAD",
  "mission2": "ACTION_15",
  "mission3": "MEMBER_CHARA_4003",
  "missionMaster1": {
    "condition": 0,
    "description": "一人も倒れずにクリア",
    "missionCode": "NOT",
    "missionSubCode": "DEAD"
  },
  "missionMaster2": {
    "condition": 15,
    "description": "15ターン以内クリア",
    "missionCode": "ACTION"
  },
  "missionMaster3": {
    "condition": 0,
    "description": "千歳 ゆまを含めてクリア",
    "missionCode": "MEMBER",
    "missionSubCode": "CHARA",
    "targetId": "4003"
  },
  "missionRewardCode": "ITEM_PRISM_1",
  "parameterMap": {},
  "placeId": "47104",
  "questBattleId": 3400323,
  "riche": 912,
  "sectionId": 340032,
  "sectionIndex": 3,
  "startStory": "340032-3",
  "waveEnemyAttributeIdList": [
    "DARK",
    "WATER"
  ]
}