{
  "baseBondsPt": 30,
  "bgm": "bgm01_battle01",
  "bossBgm": "bgm01_battle01",
  "cardExp": 30,
  "consumeType": "ITEM",
  "defaultDropItem": {
    "dropItemId": 101,
    "probability1": 50,
    "probability10": 0,
    "probability2": 950,
    "probability3": 0,
    "probability4": 0,
    "probability5": 0,
    "probability6": 0,
    "probability7": 0,
    "probability8": 0,
    "probability9": 0,
    "rewardCode1": "RICHE_300",
    "rewardCode2": "MISS"
  },
  "defaultDropItemId": 101,
  "difficulty": 30,
  "dropItem1": {
    "dropItemId": 9033,
    "probability1": 1000,
    "probability10": 0,
    "probability2": 0,
    "probability3": 0,
    "probability4": 0,
    "probability5": 0,
    "probability6": 0,
    "probability7": 0,
    "probability8": 0,
    "probability9": 0,
    "rewardCode1": "ITEM_EVENT_TOWER_1007_EXCHANGE_2"
  },
  "dropItem2": {
    "dropItemId": 404,
    "probability1": 1000,
    "probability10": 0,
    "probability2": 0,
    "probability3": 0,
    "probability4": 0,
    "probability5": 0,
    "probability6": 0,
    "probability7": 0,
    "probability8": 0,
    "probability9": 0,
    "rewardCode1": "GIFT_404_1"
  },
  "dropItemId1": 9033,
  "dropItemId2": 404,
  "endStory": "510071-10",
  "eventId": 1007,
  "exp": 60,
  "firstClearRewardCode": "ITEM_COMPOSE_ITEM_ALL_P_1",
  "mission1": "NOT_DEAD",
  "mission2": "ACTION_15",
  "mission3": "NOT_CONTINUE",
  "missionMaster1": {
    "condition": 0,
    "description": "一人も倒れずにクリア",
    "missionCode": "NOT",
    "missionSubCode": "DEAD"
  },
  "missionMaster2": {
    "condition": 15,
    "description": "15ターン以内クリア",
    "missionCode": "ACTION"
  },
  "missionMaster3": {
    "condition": 0,
    "description": "コンティニュー無しでクリア",
    "missionCode": "NOT",
    "missionSubCode": "CONTINUE"
  },
  "missionRewardCode": "ITEM_PRESENTED_MONEY_3",
  "needItemNum": 30,
  "parameterMap": {},
  "placeId": "13072",
  "questBattleId": 50070110,
  "riche": 300,
  "sectionId": 500701,
  "sectionIndex": 10,
  "useItem": {
    "canUse": false,
    "description": "「あの日の一番を超えて」のクエストプレイ用アイテムです",
    "eventId": 1007,
    "isSellable": false,
    "itemCode": "EVENT_TOWER_1007_KEY",
    "name": "みたま特製エナジードリンク",
    "price": 0,
    "shortDescription": "「あの日の一番を超えて」のクエストプレイ用アイテム",
    "sortKey": 0,
    "treasureChestColor": "ADDED_DROP",
    "unit": "個"
  },
  "useItemId": "EVENT_TOWER_1007_KEY",
  "waveEnemyAttributeIdList": [
    "TIMBER"
  ]
}