{
  "ap": 20,
  "baseBondsPt": 100,
  "bgm": "bgm01_battle02",
  "bossBgm": "bgm01_battle02",
  "cardExp": 40,
  "consumeType": "NORMAL",
  "defaultDropItem": {
    "dropItemId": 101,
    "probability1": 50,
    "probability10": 0,
    "probability2": 950,
    "probability3": 0,
    "probability4": 0,
    "probability5": 0,
    "probability6": 0,
    "probability7": 0,
    "probability8": 0,
    "probability9": 0,
    "rewardCode1": "RICHE_300",
    "rewardCode2": "MISS"
  },
  "defaultDropItemId": 101,
  "difficulty": 50,
  "dropItem1": {
    "dropItemId": 9012,
    "probability1": 1000,
    "probability10": 0,
    "probability2": 0,
    "probability3": 0,
    "probability4": 0,
    "probability5": 0,
    "probability6": 0,
    "probability7": 0,
    "probability8": 0,
    "probability9": 0,
    "rewardCode1": "ITEM_EVENT_TRAINING_1002_1"
  },
  "dropItemId1": 9012,
  "eventId": 1002,
  "exp": 60,
  "firstClearRewardCode": "ITEM_EVENT_TRAINING_1002_1",
  "mission1": "NOT_DEAD",
  "mission2": "ACTION_10",
  "mission3": "ONLY_MEMBER_COUNT_3",
  "missionMaster1": {
    "condition": 0,
    "description": "一人も倒れずにクリア",
    "missionCode": "NOT",
    "missionSubCode": "DEAD"
  },
  "missionMaster2": {
    "condition": 10,
    "description": "10ターン以内クリア",
    "missionCode": "ACTION"
  },
  "missionMaster3": {
    "condition": 3,
    "description": "3人以下のチームでクリア",
    "missionCode": "ONLY_MEMBER_COUNT"
  },
  "missionRewardCode": "ITEM_PRESENTED_MONEY_5",
  "parameter": "EP=5000",
  "parameterMap": {
    "EP": "5000"
  },
  "placeId": "46211",
  "questBattleId": 5000223,
  "riche": 1000,
  "sectionId": 500022,
  "sectionIndex": 3,
  "waveEnemyAttributeIdList": [
    "WATER"
  ]
}