{
  "baseBondsPt": 56,
  "bgm": "bgm01_anime16",
  "bossBgm": "bgm01_anime16",
  "cardExp": 100,
  "consumeType": "NORMAL",
  "defaultDropItem": {
    "dropItemId": 101,
    "probability1": 50,
    "probability10": 0,
    "probability2": 950,
    "probability3": 0,
    "probability4": 0,
    "probability5": 0,
    "probability6": 0,
    "probability7": 0,
    "probability8": 0,
    "probability9": 0,
    "rewardCode1": "RICHE_300",
    "rewardCode2": "MISS"
  },
  "defaultDropItemId": 101,
  "dropItem1": {
    "dropItemId": 301,
    "probability1": 1000,
    "probability10": 0,
    "probability2": 0,
    "probability3": 0,
    "probability4": 0,
    "probability5": 0,
    "probability6": 0,
    "probability7": 0,
    "probability8": 0,
    "probability9": 0,
    "rewardCode1": "GIFT_301_1"
  },
  "dropItem2": {
    "dropItemId": 304,
    "probability1": 1000,
    "probability10": 0,
    "probability2": 0,
    "probability3": 0,
    "probability4": 0,
    "probability5": 0,
    "probability6": 0,
    "probability7": 0,
    "probability8": 0,
    "probability9": 0,
    "rewardCode1": "GIFT_304_1"
  },
  "dropItem3": {
    "dropItemId": 553,
    "probability1": 1000,
    "probability10": 0,
    "probability2": 0,
    "probability3": 0,
    "probability4": 0,
    "probability5": 0,
    "probability6": 0,
    "probability7": 0,
    "probability8": 0,
    "probability9": 0,
    "rewardCode1": "GIFT_553_1"
  },
  "dropItemId1": 301,
  "dropItemId2": 304,
  "dropItemId3": 553,
  "endStory": "101502-8",
  "exp": 48,
  "firstClearRewardCode": "ITEM_COMPOSE_ITEM_ALL_P_1",
  "mission1": "NOT_DEAD",
  "mission2": "ACTION_15",
  "mission3": "COUNT_CONNECT_1",
  "missionMaster1": {
    "condition": 0,
    "description": "一人も倒れずにクリア",
    "missionCode": "NOT",
    "missionSubCode": "DEAD"
  },
  "missionMaster2": {
    "condition": 15,
    "description": "15ターン以内クリア",
    "missionCode": "ACTION"
  },
  "missionMaster3": {
    "condition": 1,
    "description": "コネクトを1回発動",
    "missionCode": "COUNT",
    "missionSubCode": "CONNECT"
  },
  "missionRewardCode": "ITEM_PRESENTED_MONEY_3",
  "parameterMap": {},
  "placeId": "46104",
  "questBattleId": 1015025,
  "questStory": "101502-7",
  "riche": 552,
  "sectionId": 101502,
  "sectionIndex": 5,
  "startStory": "101502-6",
  "storyWaveIndex": 4,
  "waveEnemyAttributeIdList": [
    "FIRE",
    "DARK"
  ]
}