{
  "baseBondsPt": 15,
  "bgm": "bgm01_anime10",
  "bossBgm": "bgm01_anime10",
  "cardExp": 15,
  "consumeType": "ITEM",
  "defaultDropItem": {
    "dropItemId": 101,
    "probability1": 50,
    "probability10": 0,
    "probability2": 950,
    "probability3": 0,
    "probability4": 0,
    "probability5": 0,
    "probability6": 0,
    "probability7": 0,
    "probability8": 0,
    "probability9": 0,
    "rewardCode1": "RICHE_300",
    "rewardCode2": "MISS"
  },
  "defaultDropItemId": 101,
  "difficulty": 15,
  "dropItem1": {
    "dropItemId": 9013,
    "probability1": 1000,
    "probability10": 0,
    "probability2": 0,
    "probability3": 0,
    "probability4": 0,
    "probability5": 0,
    "probability6": 0,
    "probability7": 0,
    "probability8": 0,
    "probability9": 0,
    "rewardCode1": "ITEM_EVENT_TOWER_1003_EXCHANGE_1"
  },
  "dropItem2": {
    "dropItemId": 303,
    "probability1": 1000,
    "probability10": 0,
    "probability2": 0,
    "probability3": 0,
    "probability4": 0,
    "probability5": 0,
    "probability6": 0,
    "probability7": 0,
    "probability8": 0,
    "probability9": 0,
    "rewardCode1": "GIFT_303_1"
  },
  "dropItemId1": 9013,
  "dropItemId2": 303,
  "endStory": "510031-4",
  "eventId": 1003,
  "exp": 30,
  "firstClearRewardCode": "ITEM_COMPOSE_ITEM_ALL_P_1",
  "mission1": "NOT_DEAD",
  "mission2": "ACTION_15",
  "mission3": "NOT_CONTINUE",
  "missionMaster1": {
    "condition": 0,
    "description": "一人も倒れずにクリア",
    "missionCode": "NOT",
    "missionSubCode": "DEAD"
  },
  "missionMaster2": {
    "condition": 15,
    "description": "15ターン以内クリア",
    "missionCode": "ACTION"
  },
  "missionMaster3": {
    "condition": 0,
    "description": "コンティニュー無しでクリア",
    "missionCode": "NOT",
    "missionSubCode": "CONTINUE"
  },
  "missionRewardCode": "ITEM_PRESENTED_MONEY_3",
  "needItemNum": 15,
  "npcHelpDisplayHidden": false,
  "npcHelpId": "110",
  "npcHelpNameHidden": false,
  "npcHelpNameQuestHidden": false,
  "npcHelpSupportHidden": true,
  "parameterMap": {},
  "placeId": "47001",
  "questBattleId": 5000314,
  "riche": 150,
  "sectionId": 500031,
  "sectionIndex": 4,
  "startStory": "510031-4",
  "useItem": {
    "canUse": false,
    "description": "「君と綴る日記」のクエストプレイ用アイテムです",
    "eventId": 1003,
    "isSellable": false,
    "itemCode": "EVENT_TOWER_1003_KEY",
    "name": "色鉛筆",
    "price": 0,
    "shortDescription": "「君と綴る日記」のクエストプレイ用アイテム",
    "sortKey": 0,
    "treasureChestColor": "ADDED_DROP",
    "unit": "本"
  },
  "useItemId": "EVENT_TOWER_1003_KEY",
  "waveEnemyAttributeIdList": [
    "TIMBER"
  ]
}