{
  "baseBondsPt": 56,
  "bgm": "bgm02_boss02",
  "bossBgm": "bgm01_battle04",
  "cardExp": 100,
  "consumeType": "NORMAL",
  "defaultDropItem": {
    "dropItemId": 101,
    "probability1": 50,
    "probability10": 0,
    "probability2": 950,
    "probability3": 0,
    "probability4": 0,
    "probability5": 0,
    "probability6": 0,
    "probability7": 0,
    "probability8": 0,
    "probability9": 0,
    "rewardCode1": "RICHE_300",
    "rewardCode2": "MISS"
  },
  "defaultDropItemId": 101,
  "dropItem1": {
    "dropItemId": 231,
    "probability1": 1000,
    "probability10": 0,
    "probability2": 0,
    "probability3": 0,
    "probability4": 0,
    "probability5": 0,
    "probability6": 0,
    "probability7": 0,
    "probability8": 0,
    "probability9": 0,
    "rewardCode1": "GIFT_231_1"
  },
  "dropItem2": {
    "dropItemId": 232,
    "probability1": 1000,
    "probability10": 0,
    "probability2": 0,
    "probability3": 0,
    "probability4": 0,
    "probability5": 0,
    "probability6": 0,
    "probability7": 0,
    "probability8": 0,
    "probability9": 0,
    "rewardCode1": "GIFT_232_1"
  },
  "dropItem3": {
    "dropItemId": 253,
    "probability1": 1000,
    "probability10": 0,
    "probability2": 0,
    "probability3": 0,
    "probability4": 0,
    "probability5": 0,
    "probability6": 0,
    "probability7": 0,
    "probability8": 0,
    "probability9": 0,
    "rewardCode1": "GIFT_253_1"
  },
  "dropItem4": {
    "dropItemId": 243,
    "probability1": 1000,
    "probability10": 0,
    "probability2": 0,
    "probability3": 0,
    "probability4": 0,
    "probability5": 0,
    "probability6": 0,
    "probability7": 0,
    "probability8": 0,
    "probability9": 0,
    "rewardCode1": "GIFT_243_1"
  },
  "dropItemId1": 231,
  "dropItemId2": 232,
  "dropItemId3": 253,
  "dropItemId4": 243,
  "endStory": "101405-14",
  "exp": 48,
  "firstClearRewardCode": "ITEM_COMPOSE_ITEM_ALL_P_1",
  "mission1": "NOT_DEAD",
  "mission2": "ACTION_15",
  "mission3": "COUNT_CONNECT_1",
  "missionMaster1": {
    "condition": 0,
    "description": "一人も倒れずにクリア",
    "missionCode": "NOT",
    "missionSubCode": "DEAD"
  },
  "missionMaster2": {
    "condition": 15,
    "description": "15ターン以内クリア",
    "missionCode": "ACTION"
  },
  "missionMaster3": {
    "condition": 1,
    "description": "コネクトを1回発動",
    "missionCode": "COUNT",
    "missionSubCode": "CONNECT"
  },
  "missionRewardCode": "ITEM_PRESENTED_MONEY_3",
  "npcHelpDisplayHidden": false,
  "npcHelpId": "111,112",
  "npcHelpNameHidden": false,
  "npcHelpNameQuestHidden": false,
  "npcHelpSupportHidden": false,
  "parameterMap": {},
  "placeId": "13081",
  "questBattleId": 1014056,
  "questStory": "101405-13",
  "riche": 552,
  "sectionId": 101405,
  "sectionIndex": 6,
  "startStory": "101405-12",
  "storyWaveIndex": 1,
  "waveEnemyAttributeIdList": [
    "TIMBER",
    "DARK",
    "LIGHT"
  ]
}