{
  "ap": 30,
  "baseBondsPt": 90,
  "bgm": "bgm01_battle03",
  "bossBgm": "bgm01_battle03",
  "cardExp": 120,
  "consumeType": "NORMAL",
  "defaultDropItem": {
    "dropItemId": 101,
    "probability1": 50,
    "probability10": 0,
    "probability2": 950,
    "probability3": 0,
    "probability4": 0,
    "probability5": 0,
    "probability6": 0,
    "probability7": 0,
    "probability8": 0,
    "probability9": 0,
    "rewardCode1": "RICHE_300",
    "rewardCode2": "MISS"
  },
  "defaultDropItemId": 101,
  "difficulty": 90,
  "dropItem1": {
    "dropItemId": 100907,
    "probability1": 1000,
    "probability10": 0,
    "probability2": 0,
    "probability3": 0,
    "probability4": 0,
    "probability5": 0,
    "probability6": 0,
    "probability7": 0,
    "probability8": 0,
    "probability9": 0,
    "rewardCode1": "ITEM_EVENT_TRAINING_1009_2"
  },
  "dropItem2": {
    "dropItemId": 100908,
    "probability1": 600,
    "probability10": 0,
    "probability2": 400,
    "probability3": 0,
    "probability4": 0,
    "probability5": 0,
    "probability6": 0,
    "probability7": 0,
    "probability8": 0,
    "probability9": 0,
    "rewardCode1": "ITEM_EVENT_TRAINING_1009_4",
    "rewardCode2": "MISS"
  },
  "dropItem3": {
    "dropItemId": 100906,
    "probability1": 600,
    "probability10": 0,
    "probability2": 500,
    "probability3": 0,
    "probability4": 0,
    "probability5": 0,
    "probability6": 0,
    "probability7": 0,
    "probability8": 0,
    "probability9": 0,
    "rewardCode1": "ITEM_EVENT_TRAINING_1009_3",
    "rewardCode2": "MISS"
  },
  "dropItem4": {
    "dropItemId": 306,
    "probability1": 1000,
    "probability10": 0,
    "probability2": 0,
    "probability3": 0,
    "probability4": 0,
    "probability5": 0,
    "probability6": 0,
    "probability7": 0,
    "probability8": 0,
    "probability9": 0,
    "rewardCode1": "GIFT_306_1"
  },
  "dropItemId1": 100907,
  "dropItemId2": 100908,
  "dropItemId3": 100906,
  "dropItemId4": 306,
  "eventId": 1009,
  "exp": 180,
  "firstClearRewardCode": "ITEM_COMPOSE_ITEM_ALL_PP_1",
  "mission1": "HP_20",
  "mission2": "ACTION_30",
  "mission3": "NOT_CONTINUE",
  "missionMaster1": {
    "condition": 20,
    "description": "合計残HPが20％以上でクリア",
    "missionCode": "HP"
  },
  "missionMaster2": {
    "condition": 30,
    "description": "30ターン以内クリア",
    "missionCode": "ACTION"
  },
  "missionMaster3": {
    "condition": 0,
    "description": "コンティニュー無しでクリア",
    "missionCode": "NOT",
    "missionSubCode": "CONTINUE"
  },
  "missionRewardCode": "ITEM_PRESENTED_MONEY_5",
  "parameter": "EXPC=3000,EP=3000",
  "parameterMap": {
    "EP": "3000",
    "EXPC": "3000"
  },
  "placeId": "47000",
  "questBattleId": 5000944,
  "riche": 1500,
  "sectionId": 500094,
  "sectionIndex": 4,
  "title": "エクストラⅣ",
  "waveEnemyAttributeIdList": [
    "LIGHT"
  ]
}