{
  "baseBondsPt": 45,
  "bgm": "bgm01_anime12",
  "bossBgm": "bgm01_anime12",
  "cardExp": 80,
  "consumeType": "NORMAL",
  "defaultDropItem": {
    "dropItemId": 102,
    "probability1": 50,
    "probability10": 0,
    "probability2": 950,
    "probability3": 0,
    "probability4": 0,
    "probability5": 0,
    "probability6": 0,
    "probability7": 0,
    "probability8": 0,
    "probability9": 0,
    "rewardCode1": "RICHE_1000",
    "rewardCode2": "MISS"
  },
  "defaultDropItemId": 102,
  "dropItem1": {
    "dropItemId": 301,
    "probability1": 1000,
    "probability10": 0,
    "probability2": 0,
    "probability3": 0,
    "probability4": 0,
    "probability5": 0,
    "probability6": 0,
    "probability7": 0,
    "probability8": 0,
    "probability9": 0,
    "rewardCode1": "GIFT_301_1"
  },
  "dropItem2": {
    "dropItemId": 305,
    "probability1": 1000,
    "probability10": 0,
    "probability2": 0,
    "probability3": 0,
    "probability4": 0,
    "probability5": 0,
    "probability6": 0,
    "probability7": 0,
    "probability8": 0,
    "probability9": 0,
    "rewardCode1": "GIFT_305_1"
  },
  "dropItem3": {
    "dropItemId": 554,
    "probability1": 1000,
    "probability10": 0,
    "probability2": 0,
    "probability3": 0,
    "probability4": 0,
    "probability5": 0,
    "probability6": 0,
    "probability7": 0,
    "probability8": 0,
    "probability9": 0,
    "rewardCode1": "GIFT_554_1"
  },
  "dropItemId1": 301,
  "dropItemId2": 305,
  "dropItemId3": 554,
  "endStory": "205201-2",
  "exp": 50,
  "firstClearRewardCode": "ITEM_COMPOSE_ITEM_ALL_PP_1",
  "mission1": "NOT_DEAD",
  "mission2": "ACTION_10",
  "mission3": "HP_50",
  "missionMaster1": {
    "condition": 0,
    "description": "一人も倒れずにクリア",
    "missionCode": "NOT",
    "missionSubCode": "DEAD"
  },
  "missionMaster2": {
    "condition": 10,
    "description": "10ターン以内クリア",
    "missionCode": "ACTION"
  },
  "missionMaster3": {
    "condition": 50,
    "description": "合計残HPが50％以上でクリア",
    "missionCode": "HP"
  },
  "missionRewardCode": "ITEM_PRISM_1",
  "npcHelpDisplayHidden": false,
  "npcHelpId": "106",
  "npcHelpNameHidden": false,
  "npcHelpNameQuestHidden": false,
  "npcHelpSupportHidden": false,
  "parameterMap": {},
  "placeId": "47105",
  "questBattleId": 2052012,
  "riche": 900,
  "sectionId": 205201,
  "sectionIndex": 2,
  "waveEnemyAttributeIdList": [
    "WATER",
    "TIMBER"
  ]
}