{
  "ap": 5,
  "areaDetailName": "新西区・廃墟内",
  "areaMapId": 11013,
  "charaId": 1001,
  "charaName": "環 いろは",
  "clearReward": {
    "displayName": "環 いろはの衣装【制服】",
    "genericCode": "02",
    "genericId": 1001,
    "presentType": "LIVE2D",
    "quantity": 1
  },
  "clearRewardCode": "LIVE2D_1001_02",
  "defaultCardId": 10011,
  "difficulty": 5,
  "genericId": 11,
  "genericIndex": 3,
  "imagePath": "21163",
  "message": "きっとあのキュゥべえは、私にとって＠かけがえのない存在だと思う",
  "openConditionChapter": {
    "chapterId": 11,
    "chapterNo": 1,
    "chapterNoForView": "1",
    "partNo": 1,
    "questType": "MAIN",
    "sectionCount": 3,
    "title": "はじまりのいろは"
  },
  "openConditionSection": {
    "ap": 5,
    "areaDetailName": "新西区・公園",
    "areaMapId": 11013,
    "charaId": 1001,
    "charaName": "環 いろは",
    "clearReward": {
      "displayName": "マギアストーン",
      "isNew": false,
      "item": {
        "canUse": false,
        "description": "ゲーム内通貨",
        "isSellable": false,
        "itemCode": "PRESENTED_MONEY",
        "itemType": "MONEY",
        "name": "マギアストーン",
        "price": 0,
        "shortDescription": "ゲーム内通貨",
        "sortKey": 0,
        "treasureChestColor": "GOLD",
        "unit": "個"
      },
      "itemId": "PRESENTED_MONEY",
      "presentType": "ITEM",
      "quantity": 5
    },
    "clearRewardCode": "ITEM_PRESENTED_MONEY_5",
    "defaultCardId": 10011,
    "difficulty": 3,
    "genericId": 11,
    "genericIndex": 2,
    "imagePath": "21143",
    "message": "私、どうして使い魔なんかに＠やられたんだろう…",
    "openConditionChapter": {
      "chapterId": 11,
      "chapterNo": 1,
      "chapterNoForView": "1",
      "partNo": 1,
      "questType": "MAIN",
      "sectionCount": 3,
      "title": "はじまりのいろは"
    },
    "openConditionSection": {
      "ap": 5,
      "areaDetailName": "新西中央駅",
      "areaMapId": 11012,
      "charaId": 1001,
      "charaName": "環 いろは",
      "clearReward": {
        "displayName": "マギアストーン",
        "isNew": false,
        "item": {
          "canUse": false,
          "description": "ゲーム内通貨",
          "isSellable": false,
          "itemCode": "PRESENTED_MONEY",
          "itemType": "MONEY",
          "name": "マギアストーン",
          "price": 0,
          "shortDescription": "ゲーム内通貨",
          "sortKey": 0,
          "treasureChestColor": "GOLD",
          "unit": "個"
        },
        "itemId": "PRESENTED_MONEY",
        "presentType": "ITEM",
        "quantity": 5
      },
      "clearRewardCode": "ITEM_PRESENTED_MONEY_5",
      "defaultCardId": 10011,
      "difficulty": 1,
      "genericId": 11,
      "genericIndex": 1,
      "imagePath": "21061",
      "message": "知らない女の子の夢を見るようになったのは、あのキュゥべえのせい？",
      "openEnemy": "101,102,103,104",
      "openEnemyList": [
        {
          "description": "蜘蛛のような糸を吐き結界内の空に自分だけの学園を作っている。＠生前から地味で真面目なことだけが取り柄だった魔女は、今も淡々と自身が操る手下達と共にかつてと変わらない大して楽しくもない日常を繰り返す。 今も下校チャイムを鳴らせばこの魔女はどこかの住処へと帰ってゆくだろう。＠結界内に迷い込んだ人間は、どこまでも落下しつつやがて空に溶けて魔女の養分となってしまう。＠日常生活を乱す恐ろしい部外者でも来ない限り、魔女自ら手を下すことはあまりない。",
          "designer": "原案・監修：劇団イヌカレー（泥犬）",
          "enemyId": 101,
          "enemyNo": 6400,
          "name": "委員長の魔女",
          "title": "その性質は傍観",
          "type": 1
        },
        {
          "description": "足に履いたスケート靴で糸の上を優雅に滑走するが それぞれは魔女が糸で操ってるだけであり意思を持たない。＠いつも下ばかり向いていた魔女にとってクラスメイト達は足だけあれば十分な存在。結果的に手下達の制服はブラウスが余ってしまうため結界内に干してある。＠いつも外ばかり見ていた魔女の結界は教室というにはあまりに殺風景すぎるが、手下達が上履きを履いていることからも一応この結界は室内扱いらしい。",
          "designer": "原案・監修：劇団イヌカレー（泥犬）",
          "enemyId": 102,
          "enemyNo": 7400,
          "name": "委員長の魔女の手下",
          "title": "その役割はクラスメイト",
          "type": 2
        },
        {
          "description": "こだわりが非常に強く、妥協することを知らない魔女。＠満足できる砂の城を作ろうとしているが、納得できずに何度も切り崩している。＠今となっては、魔女自身もどういったものを作りたかったのか分からなくなってしまった。ただ、それでもそれなりに立派なお城が出来ると結局崩してしまうとはいえ一時的に機嫌はよくなるらしい。＠年頃の女性を思わせる容姿に反し性格は幼稚そのもの。砂遊びを邪魔されると泣きわめいて大暴れする。",
          "designer": "原案：f4samurai、監修：劇団イヌカレー（泥犬）",
          "enemyId": 103,
          "enemyNo": 6103,
          "name": "砂場の魔女",
          "title": "その性質は没頭",
          "type": 1
        },
        {
          "description": "いつも手下同士でじゃれあって遊んでいる。体質のせいか転がって遊び回っていると、その辺に落ちているものが体にくっついてしまう。＠その度に魔女に取ってもらっているが、手下たちはそのことに全く気付いていない。次の城について悩んでいる魔女を見ると手伝いには来てくれる。ただ、どう作っても魔女には満足してもらえないため、すぐに飽きて他へ行ってしまうことが多い。",
          "designer": "原案：f4samurai、監修：劇団イヌカレー（泥犬）",
          "enemyId": 104,
          "enemyNo": 7103,
          "name": "砂場の魔女の手下",
          "title": "その役割は電車ごっこ",
          "type": 2
        }
      ],
      "outline": "以前、神浜市に訪れてから、“知らない少女の夢”を見るようになった“環いろは”。＠繰り返し“知らない少女の夢”を見るたびに、胸にざわめきを覚えるようになったいろはは、夢を見るようになった原因を探すために、再び神浜市を訪れることにした。",
      "questBattleCount": 3,
      "questType": "MAIN",
      "sectionId": 101101,
      "title": "小さいキュゥべえ"
    },
    "openConditionSectionId": 101101,
    "openEnemy": "105,106",
    "openEnemyList": [
      {
        "description": "結界の中で、自分の好みの可愛いものを収集している魔女。＠自分のことを可愛さの化身だと信じるこの魔女は、見た目を褒められたり飾り立ててもらうのが大好き。そのため、容姿を褒めちぎり可愛がりさえすれば、牙をむくことはない。ただし、自身の可愛さに僅かでも否定的なニュアンスを感知するとすぐに癇癪を起こして暴れだすので、おだてる際には細心の注意が必要。＠また、気まぐれな性格ゆえに、どんなに機嫌がよさそうでも、突然かじったり、串刺しごっこをはじめたりするので、油断は禁物。",
        "designer": "原案：f4samurai、監修：劇団イヌカレー（泥犬）",
        "enemyId": 105,
        "enemyNo": 6001,
        "name": "立ち耳の魔女",
        "title": "その性質は姫",
        "type": 1
      },
      {
        "description": "魔女の御機嫌を取るため、彼女をデコレーションするためのカワイイものを探してせわしなく動き回る手下。＠目当てのものを見つけると魔女のところに持って行き、そのアイテムを使って魔女を着飾ってあげるのだが、気に入られなかったら引き裂かれてしまうため命がけ。この手下に見つかっても、綺麗な包装紙などを投げればそれを持って一目散に魔女の元へ戻っていくだろう。",
        "designer": "原案：f4samurai、監修：劇団イヌカレー（泥犬）",
        "enemyId": 106,
        "enemyNo": 7001,
        "name": "立ち耳の魔女の手下",
        "title": "その役割は彩",
        "type": 2
      }
    ],
    "outline": "夢を見るようになった原因を探す中で、ひとりの魔法少女を助けたいろは。＠その少女から聞いたのは、いろはが夢を見る原因になったと考えている“小さなキュゥべえ”が、少女を助けた魔女の結界の中に居たという話だった。＠結界を探し、ついに“小さなキュゥべえ”を見つけたいろはだったが、そこに現れたのは使い魔の群。囲まれたいろはは激しい攻撃を受けると、気を失ってしまった。",
    "questBattleCount": 4,
    "questType": "MAIN",
    "sectionId": 101102,
    "title": "神浜市の魔法少女たち"
  },
  "openConditionSectionId": 101102,
  "openEnemy": "115,116,117,118,119,120,121,122,123",
  "openEnemyList": [
    {
      "description": "人間から奪った生命力に応じ成長する姿を変えると言われる象徴の魔女の手下達の中で、イス憑きと呼ばれる種類。＠他魔女の手下に比べごく僅かな生命力を元に様々な姿へと何段階も成長する。＠繁殖そのものを目的としており、ある程度成長した者は魔女にならずとも自身で新しい手下を産み落とすことが出来る。椅子を形どり、その利便性と完成されたフォルムを噛みしめて成長している模様。",
      "designer": "原案：f4samurai、監修：劇団イヌカレー（泥犬）",
      "enemyId": 115,
      "enemyNo": 7201,
      "name": "象徴の魔女の手下Ⅰ",
      "title": "その役割は繁殖",
      "type": 2
    },
    {
      "description": "人間から奪った生命力に応じ成長する姿を変えると言われる象徴の魔女の手下達の中で、イス憑きと呼ばれる種類。＠他魔女の手下に比べごく僅かな生命力を元に様々な姿へと何段階も成長する。＠繁殖そのものを目的としており、ある程度成長した者は魔女にならずとも自身で新しい手下を産み落とすことが出来る。椅子を形どり、その利便性と完成されたフォルムを噛みしめて成長している模様。",
      "designer": "原案：f4samurai、監修：劇団イヌカレー（泥犬）",
      "enemyId": 116,
      "enemyNo": 7202,
      "name": "象徴の魔女の手下Ⅱ",
      "title": "その役割は繁殖",
      "type": 2
    },
    {
      "description": "人間から奪った生命力に応じ成長する姿を変えると言われる象徴の魔女の手下達の中で、イス憑きと呼ばれる種類。＠他魔女の手下に比べごく僅かな生命力を元に様々な姿へと何段階も成長する。＠繁殖そのものを目的としており、ある程度成長した者は魔女にならずとも自身で新しい手下を産み落とすことが出来る。椅子を形どり、その利便性と完成されたフォルムを噛みしめて成長している模様。",
      "designer": "原案：f4samurai、監修：劇団イヌカレー（泥犬）",
      "enemyId": 117,
      "enemyNo": 7203,
      "name": "象徴の魔女の手下Ⅲ",
      "title": "その役割は繁殖",
      "type": 2
    },
    {
      "description": "人間から奪った生命力に応じ成長する姿を変えると言われる象徴の魔女の手下達の中で、イス憑きと呼ばれる種類。＠他魔女の手下に比べごく僅かな生命力を元に様々な姿へと何段階も成長する。＠繁殖そのものを目的としており、ある程度成長した者は魔女にならずとも自身で新しい手下を産み落とすことが出来る。椅子を形どり、その利便性と完成されたフォルムを噛みしめて成長している模様。",
      "designer": "原案：f4samurai、監修：劇団イヌカレー（泥犬）",
      "enemyId": 118,
      "enemyNo": 7204,
      "name": "象徴の魔女の手下Ⅳ",
      "title": "その役割は繁殖",
      "type": 2
    },
    {
      "description": "鏡屋敷にいるハウスキーパー達のひとり。＠他の手下達同様、お客様のおもてなしが大好き。＠お客様を発見するとベルを鳴らしながら、熱い抱擁で歓迎してくる。＠その体はキャンバスで出来ており、お客様の情報をその身に写し取ることが可能。＠勝手に拝借した情報はお客様を複製するときに利用されているらしい。",
      "designer": "原案：f4samurai、監修：劇団イヌカレー（泥犬）",
      "enemyId": 119,
      "enemyNo": 7211,
      "name": "鏡の魔女の手下Ⅰ",
      "title": "その役割はベル係",
      "type": 2
    },
    {
      "description": "鏡屋敷の防犯装置だが、お屋敷は不審者不遜者大歓迎。お客様に貴賎なし。＠より遠くにいるお客様の姿も精密に撮影するため望遠レンズを強化したらしい。＠そのおかげで遠くのお客様にもキスのごあいさつを投射できるようになった。",
      "designer": "原案：f4samurai、監修：劇団イヌカレー（泥犬）",
      "enemyId": 120,
      "enemyNo": 7212,
      "name": "鏡の魔女の手下Ⅱ",
      "title": "その役割は監視",
      "type": 2
    },
    {
      "description": "鏡屋敷にいるハウスキーパー達のひとり。＠お客様をおもてなしするために自身の体の中でゼリー人間を製造できる他、＠クオリティの高いお客様の複製をつくることも可能。ただし、精巧な複製お客様を作るにはゼリー人間よりもかなり時間がかかってしまう。",
      "designer": "原案：f4samurai、監修：劇団イヌカレー（泥犬）",
      "enemyId": 121,
      "enemyNo": 7213,
      "name": "鏡の魔女の手下Ⅲ",
      "title": "その役割は複製",
      "type": 2
    },
    {
      "description": "結界の外でミラーズ・鏡屋敷への招待状を配って回る手下。魔法少女を見つけると殺傷能力のある招待状を投げつけてくるが、ご招待したい気持ちは本物。＠ただ、死んでいた方が運びやすくて便利くらいに思っている疑惑はある。",
      "designer": "原案：f4samurai、監修：劇団イヌカレー（泥犬）",
      "enemyId": 122,
      "enemyNo": 7102,
      "name": "鏡の魔女の手下Ⅳ",
      "title": "その役割はDM",
      "type": 2
    },
    {
      "description": "神浜市中でその姿を見るツバメの姿をした魔女の手下。どうやら主への献呈品として魔力を集めてまわっている模様。＠そのターゲットは魔法少女や他の魔女であり、魔法少女からは直接的な魔力をはじめ＠記憶や視力、感情までを主への献呈品として盗み出し、アンカー状に変化させた脚部を用いた集団戦法で他魔女すらも捕獲してしまう。＠魔力をもたない一般の人間は献呈品として粗悪であるらしく興味がない。",
      "designer": "原案・監修：劇団イヌカレー（泥犬）",
      "enemyId": 123,
      "enemyNo": 7101,
      "name": "？？？魔女の手下",
      "type": 2
    }
  ],
  "openFunctions": "FRIEND,CHANGE_NAME",
  "outline": "“十咎ももこ”に助けられたいろはは、彼女から調整屋の“八雲みたま”を紹介してもらった。＠魔力を強化してもらう中で、『自分が魔法少女になった時の願いを忘れている』ことに気付いたいろはは、その事実が“知らない少女の夢”と関係していることを察して、再び“小さいキュゥべえ”を探し始めた。＠ところが、“七海やちよ”が立ち塞がったことで事態は変わる。いろはは“小さいキュゥべえ”がいる結界の魔女をどちらが先に倒せるか、やちよと勝負することになってしまった。",
  "questBattleCount": 5,
  "questType": "MAIN",
  "sectionId": 101103,
  "title": "夢で見る少女…"
}