{
  "eventId": 1005,
  "genericIndex": 9,
  "openDate": "2017/10/10 15:10:00",
  "openEnemyList": [],
  "parameter": "9",
  "questBattleCount": 1,
  "questType": "BRANCH",
  "sectionId": 500509,
  "title": "4話"
}