{
  "ap": 20,
  "charaId": 4002,
  "charaName": "呉 キリカ",
  "clearReward": {
    "displayName": "篭絡のドッペル",
    "genericId": 400200,
    "presentType": "DOPPEL",
    "quantity": 1
  },
  "clearRewardCode": "DOPPEL_400200",
  "defaultCardId": 40024,
  "difficulty": 80,
  "genericId": 4002,
  "genericIndex": 4,
  "imagePath": "21251",
  "message": "…………",
  "openConditionMagiaLevel": 5,
  "openConditionRank": "RANK_5",
  "openEnemyList": [],
  "questBattleCount": 3,
  "questType": "CHARA",
  "sectionId": 340024,
  "title": "キリカのドッペル"
}