{
  "ap": 13,
  "areaDetailName": "見滝原中学・廊下",
  "areaMapId": 2002,
  "charaId": 2003,
  "charaName": "暁美 ほむら",
  "clearReward": {
    "displayName": "マギアストーン",
    "item": {
      "itemCode": "PRESENTED_MONEY",
      "treasureChestColor": "GOLD"
    },
    "itemId": "PRESENTED_MONEY",
    "presentType": "ITEM",
    "quantity": 5
  },
  "clearRewardCode": "ITEM_PRESENTED_MONEY_5",
  "defaultCardId": 20034,
  "difficulty": 50,
  "genericId": 55,
  "genericIndex": 1,
  "imagePath": "20061",
  "message": "あの女の子が言っていたのは＠どう受け止めたらいいんだろう…",
  "openDate": "2017/11/27 15:10:00",
  "openEnemyList": [],
  "outline": "ほむらは、以前見た謎の少女が言っていた『神浜市で魔法少女が救われる』という言葉が気になっていた。＠ほむらはまどかに神浜について尋ねてみると、まどかについてくると言われてしまう。＠すると偶然出会ったマミに止められる。神浜は魔女が多く強いだけでなく、ウワサという未知の敵がいるらしい。＠マミがウワサについて調べをつけるまでは行かないことにしたほむらだったが、マミは行方不明になってしまった。",
  "questBattleCount": 3,
  "questType": "SUB",
  "secret": "ZdsrV",
  "sectionId": 205501,
  "title": "最後のパンケーキ"
}