{
  "ap": 12,
  "charaId": 4012,
  "charaName": "御崎 海香",
  "clearReward": {
    "displayName": "マギアストーン",
    "item": {
      "itemCode": "PRESENTED_MONEY",
      "treasureChestColor": "GOLD"
    },
    "itemId": "PRESENTED_MONEY",
    "presentType": "ITEM",
    "quantity": 5
  },
  "clearRewardCode": "ITEM_PRESENTED_MONEY_5",
  "defaultCardId": 40123,
  "difficulty": 30,
  "genericId": 4012,
  "genericIndex": 2,
  "imagePath": "21081",
  "message": "読者を目の前にして＠作家としてどういう振舞いを＠したらいいのかしら…？",
  "openDate": "2017/11/20 15:10:00",
  "openEnemyList": [],
  "questBattleCount": 3,
  "questType": "CHARA",
  "sectionId": 340122,
  "title": "ふたりはどこに？"
}