{
  "eventId": 1005,
  "genericIndex": 4,
  "openDate": "2017/10/10 15:10:00",
  "openEnemyList": [],
  "parameter": "4",
  "questBattleCount": 1,
  "questType": "BRANCH",
  "sectionId": 500504,
  "title": "2話"
}