{
  "ap": 16,
  "charaId": 4003,
  "charaName": "千歳 ゆま",
  "clearReward": {
    "displayName": "ヒーローとの出会い",
    "genericId": 1102,
    "piece": {
      "pieceId": 1102,
      "rank": "RANK_3"
    },
    "presentType": "PIECE",
    "quantity": 1
  },
  "clearRewardCode": "PIECE_1102_1",
  "defaultCardId": 40033,
  "difficulty": 50,
  "genericId": 4003,
  "genericIndex": 3,
  "imagePath": "46105",
  "message": "負けないよ…？諦めないもん…＠ゆまは、ずっと…＠キョーコのこと…守るんだもん…",
  "openConditionCharaBondsPt": 3,
  "openEnemyList": [],
  "questBattleCount": 3,
  "questType": "CHARA",
  "sectionId": 340033,
  "title": "アタシが守ってやるから"
}