{
  "ap": 6,
  "areaDetailName": "新西区・町並み",
  "areaMapId": 11011,
  "charaId": 1001,
  "charaName": "環 いろは",
  "clearReward": {
    "displayName": "マギアストーン",
    "item": {
      "itemCode": "PRESENTED_MONEY",
      "treasureChestColor": "GOLD"
    },
    "itemId": "PRESENTED_MONEY",
    "presentType": "ITEM",
    "quantity": 5
  },
  "clearRewardCode": "ITEM_PRESENTED_MONEY_5",
  "defaultCardId": 10011,
  "difficulty": 7,
  "genericId": 12,
  "genericIndex": 2,
  "imagePath": "11041",
  "message": "ももこさんたち、本当に大丈夫かな…私にできることってないのかな",
  "openConditionChapter": {
    "chapterId": 12,
    "chapterNo": 2,
    "chapterNoForView": "2",
    "partNo": 1,
    "questType": "MAIN",
    "sectionCount": 5,
    "title": "うわさの絶交ルール"
  },
  "openConditionSection": {
    "ap": 6,
    "areaDetailName": "里見メディカルセンター",
    "areaMapId": 11011,
    "charaId": 1001,
    "charaName": "環 いろは",
    "clearReward": {
      "displayName": "マギアストーン",
      "isNew": false,
      "item": {
        "canUse": false,
        "description": "ゲーム内通貨",
        "isSellable": false,
        "itemCode": "PRESENTED_MONEY",
        "itemType": "MONEY",
        "name": "マギアストーン",
        "price": 0,
        "shortDescription": "ゲーム内通貨",
        "sortKey": 0,
        "treasureChestColor": "GOLD",
        "unit": "個"
      },
      "itemId": "PRESENTED_MONEY",
      "presentType": "ITEM",
      "quantity": 5
    },
    "clearRewardCode": "ITEM_PRESENTED_MONEY_5",
    "defaultCardId": 10011,
    "difficulty": 6,
    "genericId": 12,
    "genericIndex": 1,
    "imagePath": "21012",
    "message": "ういと一緒だったあのふたりなら、＠きっと覚えてるはず",
    "openConditionChapter": {
      "chapterId": 11,
      "chapterNo": 1,
      "chapterNoForView": "1",
      "partNo": 1,
      "questType": "MAIN",
      "sectionCount": 3,
      "title": "はじまりのいろは"
    },
    "openConditionSection": {
      "ap": 5,
      "areaDetailName": "新西区・廃墟内",
      "areaMapId": 11013,
      "charaId": 1001,
      "charaName": "環 いろは",
      "clearReward": {
        "chara": {
          "attackType": 3,
          "attributeId": "LIGHT",
          "charaMessageList": [
            {
              "charaNo": 1001,
              "message": "それを人は…絆って言うのかな",
              "messageId": 6
            },
            {
              "charaNo": 1001,
              "message": "みんなで外食なんて…いつぶりだろう？",
              "messageId": 7
            },
            {
              "charaNo": 1001,
              "message": "嫌われるのが怖くて…自分に嘘をついた",
              "messageId": 8
            },
            {
              "charaNo": 1001,
              "message": "お帰りなさい。待ってたよ",
              "messageId": 9
            },
            {
              "charaNo": 1001,
              "message": "大切だからっ…！本音でぶつかるんだよ！",
              "messageId": 10
            },
            {
              "charaNo": 1001,
              "message": "ごめんね…お姉ちゃん、本当は…",
              "messageId": 11
            },
            {
              "charaNo": 1001,
              "message": "ちょっぴり苦い…思い出の料理です",
              "messageId": 12
            },
            {
              "charaNo": 1001,
              "message": "諦めなくって良かった…！",
              "messageId": 43
            },
            {
              "charaNo": 1001,
              "message": "大丈夫って…信じてたから",
              "messageId": 44
            },
            {
              "charaNo": 1001,
              "message": "お姉ちゃん、勝ったよ",
              "messageId": 45
            },
            {
              "charaNo": 1001,
              "message": "強いお姉ちゃんになれたかな",
              "messageId": 46
            }
          ],
          "defaultCard": {
            "attack": 878,
            "attributeId": "LIGHT",
            "cardCustomize": {
              "bonusCode1": "ATTACK",
              "bonusCode2": "BLAST",
              "bonusNum1": 20,
              "bonusNum2": 10,
              "cardId": 10011,
              "gift1": {
                "attributeId": "LIGHT",
                "id": 141,
                "name": "ライトオーブ",
                "price": 500,
                "rank": 1,
                "rankGift": "RANK_1"
              },
              "gift2": {
                "id": 301,
                "name": "燕尾の羽",
                "price": 1000,
                "rank": 1,
                "rankGift": "RANK_1"
              },
              "giftId1": 141,
              "giftId2": 301,
              "giftNum1": 2,
              "giftNum2": 2
            },
            "cardId": 10011,
            "cardMagia": {
              "art1": {
                "artId": 100300101,
                "effectValue": 3000,
                "growPoint": 100,
                "targetId": "ALL",
                "verbCode": "ATTACK"
              },
              "art2": {
                "artId": 200100601,
                "effectValue": 200,
                "growPoint": 10,
                "targetId": "ONE",
                "verbCode": "RESURRECT"
              },
              "artId1": 100300101,
              "artId2": 200100601,
              "groupId": 1014,
              "id": 10011,
              "name": "ストラーダ・フトゥーロ",
              "shortDescription": "敵全体にダメージ[Ⅰ] ＆ 蘇生"
            },
            "cardName": "環 いろは",
            "cardSkill": {
              "art1": {
                "artId": 200400401,
                "effectCode": "HP",
                "effectValue": 300,
                "growPoint": 20,
                "targetId": "CONNECT",
                "verbCode": "HEAL"
              },
              "artId1": 200400401,
              "groupId": 1078,
              "id": 10011,
              "name": "一緒にいるから大丈夫だよ",
              "shortDescription": "HP回復[Ⅰ]"
            },
            "charaNo": 1001,
            "commandType1": "MPUP",
            "commandType2": "MPUP",
            "commandType3": "RANGE_H",
            "commandType4": "RANGE_H",
            "commandType5": "CHARGE",
            "defense": 1157,
            "growthType": "BALANCE",
            "hp": 3068,
            "illustrator": "蒼樹うめ",
            "initialType": "HEAL",
            "magiaCharaNo": 100100,
            "magiaId": 10011,
            "miniCharaNo": 100100,
            "rank": "RANK_1",
            "rateGainMpAtk": 1000,
            "rateGainMpDef": 1200,
            "skillId": 10011
          },
          "defaultCardId": 10011,
          "description": "不思議な夢の真相を探るべく、神浜市にやってきた魔法少女。＠お人好しな性格で、気遣いが行き過ぎてしまうことも多々ある。＠最新の流行には疎く、スマホの扱いもぎこちない。＠日頃は控えめだが、ここ一番では芯の強さを見せる。",
          "designer": "蒼樹うめ",
          "enemyFlg": false,
          "evolutionCard1": {
            "attack": 948,
            "attributeId": "LIGHT",
            "cardCustomize": {
              "bonusCode1": "ATTACK",
              "bonusCode2": "DEFENSE",
              "bonusCode3": "HP",
              "bonusCode4": "ACCEL",
              "bonusCode5": "BLAST",
              "bonusCode6": "CHARGE",
              "bonusNum1": 30,
              "bonusNum2": 50,
              "bonusNum3": 40,
              "bonusNum4": 40,
              "bonusNum5": 40,
              "bonusNum6": 20,
              "cardId": 10012,
              "gift1": {
                "attributeId": "LIGHT",
                "id": 141,
                "name": "ライトオーブ",
                "price": 500,
                "rank": 1,
                "rankGift": "RANK_1"
              },
              "gift2": {
                "attributeId": "LIGHT",
                "id": 143,
                "name": "ライトオーブ＋＋",
                "price": 2000,
                "rank": 3,
                "rankGift": "RANK_3"
              },
              "gift3": {
                "attributeId": "LIGHT",
                "id": 142,
                "name": "ライトオーブ＋",
                "price": 1000,
                "rank": 2,
                "rankGift": "RANK_2"
              },
              "gift4": {
                "id": 501,
                "name": "砂場のシャベル",
                "price": 5000,
                "rank": 3,
                "rankGift": "RANK_3"
              },
              "gift5": {
                "id": 401,
                "name": "砂場の巻貝",
                "price": 1000,
                "rank": 2,
                "rankGift": "RANK_2"
              },
              "gift6": {
                "id": 305,
                "name": "屋上の鍵",
                "price": 1000,
                "rank": 1,
                "rankGift": "RANK_1"
              },
              "giftId1": 141,
              "giftId2": 143,
              "giftId3": 142,
              "giftId4": 501,
              "giftId5": 401,
              "giftId6": 305,
              "giftNum1": 6,
              "giftNum2": 2,
              "giftNum3": 4,
              "giftNum4": 1,
              "giftNum5": 3,
              "giftNum6": 5
            },
            "cardId": 10012,
            "cardMagia": {
              "art1": {
                "artId": 100300101,
                "effectValue": 3000,
                "growPoint": 100,
                "targetId": "ALL",
                "verbCode": "ATTACK"
              },
              "art2": {
                "artId": 200100601,
                "effectValue": 200,
                "growPoint": 10,
                "targetId": "ONE",
                "verbCode": "RESURRECT"
              },
              "artId1": 100300101,
              "artId2": 200100601,
              "groupId": 1014,
              "id": 10012,
              "name": "ストラーダ・フトゥーロ",
              "shortDescription": "敵全体にダメージ[Ⅰ] ＆ 蘇生"
            },
            "cardName": "環 いろは",
            "cardSkill": {
              "art1": {
                "artId": 200400403,
                "effectCode": "HP",
                "effectValue": 350,
                "growPoint": 20,
                "targetId": "CONNECT",
                "verbCode": "HEAL"
              },
              "artId1": 200400403,
              "groupId": 1078,
              "id": 10012,
              "name": "一緒にいるから大丈夫だよ",
              "shortDescription": "HP回復[Ⅲ]"
            },
            "charaNo": 1001,
            "commandType1": "MPUP",
            "commandType2": "MPUP",
            "commandType3": "RANGE_H",
            "commandType4": "RANGE_H",
            "commandType5": "CHARGE",
            "defense": 1255,
            "growthType": "BALANCE",
            "hp": 3323,
            "initialType": "HEAL",
            "magiaCharaNo": 100100,
            "magiaId": 10012,
            "miniCharaNo": 100100,
            "rank": "RANK_2",
            "rateGainMpAtk": 1000,
            "rateGainMpDef": 1200,
            "skillId": 10012
          },
          "evolutionCard2": {
            "attack": 1132,
            "attributeId": "LIGHT",
            "cardCustomize": {
              "bonusCode1": "ATTACK",
              "bonusCode2": "DEFENSE",
              "bonusCode3": "HP",
              "bonusCode4": "ACCEL",
              "bonusCode5": "BLAST",
              "bonusCode6": "CHARGE",
              "bonusNum1": 40,
              "bonusNum2": 60,
              "bonusNum3": 50,
              "bonusNum4": 50,
              "bonusNum5": 50,
              "bonusNum6": 30,
              "cardId": 10013,
              "gift1": {
                "attributeId": "LIGHT",
                "id": 141,
                "name": "ライトオーブ",
                "price": 500,
                "rank": 1,
                "rankGift": "RANK_1"
              },
              "gift2": {
                "attributeId": "LIGHT",
                "id": 143,
                "name": "ライトオーブ＋＋",
                "price": 2000,
                "rank": 3,
                "rankGift": "RANK_3"
              },
              "gift3": {
                "attributeId": "LIGHT",
                "id": 142,
                "name": "ライトオーブ＋",
                "price": 1000,
                "rank": 2,
                "rankGift": "RANK_2"
              },
              "gift4": {
                "id": 551,
                "name": "レインボーオーブ",
                "price": 10000,
                "rank": 3,
                "rankGift": "RANK_3"
              },
              "gift5": {
                "id": 501,
                "name": "砂場のシャベル",
                "price": 5000,
                "rank": 3,
                "rankGift": "RANK_3"
              },
              "gift6": {
                "id": 302,
                "name": "鏡の招待状",
                "price": 1000,
                "rank": 1,
                "rankGift": "RANK_1"
              },
              "giftId1": 141,
              "giftId2": 143,
              "giftId3": 142,
              "giftId4": 551,
              "giftId5": 501,
              "giftId6": 302,
              "giftNum1": 9,
              "giftNum2": 4,
              "giftNum3": 7,
              "giftNum4": 2,
              "giftNum5": 3,
              "giftNum6": 8
            },
            "cardId": 10013,
            "cardMagia": {
              "art1": {
                "artId": 100300102,
                "effectValue": 3100,
                "growPoint": 100,
                "targetId": "ALL",
                "verbCode": "ATTACK"
              },
              "art2": {
                "artId": 200100603,
                "effectValue": 250,
                "growPoint": 10,
                "targetId": "ONE",
                "verbCode": "RESURRECT"
              },
              "artId1": 100300102,
              "artId2": 200100603,
              "groupId": 1014,
              "id": 10013,
              "name": "ストラーダ・フトゥーロ",
              "shortDescription": "敵全体にダメージ[Ⅱ] ＆ 蘇生"
            },
            "cardName": "環 いろは",
            "cardSkill": {
              "art1": {
                "artId": 200400405,
                "effectCode": "HP",
                "effectValue": 400,
                "growPoint": 20,
                "targetId": "CONNECT",
                "verbCode": "HEAL"
              },
              "artId1": 200400405,
              "groupId": 1078,
              "id": 10013,
              "name": "一緒にいるから大丈夫だよ",
              "shortDescription": "HP回復[Ⅴ]"
            },
            "charaNo": 1001,
            "commandType1": "MPUP",
            "commandType2": "MPUP",
            "commandType3": "RANGE_H",
            "commandType4": "RANGE_H",
            "commandType5": "CHARGE",
            "defense": 1497,
            "growthType": "BALANCE",
            "hp": 3963,
            "initialType": "HEAL",
            "magiaCharaNo": 100100,
            "magiaId": 10013,
            "miniCharaNo": 100100,
            "rank": "RANK_3",
            "rateGainMpAtk": 1000,
            "rateGainMpDef": 1200,
            "skillId": 10013
          },
          "evolutionCardId1": 10012,
          "evolutionCardId2": 10013,
          "firstMagiaGift1": {
            "attributeId": "LIGHT",
            "id": 241,
            "name": "ライトブック",
            "price": 500,
            "rank": 1,
            "rankGift": "RANK_1"
          },
          "firstMagiaGift2": {
            "id": 301,
            "name": "燕尾の羽",
            "price": 1000,
            "rank": 1,
            "rankGift": "RANK_1"
          },
          "firstMagiaGiftId1": 241,
          "firstMagiaGiftId2": 301,
          "firstMagiaGiftNum1": 2,
          "firstMagiaGiftNum2": 2,
          "fourthMagiaGift1": {
            "attributeId": "LIGHT",
            "id": 241,
            "name": "ライトブック",
            "price": 500,
            "rank": 1,
            "rankGift": "RANK_1"
          },
          "fourthMagiaGift2": {
            "id": 302,
            "name": "鏡の招待状",
            "price": 1000,
            "rank": 1,
            "rankGift": "RANK_1"
          },
          "fourthMagiaGift3": {
            "attributeId": "LIGHT",
            "id": 242,
            "name": "ライトブック＋",
            "price": 1000,
            "rank": 2,
            "rankGift": "RANK_2"
          },
          "fourthMagiaGift4": {
            "id": 501,
            "name": "砂場のシャベル",
            "price": 5000,
            "rank": 3,
            "rankGift": "RANK_3"
          },
          "fourthMagiaGift5": {
            "attributeId": "LIGHT",
            "id": 243,
            "name": "ライトブック＋＋",
            "price": 2000,
            "rank": 3,
            "rankGift": "RANK_3"
          },
          "fourthMagiaGift6": {
            "id": 552,
            "name": "立ち耳の綿",
            "price": 5000,
            "rank": 3,
            "rankGift": "RANK_3"
          },
          "fourthMagiaGiftId1": 241,
          "fourthMagiaGiftId2": 302,
          "fourthMagiaGiftId3": 242,
          "fourthMagiaGiftId4": 501,
          "fourthMagiaGiftId5": 243,
          "fourthMagiaGiftId6": 552,
          "fourthMagiaGiftNum1": 8,
          "fourthMagiaGiftNum2": 8,
          "fourthMagiaGiftNum3": 6,
          "fourthMagiaGiftNum4": 2,
          "fourthMagiaGiftNum5": 4,
          "fourthMagiaGiftNum6": 4,
          "growthType": "BALANCE",
          "id": 1001,
          "initialType": "HEAL",
          "kana": "たまき いろは",
          "name": "環 いろは",
          "saleItem": {
            "canUse": false,
            "description": "ショップで特別なアイテムと交換することができるアイテム",
            "isSellable": false,
            "itemCode": "PRISM",
            "name": "マギアチップ",
            "price": 0,
            "shortDescription": "マギアチップ",
            "sortKey": 0,
            "treasureChestColor": "GOLD",
            "unit": "個"
          },
          "saleItemId": "PRISM",
          "school": "神浜市立大附属学校",
          "secondMagiaGift1": {
            "attributeId": "LIGHT",
            "id": 241,
            "name": "ライトブック",
            "price": 500,
            "rank": 1,
            "rankGift": "RANK_1"
          },
          "secondMagiaGift2": {
            "id": 303,
            "name": "立ち耳の包装紙",
            "price": 3000,
            "rank": 1,
            "rankGift": "RANK_1"
          },
          "secondMagiaGift3": {
            "attributeId": "LIGHT",
            "id": 242,
            "name": "ライトブック＋",
            "price": 1000,
            "rank": 2,
            "rankGift": "RANK_2"
          },
          "secondMagiaGift4": {
            "id": 401,
            "name": "砂場の巻貝",
            "price": 1000,
            "rank": 2,
            "rankGift": "RANK_2"
          },
          "secondMagiaGiftId1": 241,
          "secondMagiaGiftId2": 303,
          "secondMagiaGiftId3": 242,
          "secondMagiaGiftId4": 401,
          "secondMagiaGiftNum1": 4,
          "secondMagiaGiftNum2": 4,
          "secondMagiaGiftNum3": 2,
          "secondMagiaGiftNum4": 2,
          "thirdMagiaGift1": {
            "attributeId": "LIGHT",
            "id": 241,
            "name": "ライトブック",
            "price": 500,
            "rank": 1,
            "rankGift": "RANK_1"
          },
          "thirdMagiaGift2": {
            "id": 305,
            "name": "屋上の鍵",
            "price": 1000,
            "rank": 1,
            "rankGift": "RANK_1"
          },
          "thirdMagiaGift3": {
            "attributeId": "LIGHT",
            "id": 242,
            "name": "ライトブック＋",
            "price": 1000,
            "rank": 2,
            "rankGift": "RANK_2"
          },
          "thirdMagiaGift4": {
            "id": 401,
            "name": "砂場の巻貝",
            "price": 1000,
            "rank": 2,
            "rankGift": "RANK_2"
          },
          "thirdMagiaGift5": {
            "attributeId": "LIGHT",
            "id": 243,
            "name": "ライトブック＋＋",
            "price": 2000,
            "rank": 3,
            "rankGift": "RANK_3"
          },
          "thirdMagiaGift6": {
            "id": 501,
            "name": "砂場のシャベル",
            "price": 5000,
            "rank": 3,
            "rankGift": "RANK_3"
          },
          "thirdMagiaGiftId1": 241,
          "thirdMagiaGiftId2": 305,
          "thirdMagiaGiftId3": 242,
          "thirdMagiaGiftId4": 401,
          "thirdMagiaGiftId5": 243,
          "thirdMagiaGiftId6": 501,
          "thirdMagiaGiftNum1": 6,
          "thirdMagiaGiftNum2": 6,
          "thirdMagiaGiftNum3": 4,
          "thirdMagiaGiftNum4": 4,
          "thirdMagiaGiftNum5": 2,
          "thirdMagiaGiftNum6": 2,
          "voiceActor": "麻倉もも"
        },
        "displayName": "環 いろはの衣装【制服】",
        "genericCode": "02",
        "genericId": 1001,
        "isNew": false,
        "live2d": {
          "charaId": 1001,
          "defaultOpened": false,
          "description": "制服",
          "live2dId": "02",
          "voicePrefixNo": "00"
        },
        "presentType": "LIVE2D",
        "quantity": 1
      },
      "clearRewardCode": "LIVE2D_1001_02",
      "defaultCardId": 10011,
      "difficulty": 5,
      "genericId": 11,
      "genericIndex": 3,
      "imagePath": "21163",
      "message": "きっとあのキュゥべえは、私にとって＠かけがえのない存在だと思う",
      "openConditionChapter": {
        "chapterId": 11,
        "chapterNo": 1,
        "chapterNoForView": "1",
        "partNo": 1,
        "questType": "MAIN",
        "sectionCount": 3,
        "title": "はじまりのいろは"
      },
      "openConditionSection": {
        "ap": 5,
        "areaDetailName": "新西区・公園",
        "areaMapId": 11013,
        "charaId": 1001,
        "charaName": "環 いろは",
        "clearReward": {
          "displayName": "マギアストーン",
          "isNew": false,
          "item": {
            "canUse": false,
            "description": "ゲーム内通貨",
            "isSellable": false,
            "itemCode": "PRESENTED_MONEY",
            "itemType": "MONEY",
            "name": "マギアストーン",
            "price": 0,
            "shortDescription": "ゲーム内通貨",
            "sortKey": 0,
            "treasureChestColor": "GOLD",
            "unit": "個"
          },
          "itemId": "PRESENTED_MONEY",
          "presentType": "ITEM",
          "quantity": 5
        },
        "clearRewardCode": "ITEM_PRESENTED_MONEY_5",
        "defaultCardId": 10011,
        "difficulty": 3,
        "genericId": 11,
        "genericIndex": 2,
        "imagePath": "21143",
        "message": "私、どうして使い魔なんかに＠やられたんだろう…",
        "openConditionChapter": {
          "chapterId": 11,
          "chapterNo": 1,
          "chapterNoForView": "1",
          "partNo": 1,
          "questType": "MAIN",
          "sectionCount": 3,
          "title": "はじまりのいろは"
        },
        "openConditionSection": {
          "ap": 5,
          "areaDetailName": "新西中央駅",
          "areaMapId": 11012,
          "charaId": 1001,
          "charaName": "環 いろは",
          "clearReward": {
            "displayName": "マギアストーン",
            "isNew": false,
            "item": {
              "canUse": false,
              "description": "ゲーム内通貨",
              "isSellable": false,
              "itemCode": "PRESENTED_MONEY",
              "itemType": "MONEY",
              "name": "マギアストーン",
              "price": 0,
              "shortDescription": "ゲーム内通貨",
              "sortKey": 0,
              "treasureChestColor": "GOLD",
              "unit": "個"
            },
            "itemId": "PRESENTED_MONEY",
            "presentType": "ITEM",
            "quantity": 5
          },
          "clearRewardCode": "ITEM_PRESENTED_MONEY_5",
          "defaultCardId": 10011,
          "difficulty": 1,
          "genericId": 11,
          "genericIndex": 1,
          "imagePath": "21061",
          "message": "知らない女の子の夢を見るようになったのは、あのキュゥべえのせい？",
          "openEnemy": "101,102,103,104",
          "openEnemyList": [
            {
              "description": "蜘蛛のような糸を吐き結界内の空に自分だけの学園を作っている。＠生前から地味で真面目なことだけが取り柄だった魔女は、今も淡々と自身が操る手下達と共にかつてと変わらない大して楽しくもない日常を繰り返す。 今も下校チャイムを鳴らせばこの魔女はどこかの住処へと帰ってゆくだろう。＠結界内に迷い込んだ人間は、どこまでも落下しつつやがて空に溶けて魔女の養分となってしまう。＠日常生活を乱す恐ろしい部外者でも来ない限り、魔女自ら手を下すことはあまりない。",
              "designer": "原案・監修：劇団イヌカレー（泥犬）",
              "enemyId": 101,
              "enemyNo": 6400,
              "name": "委員長の魔女",
              "title": "その性質は傍観",
              "type": 1
            },
            {
              "description": "足に履いたスケート靴で糸の上を優雅に滑走するが それぞれは魔女が糸で操ってるだけであり意思を持たない。＠いつも下ばかり向いていた魔女にとってクラスメイト達は足だけあれば十分な存在。結果的に手下達の制服はブラウスが余ってしまうため結界内に干してある。＠いつも外ばかり見ていた魔女の結界は教室というにはあまりに殺風景すぎるが、手下達が上履きを履いていることからも一応この結界は室内扱いらしい。",
              "designer": "原案・監修：劇団イヌカレー（泥犬）",
              "enemyId": 102,
              "enemyNo": 7400,
              "name": "委員長の魔女の手下",
              "title": "その役割はクラスメイト",
              "type": 2
            },
            {
              "description": "こだわりが非常に強く、妥協することを知らない魔女。＠満足できる砂の城を作ろうとしているが、納得できずに何度も切り崩している。＠今となっては、魔女自身もどういったものを作りたかったのか分からなくなってしまった。ただ、それでもそれなりに立派なお城が出来ると結局崩してしまうとはいえ一時的に機嫌はよくなるらしい。＠年頃の女性を思わせる容姿に反し性格は幼稚そのもの。砂遊びを邪魔されると泣きわめいて大暴れする。",
              "designer": "原案：f4samurai、監修：劇団イヌカレー（泥犬）",
              "enemyId": 103,
              "enemyNo": 6103,
              "name": "砂場の魔女",
              "title": "その性質は没頭",
              "type": 1
            },
            {
              "description": "いつも手下同士でじゃれあって遊んでいる。体質のせいか転がって遊び回っていると、その辺に落ちているものが体にくっついてしまう。＠その度に魔女に取ってもらっているが、手下たちはそのことに全く気付いていない。次の城について悩んでいる魔女を見ると手伝いには来てくれる。ただ、どう作っても魔女には満足してもらえないため、すぐに飽きて他へ行ってしまうことが多い。",
              "designer": "原案：f4samurai、監修：劇団イヌカレー（泥犬）",
              "enemyId": 104,
              "enemyNo": 7103,
              "name": "砂場の魔女の手下",
              "title": "その役割は電車ごっこ",
              "type": 2
            }
          ],
          "outline": "以前、神浜市に訪れてから、“知らない少女の夢”を見るようになった“環いろは”。＠繰り返し“知らない少女の夢”を見るたびに、胸にざわめきを覚えるようになったいろはは、夢を見るようになった原因を探すために、再び神浜市を訪れることにした。",
          "questBattleCount": 3,
          "questType": "MAIN",
          "sectionId": 101101,
          "title": "小さいキュゥべえ"
        },
        "openConditionSectionId": 101101,
        "openEnemy": "105,106",
        "openEnemyList": [
          {
            "description": "結界の中で、自分の好みの可愛いものを収集している魔女。＠自分のことを可愛さの化身だと信じるこの魔女は、見た目を褒められたり飾り立ててもらうのが大好き。そのため、容姿を褒めちぎり可愛がりさえすれば、牙をむくことはない。ただし、自身の可愛さに僅かでも否定的なニュアンスを感知するとすぐに癇癪を起こして暴れだすので、おだてる際には細心の注意が必要。＠また、気まぐれな性格ゆえに、どんなに機嫌がよさそうでも、突然かじったり、串刺しごっこをはじめたりするので、油断は禁物。",
            "designer": "原案：f4samurai、監修：劇団イヌカレー（泥犬）",
            "enemyId": 105,
            "enemyNo": 6001,
            "name": "立ち耳の魔女",
            "title": "その性質は姫",
            "type": 1
          },
          {
            "description": "魔女の御機嫌を取るため、彼女をデコレーションするためのカワイイものを探してせわしなく動き回る手下。＠目当てのものを見つけると魔女のところに持って行き、そのアイテムを使って魔女を着飾ってあげるのだが、気に入られなかったら引き裂かれてしまうため命がけ。この手下に見つかっても、綺麗な包装紙などを投げればそれを持って一目散に魔女の元へ戻っていくだろう。",
            "designer": "原案：f4samurai、監修：劇団イヌカレー（泥犬）",
            "enemyId": 106,
            "enemyNo": 7001,
            "name": "立ち耳の魔女の手下",
            "title": "その役割は彩",
            "type": 2
          }
        ],
        "outline": "夢を見るようになった原因を探す中で、ひとりの魔法少女を助けたいろは。＠その少女から聞いたのは、いろはが夢を見る原因になったと考えている“小さなキュゥべえ”が、少女を助けた魔女の結界の中に居たという話だった。＠結界を探し、ついに“小さなキュゥべえ”を見つけたいろはだったが、そこに現れたのは使い魔の群。囲まれたいろはは激しい攻撃を受けると、気を失ってしまった。",
        "questBattleCount": 4,
        "questType": "MAIN",
        "sectionId": 101102,
        "title": "神浜市の魔法少女たち"
      },
      "openConditionSectionId": 101102,
      "openEnemy": "115,116,117,118,119,120,121,122,123",
      "openEnemyList": [
        {
          "description": "人間から奪った生命力に応じ成長する姿を変えると言われる象徴の魔女の手下達の中で、イス憑きと呼ばれる種類。＠他魔女の手下に比べごく僅かな生命力を元に様々な姿へと何段階も成長する。＠繁殖そのものを目的としており、ある程度成長した者は魔女にならずとも自身で新しい手下を産み落とすことが出来る。椅子を形どり、その利便性と完成されたフォルムを噛みしめて成長している模様。",
          "designer": "原案：f4samurai、監修：劇団イヌカレー（泥犬）",
          "enemyId": 115,
          "enemyNo": 7201,
          "name": "象徴の魔女の手下Ⅰ",
          "title": "その役割は繁殖",
          "type": 2
        },
        {
          "description": "人間から奪った生命力に応じ成長する姿を変えると言われる象徴の魔女の手下達の中で、イス憑きと呼ばれる種類。＠他魔女の手下に比べごく僅かな生命力を元に様々な姿へと何段階も成長する。＠繁殖そのものを目的としており、ある程度成長した者は魔女にならずとも自身で新しい手下を産み落とすことが出来る。椅子を形どり、その利便性と完成されたフォルムを噛みしめて成長している模様。",
          "designer": "原案：f4samurai、監修：劇団イヌカレー（泥犬）",
          "enemyId": 116,
          "enemyNo": 7202,
          "name": "象徴の魔女の手下Ⅱ",
          "title": "その役割は繁殖",
          "type": 2
        },
        {
          "description": "人間から奪った生命力に応じ成長する姿を変えると言われる象徴の魔女の手下達の中で、イス憑きと呼ばれる種類。＠他魔女の手下に比べごく僅かな生命力を元に様々な姿へと何段階も成長する。＠繁殖そのものを目的としており、ある程度成長した者は魔女にならずとも自身で新しい手下を産み落とすことが出来る。椅子を形どり、その利便性と完成されたフォルムを噛みしめて成長している模様。",
          "designer": "原案：f4samurai、監修：劇団イヌカレー（泥犬）",
          "enemyId": 117,
          "enemyNo": 7203,
          "name": "象徴の魔女の手下Ⅲ",
          "title": "その役割は繁殖",
          "type": 2
        },
        {
          "description": "人間から奪った生命力に応じ成長する姿を変えると言われる象徴の魔女の手下達の中で、イス憑きと呼ばれる種類。＠他魔女の手下に比べごく僅かな生命力を元に様々な姿へと何段階も成長する。＠繁殖そのものを目的としており、ある程度成長した者は魔女にならずとも自身で新しい手下を産み落とすことが出来る。椅子を形どり、その利便性と完成されたフォルムを噛みしめて成長している模様。",
          "designer": "原案：f4samurai、監修：劇団イヌカレー（泥犬）",
          "enemyId": 118,
          "enemyNo": 7204,
          "name": "象徴の魔女の手下Ⅳ",
          "title": "その役割は繁殖",
          "type": 2
        },
        {
          "description": "鏡屋敷にいるハウスキーパー達のひとり。＠他の手下達同様、お客様のおもてなしが大好き。＠お客様を発見するとベルを鳴らしながら、熱い抱擁で歓迎してくる。＠その体はキャンバスで出来ており、お客様の情報をその身に写し取ることが可能。＠勝手に拝借した情報はお客様を複製するときに利用されているらしい。",
          "designer": "原案：f4samurai、監修：劇団イヌカレー（泥犬）",
          "enemyId": 119,
          "enemyNo": 7211,
          "name": "鏡の魔女の手下Ⅰ",
          "title": "その役割はベル係",
          "type": 2
        },
        {
          "description": "鏡屋敷の防犯装置だが、お屋敷は不審者不遜者大歓迎。お客様に貴賎なし。＠より遠くにいるお客様の姿も精密に撮影するため望遠レンズを強化したらしい。＠そのおかげで遠くのお客様にもキスのごあいさつを投射できるようになった。",
          "designer": "原案：f4samurai、監修：劇団イヌカレー（泥犬）",
          "enemyId": 120,
          "enemyNo": 7212,
          "name": "鏡の魔女の手下Ⅱ",
          "title": "その役割は監視",
          "type": 2
        },
        {
          "description": "鏡屋敷にいるハウスキーパー達のひとり。＠お客様をおもてなしするために自身の体の中でゼリー人間を製造できる他、＠クオリティの高いお客様の複製をつくることも可能。ただし、精巧な複製お客様を作るにはゼリー人間よりもかなり時間がかかってしまう。",
          "designer": "原案：f4samurai、監修：劇団イヌカレー（泥犬）",
          "enemyId": 121,
          "enemyNo": 7213,
          "name": "鏡の魔女の手下Ⅲ",
          "title": "その役割は複製",
          "type": 2
        },
        {
          "description": "結界の外でミラーズ・鏡屋敷への招待状を配って回る手下。魔法少女を見つけると殺傷能力のある招待状を投げつけてくるが、ご招待したい気持ちは本物。＠ただ、死んでいた方が運びやすくて便利くらいに思っている疑惑はある。",
          "designer": "原案：f4samurai、監修：劇団イヌカレー（泥犬）",
          "enemyId": 122,
          "enemyNo": 7102,
          "name": "鏡の魔女の手下Ⅳ",
          "title": "その役割はDM",
          "type": 2
        },
        {
          "description": "神浜市中でその姿を見るツバメの姿をした魔女の手下。どうやら主への献呈品として魔力を集めてまわっている模様。＠そのターゲットは魔法少女や他の魔女であり、魔法少女からは直接的な魔力をはじめ＠記憶や視力、感情までを主への献呈品として盗み出し、アンカー状に変化させた脚部を用いた集団戦法で他魔女すらも捕獲してしまう。＠魔力をもたない一般の人間は献呈品として粗悪であるらしく興味がない。",
          "designer": "原案・監修：劇団イヌカレー（泥犬）",
          "enemyId": 123,
          "enemyNo": 7101,
          "name": "？？？魔女の手下",
          "type": 2
        }
      ],
      "openFunctions": "FRIEND,CHANGE_NAME",
      "outline": "“十咎ももこ”に助けられたいろはは、彼女から調整屋の“八雲みたま”を紹介してもらった。＠魔力を強化してもらう中で、『自分が魔法少女になった時の願いを忘れている』ことに気付いたいろはは、その事実が“知らない少女の夢”と関係していることを察して、再び“小さいキュゥべえ”を探し始めた。＠ところが、“七海やちよ”が立ち塞がったことで事態は変わる。いろはは“小さいキュゥべえ”がいる結界の魔女をどちらが先に倒せるか、やちよと勝負することになってしまった。",
      "questBattleCount": 5,
      "questType": "MAIN",
      "sectionId": 101103,
      "title": "夢で見る少女…"
    },
    "openConditionSectionId": 101103,
    "openEnemy": "108",
    "openEnemyList": [
      {
        "description": "結界の周りを散策するようにゆっくりと歩いている手下。＠魔女の飼い主のつもりでいる手下たちは、魔女を大切な財産だと思っている。＠普段は魔女の様子を見守る他、結界内へ迷い込んだ人間を見つけて、首から下げた角笛を吹き鳴らし、遠くの手下達に合図を送ることで集団で狩りをしている。＠とは言え、大人しい羊の魔女一匹に対して羊飼いが大量に居る状態であるため、＠人間が来ない限りはあまりやることもなく暇を持て余している。羊飼いとしての仕事より手下同士で今年のチーズの出来具合を話している時間の方が多い。",
        "designer": "原案：f4samurai、監修：劇団イヌカレー（泥犬）",
        "enemyId": 108,
        "enemyNo": 7104,
        "name": "羊の魔女の手下",
        "title": "その役割は羊飼い",
        "type": 2
      }
    ],
    "outline": "“知らない少女の夢”を見るようになった原因を探すため、神浜市にやってきたいろは。＠原因と思われる“小さいキュゥべえ”を抱きしめたとき、いろはは“知らない少女の記憶”が自分の中に溢れてくるのを感じ、その少女が『自分の妹“環うい”』であることを思い出した。＠なぜ妹のことを忘れていたのか、なぜ妹の物が家の中から無くなっているのか、いくつもの謎を残したまま、いろははこれからも、神浜市で妹を捜し続けることにした。",
    "questBattleCount": 4,
    "questType": "MAIN",
    "sectionId": 101201,
    "title": "ふたりの親友を訪ねて"
  },
  "openConditionSectionId": 101201,
  "openEnemyList": [],
  "outline": "ういの親友“里見灯花”と“柊ねむ”を思い出したいろは。ふたりがういを覚えている可能性を信じて入院先の病院を訪ねに行ったが、ふたりに会うことはできなかった。＠その後、やちよと再会したいろはは、神浜市では噂が現実になることや、『絶交ルール』という、絶交したのに復縁しようとするとバケモノに捕まるという噂の話を聞かされる。＠そして、やちよと別れた後、いろはは正に“絶交”するふたりの少女の姿を目撃してしまった。その少女たちは、以前いろはを助けてくれた、ももこの仲間だった。",
  "questBattleCount": 4,
  "questType": "MAIN",
  "sectionId": 101202,
  "title": "神浜市に溢れる噂"
}