{
  "ap": 12,
  "charaId": 3011,
  "charaName": "夏目 かこ",
  "clearReward": {
    "displayName": "マギアストーン",
    "item": {
      "itemCode": "PRESENTED_MONEY",
      "treasureChestColor": "GOLD"
    },
    "itemId": "PRESENTED_MONEY",
    "presentType": "ITEM",
    "quantity": 5
  },
  "clearRewardCode": "ITEM_PRESENTED_MONEY_5",
  "defaultCardId": 30112,
  "difficulty": 30,
  "genericId": 3011,
  "genericIndex": 2,
  "imagePath": "13023",
  "message": "あの動物…＠確かにしゃべってた…⁉＠それにどうして私の名前を…？",
  "openConditionCharaBondsPt": 2,
  "openEnemyList": [],
  "questBattleCount": 3,
  "questType": "CHARA",
  "sectionId": 330112,
  "title": "踏み出せない一歩"
}