{
  "ap": 8,
  "charaId": 3007,
  "charaName": "保澄 雫",
  "clearReward": {
    "displayName": "保澄 雫の衣装【参京院教育学園の制服】",
    "genericCode": "01",
    "genericId": 3007,
    "presentType": "LIVE2D",
    "quantity": 1
  },
  "clearRewardCode": "LIVE2D_3007_01",
  "defaultCardId": 30072,
  "difficulty": 10,
  "genericId": 3007,
  "genericIndex": 1,
  "imagePath": "13021",
  "message": "友達が私の名前を呼んでくれるのに…＠本当の私は…＠どこか別のところに居るようで…",
  "openConditionCharaBondsPt": 1,
  "openEnemyList": [],
  "questBattleCount": 3,
  "questType": "CHARA",
  "sectionId": 330071,
  "title": "たったひとつの拠りどころ"
}