{
  "ap": 16,
  "charaId": 4001,
  "charaName": "美国 織莉子",
  "clearReward": {
    "displayName": "罪と罰",
    "genericId": 1100,
    "piece": {
      "pieceId": 1100,
      "rank": "RANK_3"
    },
    "presentType": "PIECE",
    "quantity": 1
  },
  "clearRewardCode": "PIECE_1100_1",
  "defaultCardId": 40013,
  "difficulty": 50,
  "genericId": 4001,
  "genericIndex": 3,
  "imagePath": "21143",
  "message": "さて…手筈は整ったわ＠わたしも…＠わたしの目的のために動きましょう",
  "openConditionCharaBondsPt": 3,
  "openEnemyList": [],
  "questBattleCount": 3,
  "questType": "CHARA",
  "sectionId": 340013,
  "title": "わたしはとても困るのよ"
}