{
  "eventId": 1005,
  "genericIndex": 53,
  "openDate": "2017/10/16 15:10:00",
  "openEnemyList": [],
  "parameter": "0",
  "questBattleCount": 1,
  "questType": "BRANCH",
  "sectionId": 500569,
  "title": "初級"
}