{
  "eventId": 1005,
  "genericIndex": 27,
  "openDate": "2017/10/10 15:10:00",
  "openEnemyList": [],
  "parameter": "0",
  "questBattleCount": 1,
  "questType": "BRANCH",
  "sectionId": 500527,
  "title": "中級"
}