{
  "ap": 8,
  "charaId": 3025,
  "charaName": "五十鈴 れん",
  "clearReward": {
    "displayName": "五十鈴 れんの衣装【神浜市立大附属学校の制服】",
    "genericCode": "01",
    "genericId": 3025,
    "presentType": "LIVE2D",
    "quantity": 1
  },
  "clearRewardCode": "LIVE2D_3025_01",
  "defaultCardId": 30254,
  "difficulty": 10,
  "genericId": 3025,
  "genericIndex": 1,
  "imagePath": "14011",
  "message": "この世界から…理不尽な痛みが＠消えることはないのなら…＠私はもう……",
  "openConditionCharaBondsPt": 1,
  "openDate": "2017/09/15 15:10:00",
  "openEnemyList": [],
  "questBattleCount": 3,
  "questType": "CHARA",
  "sectionId": 330251,
  "title": "懐かしい光景"
}