{
  "ap": 12,
  "charaId": 1012,
  "charaName": "御園 かりん",
  "clearReward": {
    "displayName": "マギアストーン",
    "item": {
      "itemCode": "PRESENTED_MONEY",
      "treasureChestColor": "GOLD"
    },
    "itemId": "PRESENTED_MONEY",
    "presentType": "ITEM",
    "quantity": 5
  },
  "clearRewardCode": "ITEM_PRESENTED_MONEY_5",
  "defaultCardId": 10124,
  "difficulty": 30,
  "genericId": 1012,
  "genericIndex": 2,
  "imagePath": "21025",
  "message": "私は誰も助けてなかったの…？＠みんなを苦しめてただけなの…？",
  "openConditionCharaBondsPt": 2,
  "openDate": "2017/10/30 15:10:00",
  "openEnemyList": [],
  "questBattleCount": 3,
  "questType": "CHARA",
  "sectionId": 310122,
  "title": "魔法少女かりん"
}