{
  "eventId": 1008,
  "genericIndex": 24,
  "imagePath": "21242",
  "openDate": "2017/11/24 00:00:00",
  "openEnemyList": [],
  "questBattleCount": 3,
  "questType": "SINGLERAID",
  "sectionId": 500854
}