{
  "ap": 20,
  "charaId": 1010,
  "charaName": "十咎 ももこ",
  "clearReward": {
    "displayName": "自戒のドッペル",
    "genericId": 101000,
    "presentType": "DOPPEL",
    "quantity": 1
  },
  "clearRewardCode": "DOPPEL_101000",
  "defaultCardId": 10104,
  "difficulty": 80,
  "genericId": 1010,
  "genericIndex": 4,
  "imagePath": "21251",
  "message": "…………",
  "openConditionChapter": {
    "chapterId": 12,
    "chapterNo": 2,
    "chapterNoForView": "2",
    "partNo": 1,
    "questType": "MAIN",
    "sectionCount": 5,
    "title": "うわさの絶交ルール"
  },
  "openConditionMagiaLevel": 5,
  "openConditionRank": "RANK_5",
  "openConditionSection": {
    "ap": 7,
    "areaDetailName": "建設放棄地",
    "areaMapId": 11012,
    "charaId": 1010,
    "charaName": "十咎 ももこ",
    "clearReward": {
      "displayName": "環 いろは",
      "genericId": 1001,
      "presentType": "GEM",
      "quantity": 5
    },
    "clearRewardCode": "GEM_1001_5",
    "defaultCardId": 10104,
    "difficulty": 10,
    "genericId": 12,
    "genericIndex": 5,
    "imagePath": "11094",
    "message": "信じるしかないみたいだな＠神浜市では噂が現実になることを…",
    "openEnemy": "109",
    "openEnemyList": [
      {
        "description": "アラもう聞いた？誰から聞いた？＠絶交階段のそのウワサ＠フンだ！キライだ！ゼッコウだ！って言ったら見えないけどそこにある！＠もしも仲直りしようとすると、連れて行かれてサータイヘン！＠友達を落とした黒い少女に捕まると、無限の階段掃除をさせられちゃうって、＠神浜市の少女の間ではもっぱらのウワサ＠ヒーコワイ！",
        "designer": "原案：f4samurai、監修：劇団イヌカレー（泥犬）",
        "enemyId": 109,
        "enemyNo": 6002,
        "name": "絶交階段のウワサ",
        "type": 3
      }
    ],
    "openFunctions": "ARENA",
    "outline": "かえでがさらわれてレナが去ったあと、ももこと合流して魔力の痕跡を追いかけ始めたいろは。＠魔力を追い切れず、みたまを頼ろうと思った矢先、いろはの前に、解決方法を聞いてきたレナが戻ってきた。＠その方法とはレナ自身も謝罪することで、かえでをさらった相手をおびき寄せるというもの。実際にレナが行動に移してかえでに謝罪すると、いろはたちの前には、先ほどの使い魔と操られたかえでが現れた。＠そこにやちよがヘルプでやってくると、やちよにかえでを任せ、いろはとももこは結界内に居る魔女を捜し始めた。",
    "questBattleCount": 5,
    "questType": "MAIN",
    "sectionId": 101205,
    "title": "牙を剥くウワサ"
  },
  "openConditionSectionId": 101205,
  "openEnemyList": [],
  "questBattleCount": 3,
  "questType": "CHARA",
  "sectionId": 310104,
  "title": "ももこのドッペル"
}