{
  "eventId": 1005,
  "genericIndex": 2,
  "openDate": "2017/10/10 15:10:00",
  "openEnemyList": [],
  "parameter": "2",
  "questBattleCount": 1,
  "questType": "BRANCH",
  "sectionId": 500502,
  "title": "1話"
}