{
  "eventId": 1005,
  "genericIndex": 5,
  "openDate": "2017/10/10 15:10:00",
  "openEnemyList": [],
  "parameter": "5",
  "questBattleCount": 1,
  "questType": "BRANCH",
  "sectionId": 500505,
  "title": "2話"
}