{
  "eventId": 1005,
  "genericIndex": 24,
  "openDate": "2017/10/10 15:10:00",
  "openEnemyList": [],
  "parameter": "23",
  "questBattleCount": 1,
  "questType": "BRANCH",
  "sectionId": 500524,
  "title": "7話"
}