{
  "eventId": 1005,
  "genericIndex": 52,
  "openDate": "2017/10/16 15:10:00",
  "openEnemyList": [],
  "parameter": "0",
  "questBattleCount": 1,
  "questType": "BRANCH",
  "sectionId": 500568,
  "title": "上級"
}