{
  "eventId": 1005,
  "genericIndex": 16,
  "openDate": "2017/10/10 15:10:00",
  "openEnemyList": [],
  "parameter": "16",
  "questBattleCount": 1,
  "questType": "BRANCH",
  "sectionId": 500516,
  "title": "6話"
}